"Language_ID","Feature_ID","Value","Cognate_ID"
"wmr","I","awɨ","1"
"yuk","I","awɨ","1"
"kar","I","awu","1"
"mak","I","ewɨ","1"
"car","I","əwɨ","1"
"way","I","ɨwu","1"
"apa","I","ɨwɨ","1"
"pan","I","ju","2"
"pem","I","juurə","3"
"kax","I","owɨ","1"
"wai","I","owɨ","1"
"uxc","I","uɣe","3"
"bak","I","urə","3"
"kap","I","urə","3"
"ara","I","uro","3"
"hix","I","uro","3"
"ikp","I","uro","3"
"mac","I","uurɨ","3"
"aku","I","wɨ","1"
"map","I","wɨhɨ","4"
"tri","I","wɨɨ","1"
"yab","I","wɨrə","5"
"tri","all","ameraarə","6"
"apa","all","emero","6"
"way","all","əmərə","6"
"hix","all","omeroro","6"
"mak","all","tamerə","6"
"yuk","all","tuwara","7"
"bak","all","idənərə","8"
"uxc","all","tatute","9"
"car","all","tijahoro","10"
"pem","all","tuʔkarə","7"
"mac","all","tamɨʔnawɨrɨ","11"
"pan","all","atawən","8"
"ikp","all","ompan","12"
"ara","all","tompan","12"
"kar","all","paʔporo","13"
"wmr","all","jeʔʃeme","14"
"wai","all","ahnoro","13"
"kap","all","tanporo","13"
"yab","all","sukasere","15"
"map","all","oiʔbətəərɨ","16"
"kax","all","tarahkoro","10"
"tri","ash","erein","17"
"kax","ash","erunmatɨ","18"
"aku","ash","ərenə","17"
"uxc","ash","ilũmpe","19"
"bak","ash","pelupə","20"
"mac","ash","runuʔpɨ","21"
"pem","ash","uerunapue","21"
"yuk","ash","weerusa","22"
"wai","ash","wemronho","17"
"car","ash","werenə","17"
"mak","ash","weresɨkɨkɨ","22"
"kar","ash","weruʔnoʔpo","21"
"hix","ash","wɨrɨmno","23"
"kap","ash","urumərəʔpə","24"
"pan","ash","tukəənə","23"
"ikp","ash","tompilem","25"
"way","ash","eruwətpə","21"
"wmr","ash","ikrɨ","26"
"apa","ash","apoto karanɨ","27"
"ara","ash","jatkɨru","28"
"map","ash","kamarastu","29"
"yab","ash","wastupərəmutunuspə","30"
"mak","belly","wenɨ","31"
"wmr","belly","wepɨ","31"
"way","belly","wetepu","32"
"wai","belly","wetho","32"
"kax","belly","wetuhu","32"
"aku","belly","waaʔku","33"
"apa","belly","waku","33"
"car","belly","waku","33"
"tri","belly","waku","33"
"bak","belly","dəhu","34"
"uxc","belly","tehu","34"
"hix","belly","hoso","35"
"map","belly","poetɨ","35"
"kar","belly","pose","35"
"yuk","belly","pose","35"
"yab","belly","posetti","35"
"kap","belly","rota","36"
"mac","belly","roʔta","36"
"pem","belly","ewan","37"
"pan","belly","juwe","38"
"ikp","belly","emin","39"
"ara","belly","imin","39"
"aku","big","mono me","40"
"tri","big","mono me","41"
"car","big","mono(mi)","42"
"yuk","big","ʃape","43"
"bak","big","iməsedo","44"
"uxc","big","t͡sekeɣɨ","45"
"kap","big","eke","46"
"pem","big","tanno","47"
"mac","big","kureʔ","48"
"pan","big","tosen","49"
"ikp","big","oke","46"
"ara","big","tarik","50"
"hix","big","horʲme","51"
"wai","big","ɸorʲ","51"
"mak","big","ahoʔho","52"
"kar","big","poto","53"
"yab","big","tapotoi","53"
"way","big","pepta","54"
"wmr","big","tahsa","55"
"apa","big","zumo","56"
"kax","big","herenɨ","57"
"map","big","koʔmano","58"
"map","bird","konoro","59"
"wmr","bird","tɨrɨnɨ","59"
"uxc","bird","tolo","59"
"aku","bird","tonoro","59"
"kar","bird","tonoro","59"
"mak","bird","tonoro","59"
"tri","bird","tonoro","59"
"kap","bird","toron","59"
"mac","bird","toron","59"
"pem","bird","toron","59"
"car","bird","torono","59"
"hix","bird","torono","59"
"yab","bird","torono","59"
"way","bird","toropɨtɨ","59"
"wai","bird","torowo","59"
"pan","bird","tunko","60"
"yuk","bird","peʃa","61"
"bak","bird","konopio","62"
"ara","bird","talem","63"
"ikp","bird","talim","63"
"apa","bird","karau","64"
"kax","bird","tomu","65"
"mak","bite","eeka","66"
"tri","bite","eeka","66"
"kar","bite","eka","66"
"apa","bite","eseka","66"
"car","bite","eseka","66"
"yuk","bite","eseka","66"
"wai","bite","eska","66"
"pem","bite","eʔka","66"
"bak","bite","ə","67"
"way","bite","ə","67"
"wmr","bite","iki","68"
"uxc","bite","it͡si","68"
"kap","bite","iʔka","66"
"yab","bite","jat͡ʃikari","69"
"map","bite","jeeka","66"
"mac","bite","jeʔka","66"
"kax","bite","oska","70"
"hix","bite","oske","71"
"pan","bite","ɨnə","72"
"ikp","bite","etpore","73"
"ara","bite","oŋoŋ","72"
"mak","black","hurume","74"
"wmr","black","tapɨrɨma","74"
"hix","black","thurme","74"
"pan","black","tɨpuruke","75"
"mac","black","arikkɨtun","76"
"pem","black","tariʔkun","76"
"tri","black","sikinme","77"
"car","black","sukutumemɨ","78"
"apa","black","ʃinukutu mano","79"
"yuk","black","korowt͡ʃe","80"
"bak","black","təmɨgɨnẽĩ","81"
"uxc","black","huseũki","82"
"kap","black","iʔkɨrɨn","76"
"ikp","black","kɨrɨtpo","83"
"ara","black","tigrigrinem","75"
"wai","black","t͡ʃit͡ʃwije","84"
"kar","black","tɨkaraije","85"
"way","black","taririme","74"
"kax","black","tɨt͡ʃarine","85"
"map","black","kərəke","86"
"yab","black","kɨrɨkemu","86"
"kap","blood","mɨn","87"
"mac","blood","mɨnɨ","87"
"wmr","blood","mɨnɨ","87"
"kar","blood","mɨnu","87"
"ikp","blood","mɨŋ","87"
"ara","blood","mɨŋɨ","87"
"way","blood","mɨwu","88"
"pem","blood","mun","87"
"apa","blood","munu","87"
"mak","blood","munu","87"
"tri","blood","munu","87"
"car","blood","muɲu","87"
"yuk","blood","muru","87"
"bak","blood","unu","87"
"uxc","blood","uŋu","87"
"kax","blood","kami","89"
"hix","blood","kamsuku","90"
"wai","blood","kamʃuku","90"
"yab","blood","meesuku","90"
"pan","blood","met͡ʃuʔ","91"
"map","blood","misukuru","90"
"aku","blood","apiru","92"
"kap","bone","əʔpɨ","93"
"bak","bone","ibɨrɨ","94"
"wmr","bone","iɨhɨ","95"
"car","bone","ijetihɨ","93"
"uxc","bone","ipɨɣɨ","94"
"ara","bone","itpɨ","96"
"ikp","bone","itpɨn","96"
"mak","bone","jeeʔhə","93"
"pan","bone","jehpə","93"
"tri","bone","jetɨpə","93"
"way","bone","jetpə","93"
"pem","bone","jeʔpə","93"
"aku","bone","jeʔpə","93"
"mac","bone","jeʔpɨ","93"
"kar","bone","jeʔpo","93"
"yab","bone","jəspə","93"
"map","bone","jəʔbə","93"
"yuk","bone","jopo","93"
"hix","bone","jot͡ʃho","93"
"wai","bone","jot͡ʃho","93"
"kax","bone","jot͡ʃpɨ","97"
"apa","bone","zeʔpo","93"
"uxc","breast","aŋatɨ","98"
"kap","breast","manak","98"
"car","breast","manati","98"
"pem","breast","manati","98"
"apa","breast","manatɨ","98"
"hix","breast","manatɨ","98"
"tri","breast","manatɨ","98"
"wai","breast","manatɨ","98"
"way","breast","manatɨ","98"
"wmr","breast","manatɨ","98"
"kar","breast","manaʔta","98"
"mac","breast","manaʔtɨ","98"
"ara","breast","maŋa","98"
"ikp","breast","maŋat","98"
"map","breast","mati","98"
"yab","breast","matti","98"
"pan","breast","maʔ","98"
"bak","breast","wãrɨ","99"
"mak","breast","ʔrohɨ","100"
"yuk","breast","ʃeʃe","101"
"kax","breast","pɨrohu","100"
"aku","breast","manatɨ","98"
"bak","burn","adu","102"
"ikp","burn","aru","103"
"pan","burn","atɨ","102"
"uxc","burn","atu","102"
"ara","burn","jadu","102"
"pem","burn","jati","102"
"kax","burn","jatɨ","102"
"car","burn","jatu","102"
"mak","burn","jatu","102"
"tri","burn","jatu","102"
"apa","burn","zaʔ","104"
"hix","burn","atake","105"
"wai","burn","et͡ʃakɨ","105"
"kar","burn","korotɨ","106"
"way","burn","rom","107"
"mac","burn","aramɨ","103"
"kap","burn","ujeʔpu","108"
"yuk","burn","ureka","109"
"wmr","burn","kɨrɨ","106"
"map","burn","juwaʔ","110"
"yab","burn","watiri","111"
"tri","claw","(pɨ)roi","112"
"kap","claw","iʔta piʔpɨ","113"
"pem","claw","pipɨ","114"
"ikp","claw","pro","112"
"pan","claw","pu","115"
"mac","claw","puʔpɨ","114"
"wai","claw","amoʃoʃo","116"
"ara","claw","amoe","116"
"car","claw","amosairi","116"
"hix","claw","hroʃo","117"
"kar","claw","ɨʔposaikɨ","118"
"way","claw","hawin","119"
"mak","claw","əmi","120"
"apa","claw","ʃipuʔtu","121"
"bak","claw","õda","122"
"uxc","claw","õmpi","123"
"yuk","claw","etakʃu","124"
"map","claw","ta","122"
"tri","cloud","ikapurutu","125"
"wai","cloud","kaaɸu smun","126"
"kax","cloud","kahrutu","125"
"hix","cloud","kahrutunu","125"
"uxc","cloud","kamũntu","127"
"yuk","cloud","kamuru","127"
"yab","cloud","kapurutu","125"
"kap","cloud","kapuruʔ","125"
"kar","cloud","kapuʔrutu","125"
"pem","cloud","katuru","125"
"mak","cloud","kaʔrutu","125"
"mac","cloud","kutupuru","125"
"bak","cloud","eunu","128"
"pan","cloud","keʔɲato","129"
"ikp","cloud","jumt͡ʃigru","130"
"way","cloud","ekrot","131"
"ara","cloud","aptenu","132"
"apa","cloud","akuru","125"
"wmr","cloud","akeɲi","128"
"car","cloud","kahuako","129"
"map","cloud","kasihpanu","133"
"ikp","cold","gomt͡ʃin","134"
"way","cold","kəmɨi","135"
"yuk","cold","koje","136"
"pem","cold","komik","135"
"mac","cold","komiʔ","135"
"ara","cold","koŋt͡ʃipe","134"
"wmr","cold","tɨkomia","135"
"tri","cold","tɨnome","137"
"bak","cold","igəwɨnu","138"
"uxc","cold","keɨnti","134"
"kap","cold","iʔko","139"
"pan","cold","ɨʔnatə","140"
"wai","cold","twotme","140"
"hix","cold","tɨt͡ʃenotɲe","137"
"kar","cold","tɨʔsanore","137"
"mak","cold","tukunase","141"
"apa","cold","kueni","134"
"kax","cold","tuknoʔne","141"
"car","cold","kət͡ʃi","134"
"map","cold","iʔnətəke","140"
"yab","cold","aʔnepe","142"
"ikp","come","arep","143"
"ara","come","ebɨ","144"
"uxc","come","ee","145"
"kax","come","ehɨ","144"
"bak","come","əe","145"
"tri","come","əepɨ","144"
"pan","come","əpɨ","144"
"mac","come","ɨɨpɨ","144"
"kap","come","jepɨ","144"
"pem","come","jeʔpɨ","144"
"apa","come","oeʔ","146"
"yab","come","wəəpɨ","144"
"map","come","wepɨ","144"
"kar","come","wopɨ","144"
"mak","come","eʔ","147"
"wai","come","mok","148"
"hix","come","omok","149"
"way","come","uməkɨ","150"
"wmr","come","tɨta","151"
"yuk","come","ta","151"
"car","come","ɨkone","152"
"aku","come","epɨ","144"
"tri","die","ei","153"
"car","die","jahejae","154"
"kax","die","ewaihɨ","155"
"hix","die","wajeh","156"
"wai","die","wajh","157"
"kap","die","eriʔ","158"
"pem","die","eriʔkɨ","158"
"apa","die","oriʔ","158"
"way","die","rəməpɨ","159"
"kar","die","romopɨ","159"
"ikp","die","rompo","159"
"ara","die","rumpo","159"
"mac","die","saʔmanta","160"
"mak","die","əma","161"
"wmr","die","damem","162"
"pan","die","oʔkepɨ","163"
"uxc","die","apɨŋu","164"
"bak","die","igeaki","165"
"yab","die","əsəma","161"
"yuk","die","eka","166"
"map","die","tapiki","164"
"tri","dog","kaikui","167"
"way","dog","kaikui","167"
"pem","dog","kaikuse","167"
"kap","dog","kaikusi","167"
"kar","dog","kaikusi","167"
"mac","dog","kaikusi","167"
"apa","dog","kaikuʃi","167"
"car","dog","kaikut͡ʃi","167"
"ikp","dog","akari","168"
"pan","dog","akərə","168"
"kax","dog","aware","169"
"uxc","dog","ekeɣe","168"
"yab","dog","weeroro","170"
"ara","dog","wokori","168"
"hix","dog","kamara","171"
"wai","dog","kamara","171"
"mak","dog","maro","172"
"wmr","dog","tɨmeri","172"
"bak","dog","udodo","173"
"yuk","dog","eʃo","174"
"map","dog","weeroro","170"
"wmr","drink","ee","175"
"hix","drink","en","176"
"car","drink","eni","177"
"pan","drink","eni","177"
"pem","drink","eni","177"
"map","drink","eni","177"
"bak","drink","enɨ","177"
"kar","drink","enɨrɨ","177"
"mac","drink","enɨrɨ","177"
"tri","drink","enɨrɨ","177"
"kap","drink","ensi","178"
"ikp","drink","eŋgrɨ","178"
"ara","drink","eŋrɨ","177"
"wai","drink","eri","179"
"way","drink","erɨ","179"
"yab","drink","ənə","177"
"uxc","drink","ili","179"
"kax","drink","onɨ","177"
"apa","drink","enɨ","177"
"mak","drink","enku","176"
"yuk","drink","enape","180"
"aku","drink","enɨ","177"
"pem","dry","apitasak","181"
"mac","dry","awaʔpiʔta","181"
"car","dry","taraune","182"
"kar","dry","tarure","182"
"apa","dry","tonore","183"
"tri","dry","tunne","184"
"ara","dry","umne","184"
"ikp","dry","umne","184"
"yuk","dry","sansan","185"
"bak","dry","iladɨbɨ̃ẽ","186"
"uxc","dry","ahut͡sekĩmpɨɲɨ","187"
"pan","dry","ukot͡ʃike","188"
"wai","dry","turɸe","189"
"hix","dry","sororohe","190"
"way","dry","aharap","191"
"mak","dry","sereehe","190"
"wmr","dry","temɨna","184"
"kap","dry","samururun","192"
"kax","dry","tahat͡ʃe","182"
"map","dry","sikiriipɨnɨ","192"
"mak","ear","haana","193"
"hix","ear","hana","193"
"kax","ear","hana","193"
"uxc","ear","haŋa","193"
"car","ear","ihana","193"
"aku","ear","pa(a)na","193"
"apa","ear","pana","193"
"ara","ear","pana","193"
"kap","ear","pana","193"
"kar","ear","pana","193"
"mac","ear","pana","193"
"pan","ear","pana","193"
"pem","ear","pana","193"
"tri","ear","pana","193"
"way","ear","pana","193"
"wmr","ear","pana","193"
"yab","ear","pana","193"
"map","ear","pana","193"
"yuk","ear","pana","193"
"wai","ear","ɸana","193"
"ikp","ear","wana","193"
"bak","ear","wãta","194"
"pan","earth","ano","195"
"kap","earth","non","195"
"mac","earth","non","195"
"pem","earth","non","195"
"aku","earth","nono","195"
"apa","earth","nono","195"
"car","earth","nono","195"
"kar","earth","nono","195"
"mak","earth","nono","195"
"tri","earth","nono","195"
"yuk","earth","nono","195"
"map","earth","nono","195"
"yab","earth","noono","195"
"uxc","earth","ŋoŋo","195"
"bak","earth","õrõ","196"
"ikp","earth","oroŋ","197"
"ara","earth","roŋ","197"
"way","earth","ro","196"
"wai","earth","roowo","196"
"hix","earth","jukrʲeka","198"
"wmr","earth","kiʃi","199"
"kax","earth","imno","200"
"yuk","eat","enape","201"
"kar","eat","enapɨ","201"
"hix","eat","emtakma","202"
"mac","eat","entamoʔka","203"
"kap","eat","entaʔna","203"
"pem","eat","entaʔna","203"
"ara","eat","ot͡ʃimtabriŋe","204"
"ikp","eat","ot͡ʃimtagrike","204"
"tri","eat","əewetɨ","205"
"bak","eat","ə̃ɨ̃","206"
"wmr","eat","inɨ","207"
"uxc","eat","iɲãmpa","201"
"pan","eat","onpa","208"
"wai","eat","esresma","209"
"yab","eat","ərserəma","210"
"mak","eat","əəwasint͡ʃə","211"
"way","eat","ətuku","212"
"kax","eat","otku","212"
"apa","eat","otuʔ","212"
"car","eat","eserehatə","209"
"map","eat","waʔtə","213"
"aku","eat","əewetɨ","205"
"wmr","egg","bi","214"
"uxc","egg","hũĩ","214"
"way","egg","ihmo","215"
"yab","egg","ihmoi","215"
"tri","egg","iimo","215"
"car","egg","imo","215"
"map","egg","iʔmei","215"
"aku","egg","iʔmo","215"
"apa","egg","iʔmo","215"
"mak","egg","iʔmoi","215"
"hix","egg","ɨhme","215"
"kar","egg","ɨʔmo","215"
"mac","egg","pɨmoi","215"
"kap","egg","pɨmoi","215"
"pem","egg","pomoi","215"
"wai","egg","ɸume","215"
"pan","egg","uʔmoe","215"
"kax","egg","ʔmo","215"
"ara","egg","mu","216"
"ikp","egg","mu","216"
"bak","egg","õrũ","217"
"yuk","egg","nɨpɨ","218"
"car","eye","eenu","219"
"hix","eye","enu","219"
"ikp","eye","enu","219"
"kap","eye","enu","219"
"kar","eye","enu","219"
"mac","eye","enu","219"
"pan","eye","enu","219"
"pem","eye","enu","219"
"tri","eye","enu","219"
"yuk","eye","enu","219"
"ara","eye","eŋ","220"
"uxc","eye","eŋ","221"
"wai","eye","ew","220"
"mak","eye","ənu","219"
"aku","eye","ənuʔ","219"
"way","eye","əu","222"
"yab","eye","janu","219"
"map","eye","jenu","219"
"bak","eye","o","223"
"apa","eye","onu","219"
"kax","eye","onuto","219"
"wmr","eye","eba","224"
"ara","feather","abon","225"
"car","feather","ahəri","226"
"tri","feather","apərɨ","226"
"uxc","feather","ɣoko","227"
"hix","feather","hpo","228"
"wai","feather","hɸo","228"
"way","feather","ihpot","229"
"mak","feather","iʔhootɨ","228"
"pan","feather","iʔpok","230"
"kar","feather","ɨpo","230"
"pem","feather","sipok","230"
"mac","feather","siʔpo","230"
"wmr","feather","sɨhɨ","231"
"kap","feather","t͡ʃiʔpok","230"
"kax","feather","ʔhot͡ʃi","228"
"apa","feather","ʔpotɨ","228"
"ikp","feather","arogrɨ","227"
"bak","feather","ãgahudu","232"
"yuk","feather","pu(ru)","233"
"map","feather","waanari","234"
"uxc","fire","ito","235"
"bak","fire","peto","235"
"hix","fire","weheto","235"
"wai","fire","wehto","235"
"car","fire","mahoto","235"
"tri","fire","mahto","235"
"yuk","fire","wehta","236"
"pem","fire","apok","237"
"apa","fire","apoto","237"
"kap","fire","apoʔ","237"
"mac","fire","apoʔ","237"
"mak","fire","waaʔto","235"
"pan","fire","wahto","235"
"yab","fire","wahto","235"
"way","fire","wapo","237"
"wmr","fire","watɨ","235"
"kar","fire","waʔto","235"
"map","fire","waʔto","235"
"kax","fire","wehoto","235"
"ikp","fire","at͡ʃi","238"
"ara","fire","kampot","237"
"aku","fire","mato","235"
"map","fish","moroko","239"
"kap","fish","moroʔ","239"
"mac","fish","moroʔ","239"
"pem","fish","moroʔ","239"
"wai","fish","ootɨ","240"
"ara","fish","wot","241"
"ikp","fish","wot","241"
"kar","fish","woto","240"
"way","fish","ka","242"
"apa","fish","kana","242"
"hix","fish","kana","242"
"pan","fish","kana","242"
"tri","fish","kana","242"
"aku","fish","kana","242"
"uxc","fish","kaŋa","242"
"bak","fish","kãrã","242"
"mak","fish","naʔkwakano","243"
"wmr","fish","ʃiba","244"
"yuk","fish","poʃe","245"
"car","fish","ikut͡ʃa","246"
"kax","fish","kutma","246"
"hix","flesh","hun","247"
"mak","flesh","hunu","247"
"kax","flesh","hunu","247"
"car","flesh","hunu","247"
"uxc","flesh","huŋu","247"
"ikp","flesh","mnu","248"
"ara","flesh","munu","248"
"wmr","flesh","pɨnɨ","247"
"apa","flesh","pu","247"
"yuk","flesh","pu","247"
"kap","flesh","pun","247"
"kar","flesh","pun","247"
"mac","flesh","pun","247"
"pem","flesh","pun","247"
"tri","flesh","pun","247"
"way","flesh","punu","247"
"map","flesh","punu","247"
"aku","flesh","puunu","247"
"yab","flesh","puunuhpə","247"
"pan","flesh","puʔ","247"
"wai","flesh","ɸun","247"
"bak","flesh","ũrũ","249"
"ara","fly","alumɨ","250"
"uxc","fly","alun","251"
"yuk","fly","ami","252"
"mak","fly","anɲɨmɨ","253"
"kar","fly","arirumɨ","250"
"kap","fly","ariwomɨ","250"
"pem","fly","ariwomɨ","250"
"wai","fly","arɨ","251"
"mac","fly","awainamu","254"
"bak","fly","awəgɨ","255"
"ikp","fly","awm","256"
"map","fly","jarini","251"
"car","fly","kawədəketɨ","257"
"pan","fly","tən kawə","258"
"apa","fly","pokõ","259"
"hix","fly","kunto","260"
"kax","fly","werewere","261"
"tri","fly","wajan","262"
"way","fly","ətupap","263"
"wmr","fly","wanɨk","264"
"tri","foot","hpu","265"
"hix","foot","hro","266"
"bak","foot","hu","267"
"kax","foot","huhu","268"
"car","foot","huhu","268"
"ara","foot","pu","265"
"ikp","foot","pu","265"
"mac","foot","pu","265"
"kar","foot","pupu","268"
"way","foot","pupu","268"
"apa","foot","puupu","268"
"aku","foot","puʔpu","268"
"mak","foot","uhu","268"
"wai","foot","hta","269"
"pan","foot","pata","269"
"pem","foot","pɨta","269"
"kap","foot","pɨta","269"
"uxc","foot","tapɨ","270"
"yuk","foot","peʃe","271"
"wmr","foot","se","272"
"yab","foot","əstakunu","273"
"map","foot","ta","269"
"pem","full","anesak","274"
"kap","full","arɨʔtə","275"
"ikp","full","otupi","276"
"mac","full","intapɨkɨrɨ","277"
"hix","full","twahurʲe","278"
"mak","full","wensu","279"
"wai","full","t͡ʃoɸoji","280"
"apa","full","peʔme","281"
"wmr","full","pɨtanɨ","282"
"kar","full","tanuse","283"
"way","full","muno","284"
"pan","full","tuʔke","285"
"tri","full","tənnaase","283"
"uxc","full","tuɣupot͡si","276"
"bak","full","tumɨke","286"
"yab","full","peekkujemu","287"
"map","full","pekuʔje","287"
"yuk","full","tuwaje","288"
"car","full","tɨnahoke","283"
"ara","full","tudu","289"
"ikp","give","eru","290"
"ara","give","udu","291"
"bak","give","udu","291"
"mak","give","utu","291"
"pan","give","utu","291"
"yuk","give","utu","291"
"kar","give","ɨrɨ","292"
"wmr","give","rɨ","292"
"kap","give","tərɨ","292"
"mac","give","tɨrɨ","292"
"pem","give","to","291"
"uxc","give","tu","291"
"hix","give","ɨmɨ","293"
"wai","give","ɨmɨ","293"
"kax","give","mɨrɨ","292"
"car","give","ekarama","294"
"tri","give","ekarama","294"
"way","give","ekarə","294"
"apa","give","ekaro","294"
"map","give","wahtu","295"
"aku","good","kure","296"
"apa","good","kure","296"
"ara","good","kure","296"
"car","good","kure","296"
"kar","good","kure","296"
"tri","good","kure","296"
"pan","good","kara","296"
"ikp","good","karake","296"
"wmr","good","kareme","296"
"kap","good","wakɨ","297"
"pem","good","wakɨ","297"
"yuk","good","patume","298"
"bak","good","kõẽdə","299"
"uxc","good","atɨtɨ","300"
"mac","good","morɨ","301"
"wai","good","kɨrʲwa","296"
"hix","good","ohʃe","302"
"kax","good","okt͡ʃe","303"
"way","good","ipoke","303"
"mak","good","aasit͡ʃa","304"
"map","good","nope","305"
"yab","good","noppe","305"
"bak","grease/fat","gadɨ","306"
"ara","grease/fat","gat","306"
"ikp","grease/fat","gat","306"
"kar","grease/fat","katɨ","306"
"way","grease/fat","katɨ","306"
"yuk","grease/fat","kaka","306"
"car","grease/fat","katɨ","306"
"hix","grease/fat","katɨ","306"
"uxc","grease/fat","katɨ","306"
"mak","grease/fat","katɨ","306"
"tri","grease/fat","katɨ","306"
"wai","grease/fat","katɨ","306"
"pan","grease/fat","kaʔ","306"
"wmr","grease/fat","kijatɨ","306"
"kap","grease/fat","kaiwan","307"
"mac","grease/fat","kaiwan","307"
"pem","grease/fat","kaiwan","307"
"apa","grease/fat","tukasere","308"
"kax","grease/fat","aho","309"
"yab","grease/fat","kasori","308"
"map","grease/fat","kauri","308"
"mac","green","rora","310"
"pem","green","rora","310"
"kap","green","roʔra","310"
"yuk","green","ʃepe","311"
"tri","green","kurikuriwetɨ","312"
"bak","green","tukuẽĩ","313"
"uxc","green","taɣɨ huŋu","314"
"pan","green","takuʔjake","315"
"ikp","green","irwalɨ","316"
"ara","green","paebra","317"
"wai","green","tuʃkukujure","315"
"hix","green","tɨswaje","318"
"kar","green","takeneije","315"
"way","green","tɨjure","318"
"mak","green","seene","311"
"wmr","green","ʃakɨ","319"
"apa","green","use","320"
"car","green","tɨwanahikemɨ","321"
"map","green","tukare","313"
"yab","green","jaharari","322"
"hix","hair","hpo","323"
"aku","hair","hpotɨ","324"
"tri","hair","hpotɨ","324"
"wai","hair","hɸo","323"
"uxc","hair","ipu","325"
"pan","hair","iʔpok","326"
"kar","hair","ɨpo","323"
"yuk","hair","ptɨ","327"
"pem","hair","sipok","324"
"map","hair","sipotɨ","324"
"mac","hair","siʔpo","324"
"car","hair","t͡ʃihootɨ","324"
"yab","hair","t͡ʃipotti","324"
"kap","hair","t͡ʃiʔpok","324"
"kax","hair","ʔhot͡ʃi","328"
"ikp","hair","eretput","325"
"bak","hair","hudu","329"
"ara","hair","retpu","325"
"mak","hair","huʔharɨ","330"
"way","hair","pupotɨ","324"
"wmr","hair","ɨhia","323"
"apa","hair","uʔse","331"
"kar","hand","aina","332"
"bak","hand","ema","333"
"yuk","hand","ema","333"
"ara","hand","emia","333"
"mac","hand","enja","332"
"tri","hand","enja","332"
"car","hand","eɲa","332"
"pan","hand","eɲa","332"
"uxc","hand","iɲatɨ","332"
"yab","hand","jemekunu","334"
"map","hand","jemekunu","334"
"kap","hand","mijaʔ","335"
"wmr","hand","mɨɨ","333"
"ikp","hand","mja","335"
"apa","hand","oma","333"
"hix","hand","amo","333"
"wai","hand","amo","333"
"way","hand","amo","333"
"kax","hand","amo","333"
"mak","hand","amoo","333"
"pem","hand","jenna","332"
"aku","hand","enja","332"
"wai","head","htɨɸɨ","336"
"kax","head","hu","337"
"hix","head","huthu","338"
"car","head","hutuhə","338"
"mak","head","huʔhə","338"
"wmr","head","ɨhɨ","337"
"pan","head","pu","339"
"tri","head","putupə","338"
"aku","head","puupə","339"
"kap","head","puʔpai","339"
"mac","head","puʔpai","339"
"pem","head","puʔpai","339"
"kar","head","upu","339"
"way","head","uputpɨ","339"
"apa","head","upuʔpu","339"
"ikp","head","momt͡ʃi","340"
"ara","head","munt͡ʃi","340"
"yuk","head","wasa","341"
"bak","head","ãgahu","342"
"uxc","head","ɣitɨ","343"
"yab","head","waisteri","341"
"map","head","wastə","341"
"car","hear","eta","344"
"kap","hear","eta","344"
"kar","hear","eta","344"
"mac","hear","eta","344"
"mak","hear","eta","344"
"pem","hear","eta","344"
"tri","hear","eta","344"
"yab","hear","eta","344"
"yuk","hear","eta","344"
"kax","hear","eta","344"
"pan","hear","etja","344"
"map","hear","eta","344"
"bak","hear","ida","344"
"uxc","hear","ta","344"
"wmr","hear","te","344"
"ara","hear","daŋ","344"
"wai","hear","enta","345"
"hix","hear","eɲt͡ʃa","345"
"ikp","hear","iraŋ","346"
"apa","hear","oseta","344"
"way","hear","panakma","347"
"pan","heart/guts","awa","348"
"hix","heart/guts","ewa","348"
"aku","heart/guts","ewaaʔne","348"
"kap","heart/guts","ewan","348"
"mac","heart/guts","ewan","348"
"pem","heart/guts","ewan","348"
"wai","heart/guts","ewan","348"
"tri","heart/guts","ewanə","348"
"way","heart/guts","ewanə","348"
"mak","heart/guts","əwanɨ","348"
"yab","heart/guts","jawaani","348"
"apa","heart/guts","oano","349"
"yuk","heart/guts","watru","350"
"bak","heart/guts","ãgahu","351"
"uxc","heart/guts","noho","352"
"ikp","heart/guts","wɨn momt͡ʃi","353"
"ara","heart/guts","orebu","354"
"kar","heart/guts","turu","350"
"wmr","heart/guts","ba","355"
"kax","heart/guts","toho","352"
"car","heart/guts","eremorohe","356"
"map","heart/guts","nəni","349"
"wai","horn","meretɨ","357"
"mak","horn","reetai","357"
"kar","horn","remetɨ","357"
"pem","horn","reti","357"
"kap","horn","retɨ","357"
"apa","horn","retɨ","357"
"tri","horn","retɨ","357"
"way","horn","retɨ","357"
"mac","horn","rettɨ","357"
"map","horn","reʔtirɨ","357"
"ikp","horn","iwomtam","358"
"hix","horn","waʃuru","359"
"wmr","horn","miteʔ","360"
"pan","horn","panasɨkɨn","361"
"uxc","horn","ɣikɨɣɨ","362"
"bak","horn","wə̃ẽkɨ","362"
"yuk","horn","jɨtowata","363"
"car","horn","ikat͡ʃori","364"
"ara","horn","rego","365"
"kax","horn","aretwo","357"
"pem","hot","ane","366"
"tri","hot","atuma","367"
"uxc","hot","atuŋu","368"
"car","hot","atusaka","369"
"kap","hot","aʔneʔ","366"
"mac","hot","aʔneʔ","366"
"hix","hot","takɲe","366"
"yab","hot","tattune","368"
"mak","hot","taʔne","366"
"kax","hot","taʔne","366"
"map","hot","taʔtune","368"
"yuk","hot","temeʃne","370"
"bak","hot","tədəpige","371"
"pan","hot","katapəhtə","371"
"ikp","hot","ɨrɨp","372"
"wai","hot","ot͡ʃoro","373"
"way","hot","ahi","374"
"kar","hot","asin pe","375"
"wmr","hot","etɨpa","367"
"apa","hot","jetu","376"
"ara","hot","otpe","377"
"map","kill","wawə","378"
"pem","kill","wə","379"
"tri","kill","wɨ","379"
"mac","kill","wɨɨ","379"
"ikp","kill","erenmɨ","380"
"ara","kill","ereŋmɨ","380"
"bak","kill","ɨə","381"
"kar","kill","wo","379"
"yuk","kill","et͡ʃoka","382"
"uxc","kill","he","383"
"kap","kill","iʔmaʔka","384"
"pan","kill","ama","385"
"kax","kill","awajihka","386"
"wai","kill","wajhka","387"
"hix","kill","otaha","388"
"way","kill","upmo","389"
"mak","kill","ema","385"
"wmr","kill","ii","381"
"car","kill","hɨnəhɨ","390"
"apa","kill","etapa","388"
"yab","kill","jawa","378"
"pem","knee","esemu","391"
"kap","knee","eseʔmu","391"
"hix","knee","esokna","392"
"bak","knee","ezẽũ","393"
"way","knee","əhehmu","391"
"mak","knee","əʔmu","391"
"mac","knee","jeseʔmo","391"
"kar","knee","okuna","392"
"wai","knee","osokm","391"
"apa","knee","sekumu","391"
"kax","knee","sokmu","391"
"pan","knee","t͡ʃeʔmu","391"
"car","knee","esena","394"
"aku","knee","eʔreʔnaa","394"
"tri","knee","wereena","394"
"ara","knee","edegum","395"
"ikp","knee","pjagumi","396"
"wmr","knee","kɨse dɨkrɨ","397"
"uxc","knee","iɣipaŋa","398"
"yab","knee","t͡ʃikimura","399"
"yuk","knee","emekre","400"
"map","knee","pore","401"
"mac","know","epuʔtɨ","402"
"kap","know","iʔtu","402"
"wmr","know","pɨ","403"
"pem","know","putu","402"
"uxc","know","uhu","404"
"bak","know","utu","404"
"map","know","wahputu","402"
"apa","know","uaro","405"
"tri","know","waarə","406"
"aku","know","warə","406"
"car","know","warɨ","406"
"yuk","know","wano","407"
"pan","know","int͡ʃa","408"
"ikp","know","orempan","409"
"ara","know","eŋguam","410"
"wai","know","eeɲa","411"
"hix","know","hutwa","412"
"kar","know","ukutɨ","413"
"way","know","potnəpɨ","414"
"mak","know","owanokə","407"
"kax","know","onwo","415"
"yab","know","erianpatawa","416"
"kap","leaf","ajan","417"
"ikp","leaf","ampon","418"
"way","leaf","are","419"
"aku","leaf","arɨ","419"
"ara","leaf","arɨ","419"
"bak","leaf","arɨ","419"
"car","leaf","arɨ","419"
"hix","leaf","arɨ","419"
"kar","leaf","arɨ","419"
"tri","leaf","arɨ","419"
"yab","leaf","ettareri","420"
"wmr","leaf","ja","421"
"map","leaf","jaari","419"
"wai","leaf","jaarɨ","419"
"mac","leaf","jare","419"
"pem","leaf","jare","419"
"mak","leaf","jarɨ","419"
"uxc","leaf","taɣɨ","422"
"pan","leaf","tjan","417"
"yuk","leaf","weht͡ʃare","423"
"apa","leaf","zarɨ","419"
"kax","leaf","ahesɨ","424"
"wmr","liver","are ba","425"
"ara","liver","ere","426"
"bak","liver","ere","426"
"car","liver","ere","426"
"ikp","liver","ere","426"
"kap","liver","ere","426"
"kar","liver","ere","426"
"mac","liver","ere","426"
"tri","liver","ere","426"
"wai","liver","ere","426"
"yab","liver","ere","426"
"map","liver","ere","426"
"pem","liver","ererɨpɨ","427"
"kax","liver","eretpɨ","427"
"hix","liver","erʲe","426"
"way","liver","əre","426"
"yuk","liver","ore","426"
"apa","liver","ore","426"
"uxc","liver","tilu","428"
"mak","liver","t͡ʃəəre","426"
"pan","liver","inkeɲ","429"
"aku","liver","əre","426"
"bak","long","iməsedo","430"
"kar","long","masiʔpe","431"
"yuk","long","mesene","430"
"apa","long","mosa","432"
"pem","long","musan","433"
"kax","long","mut͡ʃani","433"
"uxc","long","tamit͡si","434"
"tri","long","ma(a)","435"
"car","long","mɨha","432"
"aku","long","mɨʔa","432"
"wai","long","kaw","436"
"hix","long","kawo","436"
"ara","long","ibak","437"
"ikp","long","ɨkap","438"
"kap","long","akəreke","439"
"way","long","kupime","440"
"map","long","tareʔke","439"
"mac","long","kusan","433"
"pan","long","tankət͡ʃike","441"
"mak","long","nuwe","442"
"yab","long","teihpono","443"
"uxc","louse","ãĩ","444"
"ikp","louse","ajam","445"
"pan","louse","ajamə","446"
"hix","louse","ajamo","446"
"mac","louse","ajan","445"
"ara","louse","amɨ","447"
"kap","louse","aran","448"
"pem","louse","aran","448"
"apa","louse","azamo","446"
"car","louse","d͡ʒami","447"
"bak","louse","emɨ","447"
"way","louse","əjamo","446"
"tri","louse","jamɨ","447"
"kax","louse","jomɨ","449"
"map","louse","kaamɨ","447"
"yab","louse","kajamə","446"
"wai","louse","ojomo","446"
"kar","louse","omɨ","447"
"mak","louse","ramə","446"
"yuk","louse","waja","450"
"wmr","louse","wɨmɨ","450"
"car","man","gɨrɨ","451"
"yuk","man","kɨpa","452"
"aku","man","kɨrɨ","451"
"hix","man","kɨrɨ","451"
"tri","man","kɨrɨ","451"
"wai","man","kɨrɨ","451"
"pem","man","kurai","451"
"wmr","man","wɨkɨrɨ","451"
"kar","man","wokɨrɨ","451"
"ara","man","ugon","453"
"bak","man","uguõdo","454"
"ikp","man","ugwon","453"
"mac","man","warajoʔ","455"
"kap","man","warawoʔ","455"
"way","man","eruwa","456"
"mak","man","janwaa","457"
"pan","man","apoh","458"
"uxc","man","(i)toto","459"
"apa","man","orutua","456"
"kax","man","toto","459"
"yab","man","waraisto","455"
"map","man","warastə","455"
"apa","many","tuʔke","460"
"kap","many","tuʔke","460"
"mac","many","tuʔke","460"
"pem","many","tuʔke","460"
"mak","many","oohe","461"
"wmr","many","waha","461"
"way","many","kore","462"
"pan","many","kura","462"
"yuk","many","ape","463"
"map","many","əəpe","463"
"tri","many","ijeta","464"
"bak","many","toẽzepa","465"
"uxc","many","kakɨŋi","466"
"ikp","many","itɨn","467"
"wai","many","merʲɸora","468"
"hix","many","theɲehra","469"
"kar","many","pɨime","470"
"ara","many","taje","471"
"kax","many","immo","470"
"car","many","isanumake","472"
"yab","many","juumpe","473"
"wmr","moon","nenuwe","474"
"car","moon","nuna","475"
"bak","moon","nunə","475"
"tri","moon","nunnə","475"
"apa","moon","nuno","475"
"ara","moon","nuno","475"
"hix","moon","nuno","475"
"ikp","moon","nuno","475"
"kar","moon","nuno","475"
"way","moon","nunuwə","475"
"mak","moon","nuunə","475"
"map","moon","nuunə","475"
"wai","moon","nuuɲi","475"
"uxc","moon","ŋune","475"
"kap","moon","kapəi","476"
"pem","moon","kapɨi","476"
"mac","moon","kapoi","476"
"yuk","moon","kunu","477"
"pan","moon","wanə","475"
"aku","moon","waawa","478"
"kax","moon","imno","479"
"mak","mountain","hɨɨ","480"
"bak","mountain","iwɨ","480"
"pan","mountain","iʔ","481"
"hix","mountain","ɨhɨ","480"
"wai","mountain","ɨɨɸɨ","480"
"apa","mountain","ɨpɨ","480"
"way","mountain","ɨpɨ","480"
"tri","mountain","pɨɨ","480"
"pem","mountain","wek","482"
"kar","mountain","wɨpɨ","482"
"wmr","mountain","wɨpɨ","482"
"kap","mountain","wɨʔ","482"
"mac","mountain","wɨʔ","482"
"car","mountain","itu","483"
"yab","mountain","juttu","483"
"map","mountain","jutu","483"
"ikp","mountain","elan","484"
"uxc","mountain","õ(n)tɨhɨɣɨ","485"
"yuk","mountain","owamptarɨ","486"
"ara","mountain","idɨbrɨ","487"
"kax","mountain","uʔkutuʔ","488"
"pan","mouth","ənta","489"
"kar","mouth","ɨnta","489"
"car","mouth","mɨɨta","490"
"aku","mouth","mɨɨta","490"
"kap","mouth","mɨta","490"
"pem","mouth","mɨta","490"
"way","mouth","mɨta","490"
"tri","mouth","mɨta","490"
"apa","mouth","mɨʔta","490"
"kax","mouth","mt","490"
"hix","mouth","mta","490"
"wai","mouth","mta","490"
"uxc","mouth","nta","489"
"mac","mouth","nta","489"
"mak","mouth","nta","489"
"bak","mouth","ta","489"
"wmr","mouth","pɨta","491"
"ikp","mouth","pora","491"
"ara","mouth","porɨ","491"
"yuk","mouth","pota","491"
"map","mouth","pota","491"
"yab","mouth","potari","491"
"ara","name","edet","492"
"tri","name","eetɨ","493"
"way","name","ehetɨ","493"
"car","name","ejesetɨ","493"
"ikp","name","eret","492"
"yuk","name","ese","494"
"kap","name","esek","494"
"pem","name","esek","494"
"apa","name","eseʔ","494"
"mac","name","eseʔ","494"
"hix","name","esotɨ","493"
"wmr","name","etatɨ","492"
"bak","name","ezedɨ","493"
"mak","name","ətɨ","493"
"uxc","name","ititɨ","492"
"pan","name","it͡ʃeʔ","494"
"yab","name","jasetti","493"
"map","name","jeetɨ","493"
"kax","name","oso","494"
"wai","name","osotɨ","493"
"kar","name","otɨ","493"
"kax","neck","ehɨmɨ","495"
"car","neck","hɨmɨ","495"
"mak","neck","hɨmɨ","495"
"hix","neck","hmɨ","495"
"tri","neck","hpɨmɨ","495"
"apa","neck","pɨmɨ","495"
"kap","neck","pɨmɨ","495"
"kar","neck","pɨmɨ","495"
"pan","neck","pɨmɨ","495"
"way","neck","pɨmɨ","495"
"wmr","neck","pɨmɨ","495"
"yuk","neck","pɨmɨ","495"
"aku","neck","pɨʔmɨ","495"
"pem","neck","pumɨ","495"
"wai","neck","ɸɨmɨ","495"
"bak","neck","wɨmɨ","495"
"mac","neck","ʔmɨ","496"
"uxc","neck","tiŋa","497"
"ara","neck","demt͡ʃitpɨ","498"
"ikp","neck","eremp","499"
"map","neck","warə","500"
"yab","neck","warokərəni","500"
"tri","new","kainana","501"
"car","new","kainano","501"
"mac","new","amenan","502"
"kap","new","emənnak","502"
"pem","new","menak","502"
"wmr","new","ase","503"
"kar","new","aserɨme","504"
"ikp","new","enu","505"
"hix","new","ʃeɲeno","501"
"mak","new","eruwato","506"
"wai","new","jaʃan","503"
"apa","new","kasenato","507"
"way","new","ihjanu","508"
"pan","new","piʔ","509"
"uxc","new","iɲiŋo","501"
"bak","new","iwelo","510"
"yab","new","jurari","511"
"yuk","new","kuʃpa","512"
"kax","new","isone","510"
"map","new","sekarono","513"
"wmr","night","kɨkɨ","514"
"yab","night","kohpaje","515"
"hix","night","kohsaja","516"
"ara","night","kok","514"
"ikp","night","kok","514"
"apa","night","koko","514"
"car","night","koko","514"
"kar","night","koko","514"
"uxc","night","koko","514"
"tri","night","koko","514"
"way","night","koko","514"
"yuk","night","koko","514"
"kax","night","koko","514"
"bak","night","kopae","515"
"wai","night","kosoɸe","517"
"map","night","koʔba","515"
"mac","night","ewaron","518"
"kap","night","ewarpə","519"
"pem","night","warupue","520"
"mak","night","t͡ʃomomɨɨrɨ","521"
"pan","night","sɨpaawə","522"
"aku","night","koko","514"
"bak","nose","ena","523"
"yuk","nose","ena","523"
"ara","nose","eŋna","523"
"ikp","nose","eŋna","523"
"kap","nose","euna","523"
"mac","nose","euna","523"
"wai","nose","ewna","523"
"way","nose","əmna","523"
"mak","nose","ənna","523"
"pan","nose","əwa","523"
"yab","nose","jena","523"
"pem","nose","jeuna","523"
"map","nose","jənna","523"
"car","nose","oona","523"
"tri","nose","oona","523"
"apa","nose","ouna","523"
"hix","nose","owna","524"
"kax","nose","owna","525"
"aku","nose","oʔna","523"
"kar","nose","enaʔta","526"
"uxc","nose","inata","526"
"wmr","nose","nata","526"
"wmr","not","ha","527"
"car","not","ha","527"
"uxc","not","la","528"
"bak","not","pa","528"
"yab","not","pɨra","529"
"kax","not","pɨra","529"
"ara","not","pɨra","529"
"way","not","ra","530"
"kar","not","ʔpa","527"
"mak","not","ʔra","530"
"map","not","ʔra","530"
"kap","not","pɨra","529"
"pem","not","pɨra","529"
"hix","not","pɨra","529"
"apa","not","pɨra","529"
"mac","not","pra","529"
"yuk","not","pra","529"
"ikp","not","pra","529"
"wai","not","ɸɨra","529"
"tri","not","sewa","531"
"aku","not","t͡ʃewa","531"
"pan","not","ʔka","530"
"kar","one","oʔwin","532"
"car","one","teɲi","533"
"kap","one","tewin","532"
"aku","one","təinərə","533"
"tri","one","təinken","532"
"pem","one","təukin","532"
"mac","one","tiwin","532"
"apa","one","toiro","533"
"mak","one","tooni","533"
"hix","one","toweɲʃa","532"
"wai","one","t͡ʃewɲe","534"
"kax","one","tuwinarɨ","535"
"ara","one","anane","536"
"ikp","one","nane","536"
"way","one","pəkənatpə","537"
"pan","one","titjasa","538"
"uxc","one","aetsi","539"
"bak","one","tokalə","540"
"yab","one","enihpotonore","541"
"yuk","one","kuma","542"
"map","one","təhkenarɨ","537"
"wmr","one","awɨniheʔ","543"
"uxc","path","ama","544"
"ikp","path","anma","545"
"hix","path","asama","545"
"yab","path","att͡ʃima","545"
"map","path","eema","545"
"way","path","ehema","545"
"kar","path","ema","545"
"pem","path","ema","545"
"ara","path","enma","545"
"wai","path","esama","545"
"kax","path","esma","545"
"car","path","essema","545"
"kap","path","eʔma","545"
"mac","path","eʔma","545"
"tri","path","əema","545"
"mak","path","əəma","545"
"bak","path","ə̃wã","546"
"apa","path","osema","545"
"yuk","path","osema","545"
"pan","path","t͡ʃɨma","545"
"wmr","path","wuma","547"
"aku","path","əʔema","545"
"pan","rain","kanoʔ","548"
"yuk","rain","kejopo","549"
"car","rain","konoho","548"
"mak","rain","konoho","548"
"kax","rain","konoho","548"
"pem","rain","konok","548"
"aku","rain","konopo","548"
"apa","rain","konopo","548"
"kar","rain","konopo","548"
"tri","rain","konopo","548"
"mac","rain","konoʔ","548"
"uxc","rain","koŋoho","548"
"ara","rain","koŋpo","548"
"ikp","rain","koŋpo","548"
"bak","rain","kopə","548"
"way","rain","kopə","548"
"kap","rain","tuna","550"
"hix","rain","tuna","550"
"wai","rain","tuuna","550"
"wmr","rain","ɲawa","551"
"map","rain","jatɨʔtinɨ","552"
"yab","rain","kənapowəəperi","553"
"kax","red","takpire","554"
"way","red","takpire","554"
"map","red","tapiire","554"
"kar","red","tapire","554"
"yab","red","tapirəmu","554"
"apa","red","taʔpire","554"
"tri","red","taamiire","554"
"car","red","tamire","554"
"bak","red","tapabilẽĩ","554"
"mac","red","suuju","555"
"pem","red","suwiju","555"
"wai","red","t͡ʃut͡ʃure","556"
"hix","red","tut͡ʃurʲe","556"
"mak","red","seweit͡ʃe","557"
"wmr","red","ʃiwia","557"
"yuk","red","kuʃumt͡ʃe","558"
"uxc","red","kahisi","559"
"pan","red","tukinke","560"
"ikp","red","ratpano","561"
"ara","red","tɨt͡ʃimile","562"
"uxc","root/vein","ĩĩ","563"
"car","root/vein","imitɨ","564"
"kax","root/vein","imitɨ","564"
"kar","root/vein","mi(tɨ)","565"
"ikp","root/vein","mirɨ","564"
"way","root/vein","mit","564"
"map","root/vein","miti","564"
"wai","root/vein","mit͡ʃi","564"
"mak","root/vein","mit͡ʃɨ","564"
"yab","root/vein","mitti","564"
"pan","root/vein","miʔ","564"
"apa","root/vein","miʔtɨ","564"
"tri","root/vein","mɨ(tɨ)","566"
"aku","root/vein","mɨtɨ","564"
"hix","root/vein","mʃa","567"
"wmr","root/vein","wewi nit͡ʃi","568"
"bak","root/vein","wĩdɨ","564"
"kap","root/vein","kara","569"
"mac","root/vein","kara","569"
"pem","root/vein","kara","569"
"yuk","root/vein","eʃe","570"
"ara","root/vein","ɨpɨ","571"
"pem","round","amokouaru","572"
"mac","round","amokoʔwarɨ","572"
"kap","round","aʔmokoipɨ","572"
"tri","round","mokame","573"
"wai","round","tamnoɲe","574"
"hix","round","tamnoɲe","574"
"yuk","round","tuwiriri","575"
"bak","round","tɨdəpənẽĩ","576"
"uxc","round","ɣiaki","577"
"pan","round","muruhku","578"
"kar","round","taʔmotoʔke","576"
"way","round","taptərə","576"
"mak","round","kokkoruhaʔto","579"
"wmr","round","abremɨhsa","580"
"apa","round","zomɨe","581"
"car","round","imoriri","575"
"map","round","pone","582"
"way","sand","hamutu","583"
"tri","sand","samu","583"
"car","sand","samutu","583"
"aku","sand","t͡ʃamutu","583"
"bak","sand","sagunu","584"
"mac","sand","sakapan","584"
"hix","sand","sakarara","585"
"kar","sand","sakau","584"
"mak","sand","saʔrara","585"
"yab","sand","tsakaw","586"
"ara","sand","ireŋmunŋo","587"
"ikp","sand","reŋmun","587"
"yuk","sand","sasare","585"
"uxc","sand","ɲetune","588"
"pem","sand","oʔsəkə","589"
"pan","sand","mit͡ʃin","590"
"wai","sand","aʃawa","591"
"apa","sand","sawa","591"
"wmr","sand","kiʃiɲa","592"
"kap","sand","wɨʔsɨʔ","589"
"kax","sand","eresumna","593"
"map","sand","saasapa","591"
"bak","say","ge","594"
"aku","say","ka","594"
"car","say","ka","594"
"hix","say","ka","594"
"pan","say","ka","594"
"pem","say","ka","594"
"tri","say","ka","594"
"way","say","ka","594"
"yuk","say","ka","594"
"kax","say","ka","594"
"apa","say","ka","594"
"wmr","say","ka","594"
"mac","say","ka","594"
"kap","say","ka","594"
"wai","say","kas","594"
"ara","say","ke","594"
"ikp","say","ke","594"
"uxc","say","ki","594"
"kar","say","wɨka","594"
"mak","say","əʔrɨ","595"
"map","say","anoni","596"
"yab","say","jataru","597"
"bak","see","e","598"
"apa","see","ene","599"
"car","see","ene","599"
"kap","see","ene","599"
"kar","see","ene","599"
"mak","see","ene","599"
"tri","see","ene","599"
"way","see","ene","599"
"ara","see","eneŋ","599"
"ikp","see","eneŋ","599"
"yab","see","enə","599"
"wai","see","enɨ","599"
"hix","see","eɲe","599"
"pan","see","eɲe","599"
"wmr","see","ini","599"
"uxc","see","iŋi","599"
"map","see","jeni","599"
"kax","see","one","599"
"mac","see","eraʔma","600"
"pem","see","ereʔma","600"
"yuk","see","esare","601"
"aku","see","ene","599"
"pem","seed","enaʔpə","602"
"kap","seed","eperu","603"
"way","seed","eputpɨɨ","604"
"bak","seed","ewɨ","605"
"kar","seed","opɨ","605"
"yuk","seed","opɨrɨ","603"
"tri","seed","putupə","604"
"apa","seed","puʔtu","604"
"mak","seed","t͡ʃəəhuʔhə","606"
"pan","seed","jahpə","602"
"wai","seed","jathɨrɨ","607"
"map","seed","jaʔbə","602"
"uxc","seed","aɣɨ","608"
"ikp","seed","alɨ","609"
"kax","seed","enatpɨrɨ","607"
"mac","seed","enaʔpɨ","602"
"hix","seed","natho","610"
"wmr","seed","ba","611"
"ara","seed","itpɨn","612"
"car","seed","tɨrɨemɨ","613"
"wmr","skin","biʃi","614"
"ara","skin","epi","615"
"kax","skin","hi","616"
"uxc","skin","hiɟo","614"
"car","skin","hitihɨ","617"
"mak","skin","hiʔhə","617"
"hix","skin","hut͡ʃhu","617"
"aku","skin","pihpə","618"
"pan","skin","pihpə","618"
"tri","skin","pihpə","618"
"yab","skin","pihpə","618"
"way","skin","pitpə","618"
"ikp","skin","pitu","619"
"map","skin","piʔbə","618"
"pem","skin","piʔpə","618"
"kap","skin","piʔpɨ","618"
"mac","skin","piʔpɨ","618"
"apa","skin","piʔpo","618"
"kar","skin","piʔpo","618"
"wai","skin","ɸit͡ʃho","617"
"bak","skin","tubɨ","615"
"yuk","skin","eʃ","620"
"ikp","sleep","eŋkɨ","621"
"aku","sleep","əənɨkɨ","621"
"tri","sleep","əənɨkɨ","621"
"bak","sleep","ɨkɨ","621"
"yuk","sleep","ɨnɨke","621"
"mak","sleep","ɨnɨkɨ","621"
"way","sleep","ɨnɨkɨ","621"
"ara","sleep","ɨŋkɨ","621"
"uxc","sleep","ɨŋkɨ","621"
"kax","sleep","nɨk","622"
"hix","sleep","nɨkɨ","621"
"map","sleep","nɨkɨ","621"
"apa","sleep","nɨʔ","622"
"wmr","sleep","noʔ","623"
"car","sleep","onɨkɨ","621"
"yab","sleep","wənəkɨ","621"
"wai","sleep","wɨnɨkɨ","621"
"kar","sleep","woʔnɨkɨ","621"
"kap","sleep","eʔnɨmɨ","624"
"mac","sleep","wetun","625"
"pem","sleep","weʔnumɨ","624"
"pan","sleep","okuetji","626"
"way","small","aphik(e)","627"
"kax","small","hikke","628"
"car","small","hit͡ʃa","629"
"tri","small","pijan","629"
"apa","small","pitiko","630"
"pan","small","pit͡ʃa","631"
"yuk","small","kamt͡ʃe","632"
"bak","small","imẽĩbɨrɨ","633"
"uxc","small","ĩnt͡soɲo","634"
"kap","small","aiko","628"
"pem","small","sirəʔkə","635"
"mac","small","si(ʔ)mɨrik(k)ɨ","636"
"ikp","small","tɨrɨŋ","637"
"ara","small","muren","638"
"wai","small","wahra","639"
"hix","small","at͡ʃket͡ʃko","640"
"kar","small","iʔmempo","641"
"mak","small","seʔkə","635"
"wmr","small","baʔʃiri","642"
"map","small","waʔkampɨ","643"
"yab","small","intowmuskə","644"
"apa","smoke","eresinto","645"
"way","smoke","ərəhiwə","645"
"car","smoke","ərət͡ʃitə","645"
"hix","smoke","esɨnɨ","646"
"tri","smoke","ərentə","647"
"wai","smoke","sɨn","646"
"yab","smoke","tət͡ʃini","646"
"mak","smoke","werent͡ʃə","647"
"yuk","smoke","werasku","648"
"bak","smoke","eunu","649"
"uxc","smoke","ɣitit͡se","650"
"pem","smoke","keresen","645"
"kap","smoke","kɨrɨsin","645"
"mac","smoke","wɨreʔsin","645"
"pan","smoke","wahto it͡ʃik","651"
"ikp","smoke","jumt͡ʃigru","652"
"kar","smoke","oʔkɨin","653"
"wmr","smoke","akeɲi","649"
"map","smoke","eʔinə","647"
"kar","son","ɨmu","654"
"tri","son","mmuku","654"
"kax","son","mre","655"
"bak","son","mu","654"
"hix","son","mu","654"
"uxc","son","mu(ku)","656"
"car","son","mugu","654"
"pem","son","mukɨ","654"
"mac","son","muku","654"
"apa","son","mũku","654"
"kap","son","muku","654"
"wai","son","mumu","654"
"way","son","mumuku","654"
"ikp","son","mun","654"
"ara","son","mure","655"
"aku","son","muumuku","654"
"yuk","son","wɨʃɨnɨ","657"
"pan","son","wa(re)","658"
"map","son","ne","659"
"mak","son","nne","659"
"wmr","son","nirikɨ","660"
"way","star","hirikə","661"
"map","star","sihkə","661"
"pem","star","sirike","661"
"tri","star","sirikə","661"
"mac","star","sirikɨ","661"
"kar","star","siriko","661"
"mak","star","sirit͡ʃə","661"
"yuk","star","ʃeku","661"
"hix","star","ʃerʲko","661"
"bak","star","ʃimukə","661"
"yab","star","ʃirikka","661"
"apa","star","ʃiriko","661"
"wai","star","ʃirʲko","661"
"wmr","star","ʃirki","662"
"ikp","star","tɨriŋ","663"
"pan","star","tjakən","664"
"kap","star","t͡ʃirikə","661"
"car","star","t͡ʃirikɨ","661"
"ara","star","t͡ʃiriŋ","663"
"kax","star","t͡ʃirko","665"
"uxc","star","kãntiɲoko","666"
"aku","star","t͡ʃirikə","661"
"car","stone","tahu","667"
"uxc","stone","tehu","667"
"pem","stone","tepɨ","667"
"yab","stone","təppu","667"
"tri","stone","təpu","667"
"way","stone","təpu","667"
"map","stone","təpu","667"
"mak","stone","təʔhu","667"
"kap","stone","tɨʔ","667"
"mac","stone","tɨʔ","667"
"hix","stone","tohu","667"
"kax","stone","tohu","667"
"wai","stone","tooɸu","667"
"yuk","stone","top","668"
"wmr","stone","topɨ","667"
"apa","stone","topu","667"
"kar","stone","topu","667"
"pan","stone","toʔ","667"
"bak","stone","tuhu","667"
"ara","stone","ɨbɨ","669"
"ikp","stone","ɨwɨ","669"
"aku","stone","təpu","667"
"car","sun","bei","670"
"mac","sun","wei","671"
"pem","sun","wei","671"
"tri","sun","wei","671"
"kar","sun","weju","671"
"yuk","sun","wet͡ʃo","671"
"kap","sun","wəi","671"
"wmr","sun","woi","671"
"uxc","sun","ɣiti","672"
"way","sun","hihi","673"
"kax","sun","isɨsɨ","673"
"mak","sun","sii","674"
"apa","sun","ʃiʃi","673"
"bak","sun","ʃiʃi","673"
"ara","sun","t͡ʃit͡ʃi","673"
"ikp","sun","t͡ʃit͡ʃi","673"
"wai","sun","kaamo","675"
"hix","sun","kamɨmɨ","675"
"pan","sun","et͡ʃerkun","676"
"map","sun","miroi","677"
"aku","sun","wei","671"
"mak","swim","hənɨmɨ","678"
"map","swim","pənemi","678"
"kap","swim","pənəmɨ","678"
"mac","swim","pɨnɨnu","678"
"kar","swim","weʔponumɨ","678"
"bak","swim","wə","679"
"pan","swim","akueʔpɨ","680"
"pem","swim","kupɨ","680"
"ikp","swim","enkorore","681"
"wai","swim","ɸere","682"
"apa","swim","epɨ","680"
"yuk","swim","sijanke","683"
"car","swim","ekətərɨ","681"
"hix","swim","t͡ʃara","684"
"way","swim","toton","685"
"ikp","tail","arog","686"
"apa","tail","arokɨ","686"
"car","tail","arokɨ","686"
"tri","tail","arokɨ","686"
"aku","tail","arookɨ","686"
"yuk","tail","awɨkɨ","686"
"kar","tail","antɨkɨ","687"
"pan","tail","atəkə","687"
"kap","tail","əku","688"
"mac","tail","taukɨ","687"
"hix","tail","matkɨ","689"
"wai","tail","matkɨ","690"
"way","tail","watkɨ","687"
"mak","tail","haʔroho","691"
"pem","tail","kena","692"
"bak","tail","õwɨ","693"
"uxc","tail","ɣoko","686"
"ara","tail","awom","694"
"wmr","tail","kjamsa","695"
"map","tail","wəkiri","696"
"uxc","that","eɣe","697"
"aku","that","mərə","698"
"bak","that","mərə","698"
"car","that","mərə","698"
"kap","that","mərə","698"
"mak","that","mərə","698"
"pem","that","mərə","698"
"tri","that","mərə","698"
"way","that","mərə","698"
"map","that","mərɨ","698"
"wmr","that","mɨrɨ","698"
"mac","that","mɨrɨrɨ","698"
"apa","that","moro","698"
"ara","that","moro","698"
"hix","that","moro","698"
"kar","that","moro","698"
"wai","that","moro","698"
"kax","that","moro","698"
"yab","that","menni","698"
"pan","that","mən","698"
"ikp","that","mun","698"
"yuk","that","ake","699"
"kar","this","enɨ","700"
"way","this","hin(ɨ)","701"
"wai","this","on","702"
"hix","this","onɨ","700"
"yab","this","seni","700"
"apa","this","senɨ","700"
"mak","this","erə","703"
"ara","this","ero","703"
"kar","this","ero","703"
"car","this","ərə","703"
"way","this","herə","703"
"uxc","this","iɣe","704"
"yuk","this","ma(ʃ)","705"
"tri","this","serə","703"
"apa","this","sero","703"
"kap","this","sərə","703"
"pem","this","sərə","703"
"pan","this","sɨh","706"
"mac","this","sɨrɨrɨ","703"
"kax","this","soro","703"
"bak","this","ʃirə","703"
"aku","this","t͡ʃerə","703"
"ara","this","nen","707"
"ikp","this","nen","707"
"wmr","this","(h)anji","708"
"map","this","mehe","709"
"pan","tongue","iɲo","710"
"ara","tongue","lu","711"
"bak","tongue","lu","711"
"ikp","tongue","lu","711"
"wmr","tongue","nɨ","712"
"aku","tongue","nore","710"
"tri","tongue","nore","710"
"apa","tongue","nu","712"
"kar","tongue","nu","712"
"mac","tongue","nu","712"
"way","tongue","nu","712"
"yab","tongue","nu","712"
"map","tongue","nu","712"
"kax","tongue","nu","712"
"hix","tongue","ɲu","712"
"wai","tongue","ɲu","712"
"mak","tongue","ɲuu","712"
"uxc","tongue","ŋu","712"
"kap","tongue","ani","713"
"pem","tongue","jane","713"
"yuk","tongue","konatre","714"
"car","tongue","niko","710"
"car","tooth","d͡ʒe","715"
"ara","tooth","e","716"
"bak","tooth","e","716"
"ikp","tooth","e","716"
"pan","tooth","ə","716"
"uxc","tooth","i","716"
"kar","tooth","je","717"
"mac","tooth","je","717"
"pem","tooth","je","717"
"tri","tooth","je","717"
"way","tooth","je","717"
"aku","tooth","je(ʔ)","718"
"wmr","tooth","jee","719"
"kap","tooth","jə","717"
"yab","tooth","jə","717"
"map","tooth","jə","717"
"yuk","tooth","jɨ","717"
"hix","tooth","jo","717"
"wai","tooth","jo","717"
"kax","tooth","jo","717"
"mak","tooth","re","715"
"apa","tooth","ze","715"
"pan","tree","aje","720"
"bak","tree","e","721"
"uxc","tree","i","721"
"ikp","tree","jaj","722"
"ara","tree","jei","720"
"mac","tree","jei","720"
"map","tree","jəhe","720"
"pem","tree","jəi","720"
"kap","tree","jɨi","720"
"mak","tree","ree","723"
"yuk","tree","we","724"
"wai","tree","weewe","724"
"aku","tree","wewe","724"
"apa","tree","wewe","724"
"car","tree","wewe","724"
"hix","tree","wewe","724"
"kar","tree","wewe","724"
"tri","tree","wewe","724"
"kax","tree","wewe","724"
"wmr","tree","wiwe","724"
"way","tree","epɨ","725"
"mak","two","aaʔkə","726"
"ara","two","adak","727"
"ikp","two","arak","727"
"mac","two","asaakɨne","728"
"pan","two","asak","727"
"yab","two","asakəma","727"
"wai","two","asakɨ","727"
"kax","two","asakɨ","727"
"hix","two","asako","727"
"apa","two","asakoro","727"
"kap","two","asaʔrɨ","727"
"bak","two","azagə","727"
"tri","two","əəkənə","728"
"way","two","hakəne","728"
"kar","two","oko","729"
"map","two","sakenarɨ","728"
"pem","two","sakɨʔne","728"
"car","two","səkənərə","728"
"uxc","two","takeko","729"
"yuk","two","kosa","730"
"wmr","two","tɨpɨtɨna","731"
"apa","walk","ɨto","732"
"yuk","walk","pɨta","733"
"kar","walk","wɨtopotɨ","734"
"mac","walk","asarɨ","735"
"pan","walk","ataraama","736"
"hix","walk","atarʲeknoh","737"
"wai","walk","etarʲ","738"
"car","walk","itərɨ","732"
"kap","walk","sa","735"
"tri","walk","urakana","739"
"bak","walk","də","732"
"uxc","walk","hɨlun","740"
"pem","walk","eʔtame","741"
"ikp","walk","anta","742"
"way","walk","tuhtuh","743"
"mak","walk","əəmannəhɨ","744"
"ara","walk","abad","745"
"map","walk","pirini","740"
"yab","walk","pɨrini","740"
"yuk","water","kuna","746"
"wmr","water","sɨna","746"
"pan","water","tɨna","746"
"apa","water","tuna","746"
"car","water","tuna","746"
"hix","water","tuna","746"
"kap","water","tuna","746"
"kar","water","tuna","746"
"mac","water","tuna","746"
"mak","water","tuna","746"
"pem","water","tuna","746"
"tri","water","tuna","746"
"way","water","tuna","746"
"map","water","tuna","746"
"kax","water","tuna","746"
"yab","water","tunaa","746"
"uxc","water","tuŋa","746"
"wai","water","tuuna","746"
"ikp","water","ga","747"
"ara","water","paru","748"
"bak","water","paru","748"
"aku","water","tuna","746"
"hix","we","amna","749"
"kax","we","amna","749"
"wai","we","amna","749"
"pan","we","ana","749"
"yab","we","ana","749"
"aku","we","anja","749"
"tri","we","anja","749"
"mac","we","anna","749"
"car","we","aɲa","749"
"wmr","we","aʔa","750"
"way","we","emna","751"
"kap","we","ina","749"
"pem","we","inna","749"
"apa","we","ɨna","749"
"map","we","naha","750"
"yuk","we","nana","749"
"kar","we","naʔna","750"
"mak","we","nɲa","749"
"bak","we","ʃina","752"
"ara","we","t͡ʃimna","752"
"ikp","we","t͡ʃimna","752"
"uxc","we","tisuɣe","753"
"wai","what","aht͡ʃe","754"
"ikp","what","arɨ","755"
"tri","what","atɨ","756"
"yab","what","atti","756"
"hix","what","etenɨ","756"
"bak","what","ədɨ","756"
"pem","what","ək","757"
"aku","what","ətɨ","756"
"car","what","ətɨ","756"
"way","what","ətɨ","756"
"map","what","ətɨna","756"
"mac","what","ɨʔ","757"
"ara","what","odɨ","756"
"apa","what","otɨ","756"
"kar","what","otɨ","756"
"uxc","what","tɨ","756"
"kap","what","əʔrə","758"
"pan","what","nəhpa","759"
"yuk","what","nop","760"
"mak","what","aneʔkəəmɨ","761"
"wmr","what","apia","762"
"kax","what","timo","763"
"mac","white","aimutun","764"
"pem","white","aimutun","764"
"hix","white","bukɲe","765"
"car","white","tamutune","764"
"kar","white","tamuʔne","764"
"pan","white","tamuʔɲe","764"
"map","white","tarimuʔne","764"
"wai","white","tumutwe","764"
"kax","white","tumuʔne","764"
"way","white","tɨkoroke","766"
"tri","white","tɨkorooje","766"
"yuk","white","sɨw","767"
"bak","white","tapekẽĩ","768"
"uxc","white","alaki","768"
"kap","white","aʔkraimutɨpe","769"
"ikp","white","taprigem","768"
"mak","white","taherere","770"
"yab","white","karasakimu","771"
"wmr","white","sakra","772"
"apa","white","karimutu","771"
"ara","white","igriden","773"
"tri","who","akɨ","774"
"pem","who","anɨk","775"
"mac","who","anɨʔ","775"
"yab","who","aʔnikkə","776"
"bak","who","ə̃gɨ","774"
"aku","who","əkɨ","774"
"car","who","ənəkɨ","774"
"mak","who","ənəkɨ","774"
"way","who","ənɨkɨ","774"
"kap","who","ənɨʔ","775"
"kax","who","nak","777"
"map","who","nekena","776"
"pan","who","nək","774"
"yuk","who","no","777"
"ara","who","nok","774"
"kar","who","nokɨ","774"
"ikp","who","onok","774"
"wai","who","onoke","774"
"apa","who","onokɨ","774"
"hix","who","onokɨ","774"
"wmr","who","bɨpa","778"
"uxc","who","tɨ","779"
"uxc","woman","itãõ","780"
"kap","woman","uriʔsan","781"
"wmr","woman","weri","782"
"tri","woman","wəri","782"
"way","woman","wərɨ","782"
"car","woman","wərɨt͡ʃi","782"
"aku","woman","wərɨʔɨ","782"
"pan","woman","wɨnkɨh","783"
"pem","woman","wɨrik","782"
"mac","woman","wɨriʔ","782"
"yuk","woman","worepa","782"
"mak","woman","wori","782"
"kar","woman","worɨi","782"
"kax","woman","worɨsɨ","782"
"hix","woman","wosɨ","782"
"wai","woman","wosɨ","782"
"bak","woman","pekodo","784"
"ikp","woman","petkom","784"
"ara","woman","pumie","785"
"apa","woman","noʔpo","786"
"yab","woman","urihiamo","781"
"map","woman","wərjaʔmu","787"
"yuk","yellow","arawupa","788"
"car","yellow","kananamano","789"
"tri","yellow","kananame","789"
"bak","yellow","taparurẽĩ","790"
"uxc","yellow","kuaɟa huŋu","791"
"pem","yellow","suʔkupiju","792"
"mac","yellow","aʔmutun","793"
"pan","yellow","tukinke","794"
"ikp","yellow","anagriwan","795"
"wai","yellow","tɨʃeweke","796"
"kax","yellow","tɨt͡ʃewet͡ʃewene","796"
"hix","yellow","tɨʃkɨwɨtɨkɲe","797"
"kar","yellow","tɨʔkire","798"
"mak","yellow","kɨnota","799"
"wmr","yellow","ʃiwia","800"
"apa","yellow","sewe mano","801"
"kap","yellow","tɨkotonpire","802"
"way","yellow","tawaman","803"
"map","yellow","sipiire","798"
"yab","yellow","worestori","804"
"pan","you","amən","805"
"kap","you","amərə","805"
"mak","you","amərə","805"
"pem","you","amərə","805"
"mac","you","amɨrɨ","805"
"wmr","you","amɨrɨ","805"
"yuk","you","amo","805"
"kar","you","amoro","805"
"wai","you","amoro","805"
"aku","you","əmə","805"
"bak","you","əmə","805"
"tri","you","əmə","805"
"car","you","əmərə","805"
"way","you","əmərə","805"
"yab","you","mərə","805"
"map","you","mərə","805"
"apa","you","omoro","805"
"hix","you","omoro","805"
"kax","you","omoro","805"
"ara","you","omro","805"
"ikp","you","omro","805"
"uxc","you","eɣe","806"
