ID	DOCULECT	CONCEPT	COGID
1	kax	I	1
2	hix	I	2
3	wai	I	1
4	ara	I	2
5	ikp	I	2
6	bak	I	2
7	tri	I	1
8	aku	I	1
9	car	I	1
10	way	I	1
11	apa	I	1
12	kar	I	1
13	mak	I	1
14	kap	I	2
15	pem	I	2
16	mac	I	2
17	pan	I	3
18	yab	I	2
19	map	I	4
20	uxc	I	2
21	yuk	I	1
22	wmr	I	1
23	kap	I	2
24	hix	all	5
25	tri	all	5
26	apa	all	5
27	mak	all	5
28	ara	all	6
29	ikp	all	6
30	kax	all	7
31	wai	all	8
32	bak	all	9
33	car	all	8
34	way	all	5
35	kar	all	8
36	kap	all	8
37	pem	all	10
38	mac	all	11
39	pan	all	9
40	yab	all	12
41	map	all	13
42	uxc	all	14
43	yuk	all	10
44	wmr	all	15
45	kax	ash	16
46	hix	ash	17
47	wai	ash	18
48	bak	ash	19
49	tri	ash	17
50	aku	ash	17
51	car	ash	17
52	way	ash	17
53	apa	ash	17
54	kar	ash	17
55	mak	ash	20
56	kap	ash	21
57	pem	ash	17
58	mac	ash	22
59	uxc	ash	23
60	yuk	ash	20
61	pan	ash	24
62	yab	ash	25
63	wmr	ash	26
64	ara	ash	27
65	ikp	ash	28
66	map	ash	17
67	tri	belly	29
68	aku	belly	29
69	car	belly	29
70	apa	belly	29
71	mak	belly	30
72	kax	belly	31
73	wai	belly	31
74	bak	belly	31
75	way	belly	31
76	uxc	belly	31
77	wmr	belly	29
78	kar	belly	32
79	yab	belly	32
80	map	belly	32
81	yuk	belly	32
82	kap	belly	33
83	mac	belly	33
84	ara	belly	34
85	ikp	belly	34
86	hix	belly	35
87	pem	belly	36
88	pan	belly	35
89	kap	belly	36
90	tri	big	37
91	aku	big	38
92	car	big	39
93	hix	big	40
94	wai	big	40
95	kap	big	41
96	uxc	big	42
97	kar	big	43
98	mak	big	44
99	yab	big	43
100	yuk	big	45
101	bak	big	46
102	pem	big	47
103	mac	big	48
104	pan	big	49
105	ikp	big	41
106	ara	big	50
107	way	big	51
108	wmr	big	52
109	apa	big	53
110	kax	big	54
111	map	big	55
112	kap	big	41
113	hix	bird	56
114	wai	bird	56
115	tri	bird	56
116	aku	bird	56
117	car	bird	56
118	way	bird	57
119	kar	bird	56
120	mak	bird	56
121	kap	bird	56
122	pem	bird	56
123	mac	bird	56
124	pan	bird	58
125	yab	bird	56
126	map	bird	56
127	uxc	bird	56
128	wmr	bird	56
129	ara	bird	59
130	ikp	bird	59
131	yuk	bird	60
132	bak	bird	57
133	apa	bird	61
134	kax	bird	62
135	kax	bite	63
136	hix	bite	64
137	wai	bite	65
138	tri	bite	65
139	car	bite	65
140	apa	bite	65
141	kar	bite	65
142	mak	bite	65
143	kap	bite	65
144	pem	bite	65
145	mac	bite	65
146	yab	bite	66
147	map	bite	65
148	uxc	bite	67
149	yuk	bite	65
150	wmr	bite	67
151	ara	bite	68
152	bak	bite	69
153	way	bite	69
154	pan	bite	68
155	ikp	bite	70
156	kap	bite	65
157	hix	black	71
158	mak	black	71
159	pan	black	72
160	ara	black	73
161	ikp	black	74
162	kap	black	75
163	yab	black	76
164	map	black	76
165	yuk	black	77
166	pem	black	78
167	mac	black	78
168	car	black	79
169	apa	black	80
170	kax	black	81
171	wai	black	81
172	bak	black	82
173	tri	black	83
174	way	black	71
175	kar	black	81
176	uxc	black	84
177	wmr	black	71
178	ara	blood	85
179	ikp	blood	85
180	bak	blood	85
181	tri	blood	85
182	car	blood	85
183	way	blood	85
184	apa	blood	85
185	kar	blood	85
186	mak	blood	85
187	kap	blood	85
188	pem	blood	85
189	mac	blood	85
190	uxc	blood	85
191	yuk	blood	85
192	wmr	blood	85
193	kax	blood	86
194	hix	blood	86
195	wai	blood	86
196	pan	blood	87
197	yab	blood	87
198	map	blood	87
199	aku	blood	88
200	kap	blood	85
201	kax	bone	89
202	hix	bone	90
203	wai	bone	90
204	ara	bone	91
205	ikp	bone	91
206	bak	bone	92
207	tri	bone	90
208	aku	bone	90
209	car	bone	90
210	way	bone	90
211	apa	bone	90
212	kar	bone	90
213	mak	bone	90
214	kap	bone	90
215	pem	bone	90
216	mac	bone	90
217	pan	bone	90
218	yab	bone	90
219	map	bone	90
220	uxc	bone	92
221	yuk	bone	90
222	wmr	bone	90
223	kap	bone	90
224	kax	breast	93
225	hix	breast	93
226	wai	breast	93
227	ara	breast	93
228	ikp	breast	93
229	bak	breast	94
230	tri	breast	93
231	aku	breast	93
232	car	breast	93
233	way	breast	93
234	apa	breast	93
235	kar	breast	93
236	mak	breast	93
237	kap	breast	93
238	pem	breast	93
239	mac	breast	93
240	pan	breast	93
241	yab	breast	93
242	map	breast	93
243	uxc	breast	93
244	wmr	breast	93
245	yuk	breast	95
246	kap	breast	93
247	kax	burn	96
248	ara	burn	96
249	ikp	burn	97
250	bak	burn	96
251	tri	burn	96
252	car	burn	96
253	apa	burn	98
254	mak	burn	96
255	pem	burn	96
256	pan	burn	96
257	uxc	burn	96
258	hix	burn	99
259	wai	burn	99
260	way	burn	100
261	kar	burn	101
262	kap	burn	102
263	kap	burn	103
264	mac	burn	97
265	yab	burn	104
266	map	burn	105
267	yuk	burn	106
268	wmr	burn	101
269	kap	claw	107
270	pem	claw	108
271	mac	claw	109
272	ikp	claw	110
273	tri	claw	110
274	yab	claw	110
275	ara	claw	111
276	tri	claw	111
277	mak	claw	112
278	hix	claw	113
279	wai	claw	113
280	pan	claw	114
281	car	claw	111
282	kax	claw	113
283	kar	claw	115
284	way	claw	116
285	apa	claw	117
286	bak	claw	118
287	uxc	claw	119
288	yuk	claw	118
289	map	claw	120
290	wmr	claw	115
291	kax	cloud	121
292	tri	cloud	121
293	kar	cloud	121
294	mak	cloud	121
295	kap	cloud	121
296	pem	cloud	121
297	mac	cloud	121
298	yab	cloud	121
299	hix	cloud	121
300	wai	cloud	122
301	uxc	cloud	122
302	yuk	cloud	122
303	ara	cloud	123
304	ikp	cloud	124
305	bak	cloud	125
306	car	cloud	126
307	way	cloud	127
308	apa	cloud	121
309	pan	cloud	128
310	map	cloud	129
311	wmr	cloud	125
312	yab	cloud	130
313	hix	cold	131
314	tri	cold	131
315	ara	cold	132
316	ikp	cold	132
317	bak	cold	133
318	car	cold	132
319	way	cold	134
320	kap	cold	135
321	pem	cold	134
322	mac	cold	134
323	uxc	cold	132
324	yuk	cold	136
325	wmr	cold	136
326	pan	cold	134
327	pan	cold	137
328	map	cold	138
329	kax	cold	139
330	wai	cold	131
331	apa	cold	140
332	kar	cold	141
333	mak	cold	139
334	yab	cold	142
335	kax	come	143
336	ara	come	143
337	ikp	come	144
338	bak	come	145
339	tri	come	143
340	aku	come	143
341	car	come	143
342	apa	come	146
343	kar	come	143
344	mak	come	143
345	kap	come	143
346	kap	come	143
347	pem	come	143
348	mac	come	143
349	pan	come	143
350	yab	come	143
351	map	come	143
352	uxc	come	145
353	hix	come	147
354	wai	come	148
355	way	come	147
356	yuk	come	149
357	wmr	come	149
358	kax	die	150
359	hix	die	150
360	wai	die	150
361	apa	die	151
362	kap	die	151
363	kap	die	151
364	pem	die	151
365	ara	die	152
366	ikp	die	152
367	way	die	152
368	kar	die	152
369	tri	die	153
370	car	die	154
371	pan	die	155
372	mak	die	156
373	yab	die	156
374	mac	die	157
375	uxc	die	158
376	bak	die	159
377	yuk	die	159
378	map	die	158
379	wmr	die	160
380	kax	drink	161
381	hix	drink	161
382	wai	drink	162
383	ara	drink	161
384	ikp	drink	163
385	bak	drink	161
386	tri	drink	161
387	aku	drink	161
388	car	drink	161
389	way	drink	162
390	apa	drink	161
391	kar	drink	161
392	mak	drink	161
393	kap	drink	163
394	kap	drink	163
395	pem	drink	161
396	mac	drink	161
397	pan	drink	161
398	yab	drink	161
399	map	drink	161
400	uxc	drink	162
401	wmr	drink	164
402	yuk	drink	161
403	kax	dry	165
404	way	dry	165
405	tri	dry	166
406	apa	dry	167
407	car	dry	166
408	kar	dry	166
409	ara	dry	168
410	ikp	dry	168
411	hix	dry	169
412	wai	dry	170
413	bak	dry	171
414	mak	dry	169
415	kap	dry	172
416	pem	dry	173
417	mac	dry	174
418	pan	dry	175
419	yab	dry	167
420	map	dry	176
421	uxc	dry	177
422	yuk	dry	178
423	wmr	dry	166
424	kax	ear	179
425	hix	ear	179
426	wai	ear	179
427	ara	ear	179
428	ikp	ear	179
429	bak	ear	180
430	tri	ear	179
431	aku	ear	179
432	car	ear	179
433	way	ear	179
434	apa	ear	179
435	kar	ear	179
436	mak	ear	179
437	kap	ear	179
438	pem	ear	179
439	mac	ear	179
440	pan	ear	179
441	yab	ear	179
442	map	ear	179
443	uxc	ear	179
444	yuk	ear	179
445	wmr	ear	179
446	kap	ear	179
447	bak	earth	181
448	tri	earth	182
449	aku	earth	182
450	car	earth	182
451	apa	earth	182
452	kar	earth	182
453	mak	earth	182
454	kap	earth	182
455	pem	earth	182
456	mac	earth	182
457	pan	earth	182
458	yab	earth	182
459	map	earth	182
460	uxc	earth	182
461	yuk	earth	182
462	kax	earth	183
463	ara	earth	181
464	ikp	earth	181
465	wai	earth	183
466	way	earth	181
467	hix	earth	184
468	wmr	earth	185
469	kap	earth	182
470	hix	eat	186
471	kap	eat	186
472	kap	eat	186
473	pem	eat	186
474	mac	eat	186
475	wai	eat	187
476	car	eat	188
477	pan	eat	187
478	yab	eat	187
479	ara	eat	189
480	ikp	eat	189
481	kax	eat	190
482	way	eat	190
483	apa	eat	190
484	tri	eat	191
485	aku	eat	191
486	kar	eat	192
487	yuk	eat	193
488	wmr	eat	191
489	bak	eat	194
490	uxc	eat	195
491	mak	eat	196
492	map	eat	197
493	kax	egg	198
494	hix	egg	198
495	wai	egg	199
496	ara	egg	200
497	ikp	egg	200
498	bak	egg	201
499	tri	egg	198
500	aku	egg	198
501	car	egg	199
502	way	egg	198
503	apa	egg	198
504	kar	egg	198
505	mak	egg	198
506	kap	egg	199
507	pem	egg	199
508	mac	egg	199
509	pan	egg	198
510	yab	egg	198
511	map	egg	198
512	uxc	egg	200
513	wmr	egg	202
514	yuk	egg	203
515	kap	egg	198
516	kax	eye	204
517	hix	eye	204
518	wai	eye	205
519	ara	eye	205
520	ikp	eye	205
521	bak	eye	204
522	tri	eye	204
523	aku	eye	204
524	car	eye	204
525	way	eye	204
526	apa	eye	204
527	kar	eye	204
528	mak	eye	204
529	kap	eye	204
530	pem	eye	204
531	mac	eye	204
532	pan	eye	206
533	yab	eye	204
534	map	eye	204
535	uxc	eye	204
536	yuk	eye	204
537	wmr	eye	207
538	kap	eye	204
539	hix	feather	208
540	wai	feather	208
541	ara	feather	208
542	tri	feather	208
543	way	feather	208
544	kax	feather	209
545	car	feather	209
546	apa	feather	209
547	kar	feather	209
548	mak	feather	209
549	kap	feather	210
550	pem	feather	210
551	pan	feather	209
552	yab	feather	209
553	ikp	feather	211
554	uxc	feather	211
555	bak	feather	212
556	mac	feather	209
557	map	feather	213
558	yuk	feather	214
559	wmr	feather	210
560	tri	fire	215
561	aku	fire	215
562	car	fire	215
563	kax	fire	216
564	hix	fire	216
565	wai	fire	216
566	bak	fire	215
567	way	fire	217
568	apa	fire	217
569	kar	fire	216
570	mak	fire	216
571	kap	fire	217
572	pem	fire	217
573	mac	fire	217
574	pan	fire	216
575	yab	fire	216
576	map	fire	216
577	uxc	fire	215
578	yuk	fire	216
579	wmr	fire	216
580	ara	fire	217
581	ikp	fire	218
582	kap	fire	217
583	kap	fish	219
584	pem	fish	219
585	mac	fish	219
586	yab	fish	219
587	map	fish	219
588	ara	fish	220
589	ikp	fish	220
590	kar	fish	220
591	hix	fish	221
592	bak	fish	221
593	tri	fish	221
594	aku	fish	221
595	way	fish	221
596	apa	fish	221
597	pan	fish	221
598	uxc	fish	221
599	wai	fish	222
600	mak	fish	223
601	wmr	fish	224
602	yuk	fish	225
603	car	fish	226
604	kax	fish	227
605	kap	fish	219
606	kax	flesh	228
607	hix	flesh	228
608	wai	flesh	228
609	ara	flesh	229
610	ikp	flesh	229
611	bak	flesh	230
612	tri	flesh	228
613	aku	flesh	228
614	car	flesh	228
615	way	flesh	228
616	apa	flesh	228
617	kar	flesh	228
618	mak	flesh	228
619	kap	flesh	228
620	pem	flesh	228
621	mac	flesh	228
622	pan	flesh	228
623	yab	flesh	228
624	map	flesh	228
625	uxc	flesh	228
626	yuk	flesh	228
627	wmr	flesh	228
628	kap	flesh	228
629	wai	fly	231
630	ara	fly	232
631	ikp	fly	233
632	kar	fly	232
633	kap	fly	232
634	kap	fly	232
635	pem	fly	232
636	map	fly	231
637	uxc	fly	231
638	yuk	fly	234
639	bak	fly	235
640	car	fly	236
641	pan	fly	237
642	yab	fly	238
643	apa	fly	238
644	mac	fly	239
645	hix	fly	240
646	mak	fly	241
647	kax	fly	242
648	tri	fly	243
649	way	fly	244
650	wmr	fly	245
651	kax	foot	246
652	ara	foot	246
653	ikp	foot	246
654	bak	foot	246
655	tri	foot	246
656	aku	foot	246
657	car	foot	246
658	way	foot	246
659	apa	foot	246
660	kar	foot	246
661	mak	foot	246
662	mac	foot	246
663	wai	foot	247
664	kap	foot	248
665	pem	foot	248
666	pan	foot	248
667	map	foot	247
668	uxc	foot	247
669	wmr	foot	249
670	yuk	foot	250
671	yab	foot	251
672	hix	foot	252
673	kap	foot	248
674	ikp	full	253
675	way	full	254
676	mak	full	255
677	pan	full	255
678	apa	full	256
679	yab	full	257
680	map	full	257
681	kax	full	258
682	hix	full	259
683	wai	full	260
684	ara	full	253
685	bak	full	254
686	tri	full	258
687	car	full	255
688	kar	full	258
689	kap	full	261
690	pem	full	262
691	mac	full	263
692	uxc	full	264
693	wmr	full	265
694	ara	give	266
695	ikp	give	267
696	bak	give	266
697	mak	give	266
698	pan	give	266
699	uxc	give	266
700	yuk	give	266
701	kar	give	268
702	kap	give	268
703	kap	give	268
704	pem	give	268
705	mac	give	268
706	yab	give	269
707	wmr	give	268
708	kax	give	268
709	hix	give	270
710	wai	give	270
711	tri	give	271
712	car	give	271
713	way	give	271
714	apa	give	271
715	map	give	272
716	wai	good	273
717	ara	good	273
718	ikp	good	273
719	tri	good	273
720	aku	good	273
721	car	good	273
722	apa	good	273
723	pan	good	273
724	wmr	good	273
725	kax	good	274
726	hix	good	275
727	kap	good	276
728	pem	good	276
729	yab	good	277
730	map	good	277
731	bak	good	278
732	way	good	279
733	kar	good	280
734	mak	good	281
735	mac	good	282
736	uxc	good	283
737	yuk	good	284
738	kap	good	276
739	hix	grease/fat	285
740	wai	grease/fat	285
741	ara	grease/fat	285
742	ikp	grease/fat	285
743	bak	grease/fat	285
744	tri	grease/fat	285
745	car	grease/fat	285
746	way	grease/fat	285
747	apa	grease/fat	286
748	kar	grease/fat	285
749	mak	grease/fat	285
750	pem	grease/fat	286
751	pan	grease/fat	285
752	uxc	grease/fat	285
753	yuk	grease/fat	285
754	wmr	grease/fat	285
755	kap	grease/fat	287
756	mac	grease/fat	287
757	yab	grease/fat	286
758	map	grease/fat	286
759	kax	grease/fat	288
760	kap	grease/fat	287
761	kap	grease/fat	286
762	hix	green	289
763	wai	green	289
764	kap	green	290
765	pem	green	290
766	mac	green	290
767	kax	green	291
768	ara	green	292
769	ikp	green	293
770	bak	green	294
771	tri	green	295
772	car	green	291
773	way	green	296
774	apa	green	297
775	kar	green	289
776	mak	green	298
777	pan	green	294
778	yab	green	299
779	map	green	294
780	uxc	green	300
781	yuk	green	298
782	wmr	green	301
783	kap	green	290
784	kax	hair	302
785	hix	hair	303
786	wai	hair	304
787	tri	hair	304
788	aku	hair	304
789	car	hair	304
790	way	hair	304
791	kar	hair	304
792	kap	hair	303
793	pem	hair	303
794	mac	hair	303
795	pan	hair	304
796	yab	hair	304
797	map	hair	304
798	uxc	hair	305
799	yuk	hair	306
800	ara	hair	305
801	ikp	hair	305
802	bak	hair	307
803	apa	hair	308
804	mak	hair	309
805	wmr	hair	310
806	ara	hand	311
807	ikp	hand	312
808	bak	hand	311
809	tri	hand	313
810	aku	hand	313
811	car	hand	313
812	apa	hand	311
813	kar	hand	313
814	kap	hand	312
815	pem	hand	313
816	mac	hand	313
817	pan	hand	313
818	uxc	hand	313
819	yuk	hand	311
820	kax	hand	311
821	hix	hand	311
822	wai	hand	311
823	way	hand	311
824	mak	hand	311
825	wmr	hand	311
826	yab	hand	314
827	map	hand	314
828	kap	hand	312
829	kax	head	315
830	hix	head	316
831	wai	head	316
832	tri	head	317
833	aku	head	317
834	car	head	317
835	way	head	317
836	apa	head	317
837	kar	head	315
838	mak	head	317
839	kap	head	317
840	pem	head	317
841	mac	head	317
842	pan	head	315
843	wmr	head	318
844	ara	head	319
845	ikp	head	319
846	yab	head	320
847	map	head	320
848	yuk	head	321
849	bak	head	318
850	uxc	head	322
851	kap	head	317
852	kax	hear	323
853	bak	hear	323
854	tri	hear	323
855	car	hear	323
856	apa	hear	323
857	kar	hear	323
858	mak	hear	323
859	kap	hear	323
860	pem	hear	323
861	mac	hear	323
862	pan	hear	323
863	yab	hear	323
864	map	hear	323
865	uxc	hear	323
866	yuk	hear	323
867	wmr	hear	323
868	ara	hear	324
869	ikp	hear	324
870	hix	hear	325
871	wai	hear	323
872	way	hear	326
873	kap	hear	323
874	hix	heart	327
875	wai	heart	328
876	tri	heart	329
877	aku	heart	329
878	way	heart	329
879	apa	heart	330
880	mak	heart	329
881	kap	heart	329
882	pem	heart	329
883	mac	heart	329
884	pan	heart	329
885	yab	heart	329
886	yuk	heart	331
887	bak	heart	332
888	uxc	heart	333
889	ikp	heart	334
890	ara	heart	335
891	kar	heart	331
892	wmr	heart	336
893	kax	heart	328
894	car	heart	337
895	map	heart	333
896	kax	horn	338
897	tri	horn	339
898	way	horn	339
899	apa	horn	339
900	kar	horn	339
901	mak	horn	339
902	kap	horn	339
903	pem	horn	339
904	mac	horn	339
905	yab	horn	339
906	map	horn	339
907	hix	horn	340
908	wai	horn	340
909	pan	horn	340
910	ikp	horn	341
911	wmr	horn	342
912	uxc	horn	343
913	bak	horn	343
914	yuk	horn	344
915	ara	horn	345
916	car	horn	346
917	kax	hot	347
918	hix	hot	347
919	tri	hot	348
920	car	hot	348
921	apa	hot	349
922	mak	hot	347
923	kap	hot	347
924	pem	hot	347
925	mac	hot	347
926	yab	hot	350
927	map	hot	350
928	uxc	hot	350
929	wai	hot	351
930	ara	hot	352
931	ikp	hot	353
932	bak	hot	354
933	way	hot	355
934	kar	hot	356
935	pan	hot	357
936	yuk	hot	358
937	wmr	hot	352
938	kap	hot	347
939	kax	jaguar	359
940	tri	jaguar	359
941	car	jaguar	359
942	way	jaguar	359
943	apa	jaguar	359
944	kar	jaguar	359
945	kap	jaguar	359
946	pem	jaguar	359
947	mac	jaguar	359
948	ara	jaguar	360
949	ikp	jaguar	360
950	pan	jaguar	360
951	yab	jaguar	360
952	map	jaguar	360
953	uxc	jaguar	360
954	aku	jaguar	361
955	hix	jaguar	362
956	wai	jaguar	363
957	mak	jaguar	362
958	bak	jaguar	364
959	yuk	jaguar	365
960	wmr	jaguar	366
961	kap	jaguar	367
962	kax	kill	368
963	hix	kill	368
964	wai	kill	368
965	ara	kill	369
966	ikp	kill	369
967	bak	kill	370
968	way	kill	371
969	kar	kill	372
970	kap	kill	372
971	kap	kill	372
972	pem	kill	372
973	mac	kill	372
974	map	kill	373
975	uxc	kill	374
976	wmr	kill	372
977	ara	kill	375
978	ikp	kill	375
979	apa	kill	376
980	tri	kill	377
981	yuk	kill	376
982	pan	kill	378
983	way	kill	379
984	mak	kill	378
985	car	kill	380
986	yab	kill	381
987	kax	knee	382
988	hix	knee	383
989	wai	knee	382
990	ara	knee	384
991	bak	knee	385
992	way	knee	382
993	apa	knee	382
994	kar	knee	386
995	mak	knee	382
996	kap	knee	382
997	pem	knee	382
998	mac	knee	382
999	pan	knee	382
1000	yab	knee	387
1001	tri	knee	383
1002	aku	knee	383
1003	car	knee	383
1004	ikp	knee	388
1005	wmr	knee	389
1006	uxc	knee	390
1007	yuk	knee	391
1008	map	knee	392
1009	kap	knee	382
1010	hix	know	393
1011	bak	know	393
1012	way	know	394
1013	kap	know	393
1014	pem	know	393
1015	mac	know	395
1016	map	know	395
1017	uxc	know	393
1018	wmr	know	396
1019	tri	know	397
1020	aku	know	397
1021	car	know	397
1022	apa	know	398
1023	yuk	know	399
1024	pan	know	400
1025	ikp	know	401
1026	ara	know	402
1027	wai	know	394
1028	kar	know	403
1029	mak	know	399
1030	kax	know	404
1031	yab	know	405
1032	kap	know	393
1033	hix	leaf	406
1034	wai	leaf	406
1035	ara	leaf	406
1036	bak	leaf	406
1037	tri	leaf	406
1038	aku	leaf	406
1039	car	leaf	407
1040	way	leaf	406
1041	apa	leaf	406
1042	kar	leaf	406
1043	mak	leaf	406
1044	pem	leaf	406
1045	mac	leaf	406
1046	pan	leaf	408
1047	yab	leaf	409
1048	map	leaf	406
1049	uxc	leaf	406
1050	yuk	leaf	407
1051	wmr	leaf	408
1052	ikp	leaf	410
1053	kap	leaf	411
1054	kax	leaf	412
1055	kap	leaf	409
1056	yab	leaf	409
1057	kax	liver	413
1058	hix	liver	413
1059	wai	liver	413
1060	ara	liver	413
1061	ikp	liver	413
1062	bak	liver	413
1063	tri	liver	413
1064	aku	liver	413
1065	car	liver	413
1066	way	liver	413
1067	apa	liver	413
1068	kar	liver	413
1069	mak	liver	413
1070	kap	liver	413
1071	pem	liver	413
1072	mac	liver	413
1073	pan	liver	414
1074	yab	liver	413
1075	map	liver	413
1076	uxc	liver	415
1077	yuk	liver	413
1078	wmr	liver	416
1079	hix	long	417
1080	wai	long	417
1081	ara	long	418
1082	ikp	long	419
1083	tri	long	420
1084	aku	long	420
1085	car	long	420
1086	kax	long	421
1087	bak	long	421
1088	way	long	422
1089	apa	long	420
1090	kar	long	423
1091	mak	long	424
1092	kap	long	425
1093	pem	long	426
1094	mac	long	426
1095	pan	long	427
1096	yab	long	428
1097	map	long	425
1098	uxc	long	429
1099	yuk	long	421
1100	wmr	long	420
1101	kap	long	426
1102	kax	louse	430
1103	hix	louse	430
1104	wai	louse	430
1105	ara	louse	430
1106	ikp	louse	431
1107	bak	louse	430
1108	tri	louse	430
1109	car	louse	430
1110	way	louse	430
1111	apa	louse	430
1112	kar	louse	430
1113	mak	louse	430
1114	kap	louse	431
1115	pem	louse	431
1116	mac	louse	431
1117	pan	louse	430
1118	uxc	louse	432
1119	yuk	louse	433
1120	wmr	louse	433
1121	yab	louse	430
1122	map	louse	430
1123	kap	louse	431
1124	hix	man	434
1125	wai	man	434
1126	tri	man	434
1127	aku	man	434
1128	car	man	434
1129	kar	man	434
1130	pem	man	434
1131	yuk	man	435
1132	wmr	man	434
1133	ara	man	436
1134	ikp	man	436
1135	bak	man	437
1136	kap	man	438
1137	mac	man	438
1138	yab	man	438
1139	map	man	438
1140	kax	man	439
1141	uxc	man	439
1142	way	man	440
1143	apa	man	440
1144	mak	man	441
1145	pan	man	442
1146	kap	man	438
1147	apa	many	443
1148	kap	many	443
1149	pem	many	443
1150	mac	many	443
1151	way	many	444
1152	pan	many	444
1153	mak	many	445
1154	map	many	445
1155	yuk	many	446
1156	kax	many	447
1157	hix	many	448
1158	wai	many	449
1159	ara	many	450
1160	ikp	many	451
1161	bak	many	452
1162	tri	many	453
1163	car	many	454
1164	kar	many	447
1165	yab	many	455
1166	uxc	many	456
1167	wmr	many	457
1168	kap	many	443
1169	hix	moon	458
1170	wai	moon	458
1171	ara	moon	458
1172	ikp	moon	458
1173	bak	moon	458
1174	tri	moon	458
1175	car	moon	458
1176	way	moon	458
1177	apa	moon	458
1178	kar	moon	458
1179	mak	moon	458
1180	yab	moon	458
1181	map	moon	458
1182	uxc	moon	458
1183	wmr	moon	458
1184	kap	moon	459
1185	kap	moon	459
1186	pem	moon	459
1187	mac	moon	459
1188	yuk	moon	460
1189	pan	moon	458
1190	aku	moon	461
1191	kax	moon	462
1192	hix	mountain	463
1193	wai	mountain	463
1194	bak	mountain	463
1195	tri	mountain	463
1196	car	mountain	463
1197	way	mountain	463
1198	apa	mountain	463
1199	kar	mountain	464
1200	mak	mountain	463
1201	kap	mountain	464
1202	pem	mountain	464
1203	mac	mountain	464
1204	pan	mountain	465
1205	wmr	mountain	464
1206	kap	mountain	464
1207	yab	mountain	466
1208	map	mountain	466
1209	ikp	mountain	467
1210	uxc	mountain	468
1211	yuk	mountain	469
1212	ara	mountain	470
1213	kax	mountain	471
1214	kax	mouth	472
1215	hix	mouth	472
1216	wai	mouth	472
1217	bak	mouth	473
1218	tri	mouth	472
1219	aku	mouth	472
1220	car	mouth	472
1221	way	mouth	472
1222	apa	mouth	472
1223	kar	mouth	472
1224	mak	mouth	473
1225	kap	mouth	472
1226	pem	mouth	472
1227	mac	mouth	473
1228	pan	mouth	473
1229	uxc	mouth	473
1230	ara	mouth	474
1231	ikp	mouth	474
1232	yab	mouth	474
1233	map	mouth	474
1234	yuk	mouth	474
1235	wmr	mouth	474
1236	kap	mouth	472
1237	kax	name	475
1238	hix	name	476
1239	wai	name	476
1240	ara	name	477
1241	ikp	name	477
1242	bak	name	476
1243	car	name	476
1244	way	name	475
1245	apa	name	475
1246	kar	name	476
1247	mak	name	476
1248	kap	name	475
1249	pem	name	475
1250	mac	name	475
1251	pan	name	475
1252	yab	name	476
1253	map	name	476
1254	uxc	name	477
1255	yuk	name	475
1256	wmr	name	477
1257	tri	name	478
1258	kax	neck	479
1259	hix	neck	479
1260	wai	neck	479
1261	bak	neck	479
1262	tri	neck	479
1263	aku	neck	479
1264	car	neck	479
1265	way	neck	479
1266	apa	neck	479
1267	kar	neck	479
1268	mak	neck	479
1269	kap	neck	479
1270	pem	neck	479
1271	mac	neck	480
1272	pan	neck	479
1273	yuk	neck	479
1274	wmr	neck	479
1275	yab	neck	481
1276	map	neck	482
1277	ara	neck	483
1278	ikp	neck	484
1279	uxc	neck	485
1280	kap	neck	479
1281	tri	new	486
1282	car	new	486
1283	apa	new	487
1284	kax	new	487
1285	kap	new	488
1286	pem	new	488
1287	mac	new	488
1288	hix	new	486
1289	wai	new	489
1290	ikp	new	490
1291	bak	new	491
1292	way	new	492
1293	kar	new	493
1294	wmr	new	494
1295	mak	new	495
1296	pan	new	496
1297	yab	new	497
1298	map	new	498
1299	uxc	new	486
1300	yuk	new	499
1301	kax	night	500
1302	hix	night	501
1303	wai	night	500
1304	ara	night	500
1305	ikp	night	500
1306	bak	night	502
1307	tri	night	500
1308	aku	night	500
1309	car	night	500
1310	way	night	500
1311	apa	night	500
1312	kar	night	500
1313	mak	night	502
1314	yab	night	502
1315	map	night	502
1316	uxc	night	500
1317	yuk	night	500
1318	wmr	night	500
1319	kap	night	503
1320	pem	night	503
1321	mac	night	503
1322	kap	night	503
1323	pan	night	504
1324	kax	nose	505
1325	hix	nose	506
1326	wai	nose	507
1327	ara	nose	507
1328	ikp	nose	507
1329	bak	nose	507
1330	tri	nose	507
1331	aku	nose	507
1332	car	nose	508
1333	way	nose	507
1334	apa	nose	507
1335	kar	nose	507
1336	mak	nose	507
1337	kap	nose	507
1338	pem	nose	507
1339	mac	nose	507
1340	pan	nose	509
1341	yab	nose	507
1342	map	nose	507
1343	uxc	nose	507
1344	yuk	nose	507
1345	wmr	nose	507
1346	kap	nose	507
1347	kax	not	510
1348	hix	not	510
1349	wai	not	510
1350	ara	not	510
1351	ikp	not	510
1352	bak	not	511
1353	car	not	512
1354	way	not	513
1355	apa	not	510
1356	kar	not	512
1357	mak	not	513
1358	kap	not	510
1359	pem	not	510
1360	mac	not	510
1361	yab	not	510
1362	map	not	513
1363	uxc	not	511
1364	yuk	not	510
1365	wmr	not	512
1366	tri	not	514
1367	aku	not	514
1368	pan	not	513
1369	kap	not	510
1370	kax	one	515
1371	hix	one	516
1372	wai	one	517
1373	tri	one	516
1374	aku	one	518
1375	car	one	517
1376	apa	one	518
1377	kar	one	519
1378	mak	one	517
1379	kap	one	516
1380	pem	one	516
1381	mac	one	516
1382	wmr	one	520
1383	ara	one	521
1384	ikp	one	521
1385	way	one	522
1386	pan	one	523
1387	uxc	one	524
1388	bak	one	525
1389	yab	one	526
1390	yuk	one	527
1391	map	one	515
1392	kax	path	528
1393	hix	path	528
1394	wai	path	528
1395	ara	path	528
1396	ikp	path	528
1397	bak	path	529
1398	tri	path	528
1399	aku	path	528
1400	car	path	528
1401	way	path	528
1402	apa	path	528
1403	kar	path	528
1404	mak	path	528
1405	kap	path	528
1406	pem	path	528
1407	mac	path	528
1408	pan	path	528
1409	yab	path	528
1410	map	path	528
1411	uxc	path	528
1412	yuk	path	528
1413	wmr	path	530
1414	kap	path	528
1415	kax	rain	531
1416	ara	rain	531
1417	ikp	rain	531
1418	bak	rain	531
1419	tri	rain	531
1420	aku	rain	531
1421	car	rain	531
1422	way	rain	531
1423	apa	rain	531
1424	kar	rain	531
1425	mak	rain	531
1426	pem	rain	531
1427	mac	rain	531
1428	pan	rain	531
1429	yab	rain	532
1430	uxc	rain	531
1431	yuk	rain	533
1432	hix	rain	534
1433	wai	rain	534
1434	kap	rain	534
1435	kap	rain	534
1436	wmr	rain	535
1437	map	rain	536
1438	kax	red	537
1439	way	red	537
1440	apa	red	537
1441	kar	red	537
1442	yab	red	537
1443	map	red	537
1444	tri	red	537
1445	car	red	537
1446	mak	red	538
1447	kap	red	539
1448	pem	red	539
1449	mac	red	539
1450	hix	red	540
1451	wai	red	540
1452	ara	red	541
1453	ikp	red	542
1454	bak	red	537
1455	pan	red	543
1456	uxc	red	544
1457	yuk	red	545
1458	wmr	red	538
1459	kax	root	546
1460	wai	root	546
1461	ikp	root	546
1462	bak	root	546
1463	tri	root	546
1464	aku	root	546
1465	car	root	546
1466	way	root	546
1467	apa	root	546
1468	kar	root	547
1469	mak	root	546
1470	pan	root	546
1471	yab	root	546
1472	map	root	546
1473	uxc	root	548
1474	kap	root	549
1475	pem	root	549
1476	mac	root	549
1477	hix	root	550
1478	wmr	root	551
1479	yuk	root	552
1480	ara	root	553
1481	kap	root	549
1482	kap	root	546
1483	tri	round	554
1484	kap	round	555
1485	mac	round	555
1486	pem	round	556
1487	kap	round	556
1488	hix	round	557
1489	wai	round	557
1490	kax	round	558
1491	ikp	round	559
1492	bak	round	560
1493	car	round	561
1494	way	round	562
1495	apa	round	563
1496	kar	round	562
1497	mak	round	564
1498	pan	round	558
1499	yab	round	565
1500	map	round	566
1501	uxc	round	567
1502	yuk	round	568
1503	wmr	round	569
1504	way	round	570
1505	tri	sand	571
1506	aku	sand	571
1507	car	sand	571
1508	way	sand	571
1509	hix	sand	572
1510	bak	sand	573
1511	kar	sand	573
1512	mak	sand	572
1513	mac	sand	573
1514	yab	sand	574
1515	map	sand	573
1516	yuk	sand	572
1517	kap	sand	575
1518	pem	sand	575
1519	wai	sand	576
1520	apa	sand	576
1521	ara	sand	577
1522	ikp	sand	577
1523	kax	sand	578
1524	pan	sand	579
1525	uxc	sand	580
1526	wmr	sand	581
1527	kax	say	582
1528	hix	say	582
1529	wai	say	582
1530	ara	say	582
1531	ikp	say	582
1532	bak	say	582
1533	tri	say	582
1534	aku	say	582
1535	car	say	582
1536	way	say	582
1537	apa	say	582
1538	kar	say	582
1539	kap	say	582
1540	pem	say	582
1541	mac	say	582
1542	pan	say	582
1543	uxc	say	582
1544	yuk	say	582
1545	wmr	say	582
1546	mak	say	583
1547	map	say	584
1548	yab	say	585
1549	kap	say	582
1550	kax	see	586
1551	hix	see	586
1552	wai	see	586
1553	ara	see	586
1554	ikp	see	586
1555	bak	see	587
1556	tri	see	586
1557	aku	see	586
1558	car	see	586
1559	way	see	586
1560	apa	see	586
1561	kar	see	586
1562	mak	see	586
1563	kap	see	586
1564	pan	see	586
1565	yab	see	586
1566	map	see	586
1567	uxc	see	586
1568	wmr	see	586
1569	kap	see	588
1570	pem	see	588
1571	mac	see	588
1572	yuk	see	589
1573	kap	see	586
1574	wai	seed	590
1575	ara	seed	591
1576	pan	seed	592
1577	yab	seed	592
1578	map	seed	592
1579	ikp	seed	593
1580	uxc	seed	594
1581	kax	seed	590
1582	hix	seed	595
1583	pem	seed	592
1584	mac	seed	592
1585	bak	seed	593
1586	kar	seed	596
1587	yuk	seed	596
1588	tri	seed	597
1589	way	seed	591
1590	apa	seed	597
1591	mak	seed	598
1592	wmr	seed	599
1593	car	seed	600
1594	kap	seed	592
1595	kax	skin	601
1596	hix	skin	602
1597	wai	skin	602
1598	ara	skin	603
1599	ikp	skin	604
1600	bak	skin	605
1601	tri	skin	606
1602	aku	skin	606
1603	car	skin	602
1604	way	skin	606
1605	apa	skin	606
1606	kar	skin	606
1607	mak	skin	602
1608	kap	skin	606
1609	pem	skin	606
1610	mac	skin	606
1611	pan	skin	606
1612	yab	skin	606
1613	map	skin	606
1614	uxc	skin	601
1615	wmr	skin	604
1616	yuk	skin	607
1617	kap	skin	606
1618	kax	sleep	608
1619	hix	sleep	609
1620	wai	sleep	609
1621	ara	sleep	609
1622	ikp	sleep	609
1623	bak	sleep	609
1624	tri	sleep	609
1625	aku	sleep	609
1626	car	sleep	609
1627	way	sleep	609
1628	apa	sleep	608
1629	kar	sleep	609
1630	mak	sleep	609
1631	yab	sleep	609
1632	map	sleep	609
1633	uxc	sleep	609
1634	yuk	sleep	609
1635	wmr	sleep	610
1636	kap	sleep	611
1637	kap	sleep	611
1638	pem	sleep	611
1639	mac	sleep	612
1640	pan	sleep	613
1641	kax	small	614
1642	tri	small	615
1643	aku	small	614
1644	car	small	616
1645	way	small	617
1646	apa	small	614
1647	mak	small	618
1648	pan	small	616
1649	pem	small	619
1650	mac	small	620
1651	yuk	small	621
1652	bak	small	622
1653	kar	small	623
1654	uxc	small	620
1655	kap	small	624
1656	ikp	small	625
1657	ara	small	626
1658	wai	small	627
1659	hix	small	628
1660	wmr	small	629
1661	map	small	630
1662	yab	small	631
1663	kap	small	619
1664	kax	smoke	632
1665	tri	smoke	633
1666	car	smoke	634
1667	way	smoke	634
1668	apa	smoke	634
1669	mak	smoke	633
1670	kap	smoke	634
1671	pem	smoke	634
1672	mac	smoke	634
1673	yab	smoke	635
1674	map	smoke	635
1675	yuk	smoke	636
1676	hix	smoke	635
1677	wai	smoke	635
1678	ikp	smoke	637
1679	bak	smoke	638
1680	kar	smoke	639
1681	pan	smoke	640
1682	uxc	smoke	641
1683	wmr	smoke	638
1684	hix	son	642
1685	wai	son	642
1686	ara	son	642
1687	ikp	son	642
1688	bak	son	642
1689	tri	son	642
1690	aku	son	642
1691	car	son	642
1692	way	son	642
1693	apa	son	642
1694	kar	son	642
1695	kap	son	642
1696	pem	son	642
1697	mac	son	642
1698	yab	son	642
1699	uxc	son	642
1700	kax	son	643
1701	yuk	son	644
1702	pan	son	645
1703	mak	son	646
1704	map	son	646
1705	wmr	son	647
1706	kap	son	642
1707	kax	star	648
1708	hix	star	649
1709	wai	star	649
1710	ara	star	650
1711	ikp	star	650
1712	bak	star	649
1713	tri	star	649
1714	aku	star	649
1715	car	star	649
1716	way	star	649
1717	apa	star	649
1718	kar	star	649
1719	mak	star	649
1720	kap	star	649
1721	pem	star	649
1722	mac	star	649
1723	yab	star	649
1724	map	star	649
1725	yuk	star	649
1726	wmr	star	649
1727	pan	star	651
1728	uxc	star	652
1729	kax	stone	653
1730	hix	stone	653
1731	wai	stone	653
1732	tri	stone	653
1733	aku	stone	653
1734	car	stone	653
1735	way	stone	653
1736	apa	stone	653
1737	kar	stone	653
1738	mak	stone	653
1739	kap	stone	653
1740	pem	stone	653
1741	mac	stone	653
1742	pan	stone	653
1743	yab	stone	653
1744	map	stone	653
1745	uxc	stone	653
1746	yuk	stone	653
1747	wmr	stone	653
1748	ara	stone	654
1749	ikp	stone	654
1750	bak	stone	653
1751	kap	stone	653
1752	tri	sun	655
1753	aku	sun	655
1754	car	sun	655
1755	kar	sun	655
1756	kap	sun	655
1757	pem	sun	655
1758	mac	sun	655
1759	yuk	sun	656
1760	wmr	sun	655
1761	kax	sun	657
1762	ara	sun	657
1763	ikp	sun	657
1764	bak	sun	657
1765	way	sun	657
1766	apa	sun	657
1767	mak	sun	657
1768	uxc	sun	658
1769	hix	sun	659
1770	wai	sun	659
1771	yab	sun	660
1772	map	sun	660
1773	pan	sun	661
1774	kap	sun	655
1775	kar	swim	662
1776	mak	swim	662
1777	kap	swim	662
1778	kap	swim	662
1779	mac	swim	662
1780	map	swim	662
1781	kax	swim	663
1782	hix	swim	664
1783	bak	swim	665
1784	pan	swim	666
1785	pem	swim	667
1786	ikp	swim	668
1787	wai	swim	669
1788	apa	swim	670
1789	yuk	swim	671
1790	car	swim	672
1791	way	swim	663
1792	wmr	swim	664
1793	kap	swim	673
1794	ikp	tail	674
1795	tri	tail	674
1796	aku	tail	674
1797	car	tail	674
1798	apa	tail	674
1799	mac	tail	675
1800	uxc	tail	674
1801	hix	tail	676
1802	wai	tail	677
1803	kax	tail	675
1804	ara	tail	678
1805	bak	tail	679
1806	way	tail	680
1807	kar	tail	681
1808	mak	tail	682
1809	kap	tail	683
1810	pem	tail	684
1811	pan	tail	681
1812	yab	tail	685
1813	map	tail	680
1814	yuk	tail	680
1815	wmr	tail	686
1816	kap	tail	684
1817	kap	tail	675
1818	kax	that	687
1819	hix	that	687
1820	wai	that	687
1821	ara	that	687
1822	ikp	that	687
1823	bak	that	687
1824	tri	that	687
1825	aku	that	687
1826	car	that	687
1827	way	that	687
1828	apa	that	687
1829	kar	that	687
1830	mak	that	687
1831	kap	that	687
1832	pem	that	687
1833	mac	that	687
1834	pan	that	687
1835	yab	that	687
1836	map	that	687
1837	uxc	that	688
1838	wmr	that	687
1839	mac	that	689
1840	pan	that	690
1841	yuk	that	691
1842	kap	that	687
1843	kax	this	692
1844	ara	this	692
1845	bak	this	692
1846	tri	this	692
1847	aku	this	692
1848	car	this	692
1849	way	this	692
1850	apa	this	692
1851	kar	this	692
1852	mak	this	692
1853	kap	this	692
1854	pem	this	692
1855	mac	this	692
1856	pan	this	693
1857	uxc	this	694
1858	hix	this	695
1859	wai	this	696
1860	tri	this	695
1861	car	this	695
1862	way	this	697
1863	apa	this	695
1864	kar	this	695
1865	kap	this	693
1866	pem	this	695
1867	mac	this	695
1868	yab	this	695
1869	ikp	this	698
1870	wai	this	699
1871	wmr	this	700
1872	wmr	this	700
1873	yuk	this	701
1874	map	this	702
1875	kap	this	693
1876	kax	tongue	703
1877	hix	tongue	703
1878	wai	tongue	703
1879	ara	tongue	704
1880	ikp	tongue	704
1881	bak	tongue	704
1882	tri	tongue	705
1883	aku	tongue	705
1884	way	tongue	703
1885	apa	tongue	703
1886	kar	tongue	703
1887	mak	tongue	703
1888	mac	tongue	703
1889	pan	tongue	706
1890	yab	tongue	703
1891	map	tongue	703
1892	uxc	tongue	703
1893	wmr	tongue	703
1894	kap	tongue	706
1895	pem	tongue	706
1896	yuk	tongue	707
1897	car	tongue	706
1898	kap	tongue	706
1899	kax	tooth	708
1900	hix	tooth	708
1901	wai	tooth	708
1902	ara	tooth	709
1903	ikp	tooth	709
1904	bak	tooth	709
1905	tri	tooth	708
1906	aku	tooth	708
1907	car	tooth	708
1908	way	tooth	708
1909	apa	tooth	710
1910	kar	tooth	708
1911	mak	tooth	710
1912	kap	tooth	708
1913	pem	tooth	708
1914	mac	tooth	708
1915	pan	tooth	708
1916	yab	tooth	708
1917	map	tooth	708
1918	uxc	tooth	709
1919	yuk	tooth	708
1920	wmr	tooth	708
1921	kap	tooth	711
1922	ara	tree	712
1923	ikp	tree	713
1924	bak	tree	714
1925	mak	tree	715
1926	kap	tree	712
1927	pem	tree	716
1928	mac	tree	716
1929	pan	tree	716
1930	yab	tree	716
1931	map	tree	716
1932	uxc	tree	714
1933	kax	tree	717
1934	hix	tree	717
1935	wai	tree	717
1936	tri	tree	717
1937	aku	tree	717
1938	car	tree	717
1939	way	tree	717
1940	apa	tree	717
1941	kar	tree	717
1942	yuk	tree	715
1943	wmr	tree	717
1944	kap	tree	712
1945	kax	two	718
1946	hix	two	718
1947	wai	two	718
1948	ara	two	718
1949	ikp	two	718
1950	bak	two	718
1951	tri	two	719
1952	aku	two	719
1953	car	two	719
1954	way	two	719
1955	apa	two	718
1956	kar	two	720
1957	mak	two	720
1958	kap	two	718
1959	pem	two	719
1960	mac	two	719
1961	pan	two	718
1962	yab	two	718
1963	map	two	719
1964	uxc	two	720
1965	yuk	two	721
1966	wmr	two	722
1967	kap	two	718
1968	ara	walk	723
1969	ikp	walk	724
1970	bak	walk	723
1971	car	walk	723
1972	apa	walk	723
1973	hix	walk	725
1974	wai	walk	726
1975	yab	walk	727
1976	map	walk	727
1977	kar	walk	728
1978	kap	walk	729
1979	kap	walk	730
1980	kap	walk	730
1981	mac	walk	730
1982	pan	walk	731
1983	pem	walk	732
1984	yuk	walk	733
1985	tri	walk	734
1986	uxc	walk	727
1987	way	walk	735
1988	mak	walk	736
1989	kax	walk	729
1990	kax	water	737
1991	hix	water	737
1992	wai	water	737
1993	tri	water	737
1994	aku	water	737
1995	car	water	737
1996	way	water	737
1997	apa	water	737
1998	kar	water	737
1999	mak	water	737
2000	kap	water	737
2001	pem	water	737
2002	mac	water	737
2003	pan	water	737
2004	yab	water	737
2005	map	water	737
2006	uxc	water	737
2007	yuk	water	737
2008	wmr	water	737
2009	ara	water	738
2010	ikp	water	739
2011	bak	water	738
2012	kap	water	737
2013	kax	we	740
2014	hix	we	740
2015	wai	we	740
2016	tri	we	740
2017	aku	we	740
2018	car	we	740
2019	way	we	741
2020	apa	we	740
2021	kar	we	742
2022	mak	we	740
2023	kap	we	740
2024	pem	we	740
2025	mac	we	740
2026	pan	we	740
2027	yab	we	740
2028	map	we	742
2029	yuk	we	740
2030	wmr	we	742
2031	ara	we	743
2032	ikp	we	743
2033	bak	we	743
2034	uxc	we	744
2035	kap	we	740
2036	ara	what	745
2037	ikp	what	746
2038	bak	what	745
2039	tri	what	745
2040	aku	what	745
2041	car	what	745
2042	way	what	745
2043	apa	what	745
2044	kar	what	745
2045	kap	what	747
2046	pem	what	748
2047	mac	what	748
2048	yab	what	745
2049	map	what	745
2050	uxc	what	745
2051	kax	what	749
2052	hix	what	745
2053	wai	what	750
2054	mak	what	751
2055	pan	what	752
2056	yuk	what	753
2057	wmr	what	754
2058	kap	what	747
2059	kax	white	755
2060	hix	white	755
2061	wai	white	755
2062	car	white	756
2063	apa	white	756
2064	kar	white	755
2065	kap	white	756
2066	pem	white	756
2067	mac	white	756
2068	pan	white	755
2069	map	white	755
2070	ikp	white	757
2071	bak	white	757
2072	mak	white	758
2073	tri	white	759
2074	way	white	759
2075	ara	white	760
2076	yab	white	761
2077	uxc	white	757
2078	yuk	white	762
2079	wmr	white	763
2080	kax	who	764
2081	hix	who	765
2082	wai	who	765
2083	ara	who	765
2084	ikp	who	765
2085	bak	who	765
2086	tri	who	765
2087	aku	who	765
2088	car	who	765
2089	way	who	765
2090	apa	who	765
2091	kar	who	765
2092	mak	who	765
2093	kap	who	766
2094	pem	who	766
2095	mac	who	766
2096	pan	who	767
2097	yab	who	768
2098	map	who	768
2099	yuk	who	764
2100	uxc	who	769
2101	wmr	who	770
2102	kap	who	766
2103	kax	woman	771
2104	hix	woman	771
2105	wai	woman	771
2106	tri	woman	771
2107	aku	woman	771
2108	car	woman	771
2109	way	woman	771
2110	kar	woman	771
2111	mak	woman	771
2112	kap	woman	772
2113	pem	woman	771
2114	mac	woman	771
2115	pan	woman	773
2116	uxc	woman	774
2117	yuk	woman	771
2118	wmr	woman	771
2119	ara	woman	775
2120	ikp	woman	776
2121	bak	woman	776
2122	yab	woman	772
2123	map	woman	777
2124	apa	woman	778
2125	kap	woman	772
2126	kax	yellow	779
2127	wai	yellow	779
2128	apa	yellow	780
2129	tri	yellow	781
2130	car	yellow	781
2131	hix	yellow	782
2132	ikp	yellow	783
2133	bak	yellow	784
2134	way	yellow	780
2135	kar	yellow	785
2136	mak	yellow	786
2137	kap	yellow	787
2138	pem	yellow	788
2139	mac	yellow	789
2140	pan	yellow	790
2141	yab	yellow	791
2142	map	yellow	785
2143	uxc	yellow	792
2144	yuk	yellow	793
2145	wmr	yellow	794
2146	kax	you	795
2147	hix	you	795
2148	wai	you	795
2149	ara	you	795
2150	ikp	you	795
2151	bak	you	795
2152	tri	you	795
2153	aku	you	795
2154	car	you	795
2155	way	you	795
2156	apa	you	795
2157	kar	you	795
2158	mak	you	795
2159	kap	you	795
2160	pem	you	795
2161	mac	you	795
2162	pan	you	795
2163	yab	you	795
2164	map	you	796
2165	uxc	you	797
2166	yuk	you	795
2167	wmr	you	795
2168	kap	you	795
