%!PS-Adobe-3.0 EPSF-3.0
%%BoundingBox: 0 0 1094 1200
%%Creator: jloda
%%EndComments
/c {curveto} bind def
/m {moveto} bind def
/l {lineto} bind def
1.0 1.0 1.0 setrgbcolor
newpath
0.0 1200.0 m
1094.0 1200.0 l
1094.0 0.0 l
0.0 0.0 l
0.0 1200.0 l
closepath
fill
0.0 0.0 0.0 setrgbcolor
0.0 0.0 0.0 setrgbcolor
/Helvetica findfont
11 scalefont
setfont
2 setlinecap
1 setlinejoin
10.0 setmiterlimit
1.0 setlinewidth
0.0 0.0 0.0 setrgbcolor
newpath
719.0 678.0 m
778.0 678.0 l
stroke
0.0 0.0 0.0 setrgbcolor
newpath
679.0 672.0 m
713.0 678.0 l
stroke
0.0 0.0 0.0 setrgbcolor
newpath
668.0 673.0 m
674.0 672.0 l
stroke
0.0 0.0 0.0 setrgbcolor
newpath
707.0 680.0 m
713.0 679.0 l
stroke
0.0 0.0 0.0 setrgbcolor
newpath
702.0 680.0 m
668.0 674.0 l
stroke
0.0 0.0 0.0 setrgbcolor
newpath
651.0 679.0 m
663.0 674.0 l
stroke
0.0 0.0 0.0 setrgbcolor
newpath
691.0 685.0 m
702.0 682.0 l
stroke
0.0 0.0 0.0 setrgbcolor
newpath
686.0 686.0 m
651.0 680.0 l
stroke
0.0 0.0 0.0 setrgbcolor
newpath
641.0 641.0 m
674.0 670.0 l
stroke
0.0 0.0 0.0 setrgbcolor
newpath
630.0 643.0 m
663.0 672.0 l
stroke
0.0 0.0 0.0 setrgbcolor
newpath
630.0 641.0 m
636.0 640.0 l
stroke
0.0 0.0 0.0 setrgbcolor
newpath
613.0 649.0 m
646.0 678.0 l
stroke
0.0 0.0 0.0 setrgbcolor
newpath
613.0 647.0 m
625.0 642.0 l
stroke
0.0 0.0 0.0 setrgbcolor
newpath
597.0 624.0 m
625.0 640.0 l
stroke
0.0 0.0 0.0 setrgbcolor
newpath
580.0 630.0 m
608.0 646.0 l
stroke
0.0 0.0 0.0 setrgbcolor
newpath
580.0 628.0 m
592.0 623.0 l
stroke
0.0 0.0 0.0 setrgbcolor
newpath
616.0 600.0 m
637.0 637.0 l
stroke
0.0 0.0 0.0 setrgbcolor
newpath
604.0 602.0 m
626.0 639.0 l
stroke
0.0 0.0 0.0 setrgbcolor
newpath
605.0 599.0 m
612.0 598.0 l
stroke
0.0 0.0 0.0 setrgbcolor
newpath
571.0 583.0 m
593.0 620.0 l
stroke
0.0 0.0 0.0 setrgbcolor
newpath
572.0 582.0 m
600.0 598.0 l
stroke
0.0 0.0 0.0 setrgbcolor
newpath
555.0 589.0 m
576.0 626.0 l
stroke
0.0 0.0 0.0 setrgbcolor
newpath
556.0 585.0 m
567.0 582.0 l
stroke
0.0 0.0 0.0 setrgbcolor
newpath
536.0 571.0 m
551.0 585.0 l
stroke
0.0 0.0 0.0 setrgbcolor
newpath
532.0 572.0 m
532.0 572.0 l
stroke
0.0 0.0 0.0 setrgbcolor
newpath
552.0 589.0 m
552.0 589.0 l
stroke
0.0 0.0 0.0 setrgbcolor
newpath
548.0 590.0 m
533.0 576.0 l
stroke
0.0 0.0 0.0 setrgbcolor
newpath
576.0 631.0 m
576.0 631.0 l
stroke
0.0 0.0 0.0 setrgbcolor
newpath
573.0 631.0 m
552.0 594.0 l
stroke
0.0 0.0 0.0 setrgbcolor
newpath
609.0 650.0 m
609.0 650.0 l
stroke
0.0 0.0 0.0 setrgbcolor
newpath
605.0 651.0 m
577.0 635.0 l
stroke
0.0 0.0 0.0 setrgbcolor
newpath
647.0 682.0 m
647.0 682.0 l
stroke
0.0 0.0 0.0 setrgbcolor
newpath
643.0 683.0 m
610.0 654.0 l
stroke
0.0 0.0 0.0 setrgbcolor
newpath
570.0 564.0 m
570.0 577.0 l
stroke
0.0 0.0 0.0 setrgbcolor
newpath
554.0 570.0 m
554.0 583.0 l
stroke
0.0 0.0 0.0 setrgbcolor
newpath
556.0 566.0 m
567.0 563.0 l
stroke
0.0 0.0 0.0 setrgbcolor
newpath
534.0 553.0 m
534.0 566.0 l
stroke
0.0 0.0 0.0 setrgbcolor
newpath
536.0 552.0 m
551.0 566.0 l
stroke
0.0 0.0 0.0 setrgbcolor
newpath
552.0 563.0 m
553.0 565.0 l
stroke
0.0 0.0 0.0 setrgbcolor
newpath
532.0 547.0 m
533.0 548.0 l
stroke
0.0 0.0 0.0 setrgbcolor
newpath
534.0 546.0 m
549.0 559.0 l
stroke
0.0 0.0 0.0 setrgbcolor
newpath
532.0 566.0 m
533.0 567.0 l
stroke
0.0 0.0 0.0 setrgbcolor
newpath
532.0 560.0 m
532.0 547.0 l
stroke
0.0 0.0 0.0 setrgbcolor
newpath
528.0 541.0 m
530.0 542.0 l
stroke
0.0 0.0 0.0 setrgbcolor
newpath
528.0 560.0 m
530.0 561.0 l
stroke
0.0 0.0 0.0 setrgbcolor
newpath
527.0 554.0 m
527.0 541.0 l
stroke
0.0 0.0 0.0 setrgbcolor
newpath
524.0 556.0 m
429.0 522.0 l
stroke
0.0 0.0 0.0 setrgbcolor
newpath
530.0 566.0 m
532.0 567.0 l
stroke
0.0 0.0 0.0 setrgbcolor
newpath
528.0 561.0 m
527.0 560.0 l
stroke
0.0 0.0 0.0 setrgbcolor
newpath
527.0 571.0 m
529.0 572.0 l
stroke
0.0 0.0 0.0 setrgbcolor
newpath
527.0 566.0 m
527.0 566.0 l
stroke
0.0 0.0 0.0 setrgbcolor
newpath
527.0 567.0 m
523.0 571.0 l
stroke
0.0 0.0 0.0 setrgbcolor
newpath
532.0 573.0 m
528.0 577.0 l
stroke
0.0 0.0 0.0 setrgbcolor
newpath
528.0 573.0 m
526.0 572.0 l
stroke
0.0 0.0 0.0 setrgbcolor
newpath
552.0 590.0 m
548.0 594.0 l
stroke
0.0 0.0 0.0 setrgbcolor
newpath
547.0 591.0 m
532.0 577.0 l
stroke
0.0 0.0 0.0 setrgbcolor
newpath
575.0 631.0 m
575.0 636.0 l
stroke
0.0 0.0 0.0 setrgbcolor
newpath
573.0 632.0 m
551.0 595.0 l
stroke
0.0 0.0 0.0 setrgbcolor
newpath
608.0 650.0 m
608.0 655.0 l
stroke
0.0 0.0 0.0 setrgbcolor
newpath
605.0 652.0 m
577.0 636.0 l
stroke
0.0 0.0 0.0 setrgbcolor
newpath
646.0 682.0 m
646.0 687.0 l
stroke
0.0 0.0 0.0 setrgbcolor
newpath
643.0 684.0 m
610.0 655.0 l
stroke
0.0 0.0 0.0 setrgbcolor
newpath
529.0 576.0 m
529.0 578.0 l
stroke
0.0 0.0 0.0 setrgbcolor
newpath
549.0 593.0 m
549.0 595.0 l
stroke
0.0 0.0 0.0 setrgbcolor
newpath
546.0 594.0 m
531.0 580.0 l
stroke
0.0 0.0 0.0 setrgbcolor
newpath
574.0 635.0 m
573.0 637.0 l
stroke
0.0 0.0 0.0 setrgbcolor
newpath
571.0 635.0 m
550.0 598.0 l
stroke
0.0 0.0 0.0 setrgbcolor
newpath
607.0 654.0 m
606.0 656.0 l
stroke
0.0 0.0 0.0 setrgbcolor
newpath
603.0 655.0 m
575.0 639.0 l
stroke
0.0 0.0 0.0 setrgbcolor
newpath
645.0 686.0 m
644.0 688.0 l
stroke
0.0 0.0 0.0 setrgbcolor
newpath
641.0 687.0 m
608.0 658.0 l
stroke
0.0 0.0 0.0 setrgbcolor
newpath
645.0 685.0 m
645.0 687.0 l
stroke
0.0 0.0 0.0 setrgbcolor
newpath
642.0 690.0 m
646.0 686.0 l
stroke
0.0 0.0 0.0 setrgbcolor
newpath
540.0 495.0 m
551.0 558.0 l
stroke
0.0 0.0 0.0 setrgbcolor
newpath
520.0 478.0 m
531.0 542.0 l
stroke
0.0 0.0 0.0 setrgbcolor
newpath
522.0 477.0 m
537.0 491.0 l
stroke
0.0 0.0 0.0 setrgbcolor
newpath
515.0 472.0 m
526.0 536.0 l
stroke
0.0 0.0 0.0 setrgbcolor
newpath
516.0 472.0 m
518.0 473.0 l
stroke
0.0 0.0 0.0 setrgbcolor
newpath
618.0 593.0 m
616.0 595.0 l
stroke
0.0 0.0 0.0 setrgbcolor
newpath
607.0 595.0 m
604.0 597.0 l
stroke
0.0 0.0 0.0 setrgbcolor
newpath
611.0 592.0 m
617.0 591.0 l
stroke
0.0 0.0 0.0 setrgbcolor
newpath
574.0 576.0 m
571.0 578.0 l
stroke
0.0 0.0 0.0 setrgbcolor
newpath
578.0 575.0 m
606.0 591.0 l
stroke
0.0 0.0 0.0 setrgbcolor
newpath
574.0 557.0 m
571.0 559.0 l
stroke
0.0 0.0 0.0 setrgbcolor
newpath
576.0 557.0 m
576.0 570.0 l
stroke
0.0 0.0 0.0 setrgbcolor
newpath
558.0 563.0 m
555.0 565.0 l
stroke
0.0 0.0 0.0 setrgbcolor
newpath
562.0 559.0 m
573.0 556.0 l
stroke
0.0 0.0 0.0 setrgbcolor
newpath
555.0 557.0 m
554.0 558.0 l
stroke
0.0 0.0 0.0 setrgbcolor
newpath
558.0 557.0 m
559.0 558.0 l
stroke
0.0 0.0 0.0 setrgbcolor
newpath
544.0 488.0 m
541.0 490.0 l
stroke
0.0 0.0 0.0 setrgbcolor
newpath
546.0 488.0 m
557.0 552.0 l
stroke
0.0 0.0 0.0 setrgbcolor
newpath
524.0 471.0 m
521.0 473.0 l
stroke
0.0 0.0 0.0 setrgbcolor
newpath
528.0 470.0 m
543.0 484.0 l
stroke
0.0 0.0 0.0 setrgbcolor
newpath
518.0 465.0 m
516.0 467.0 l
stroke
0.0 0.0 0.0 setrgbcolor
newpath
522.0 465.0 m
523.0 466.0 l
stroke
0.0 0.0 0.0 setrgbcolor
newpath
529.0 578.0 m
526.0 581.0 l
stroke
0.0 0.0 0.0 setrgbcolor
newpath
549.0 595.0 m
546.0 598.0 l
stroke
0.0 0.0 0.0 setrgbcolor
newpath
544.0 596.0 m
529.0 582.0 l
stroke
0.0 0.0 0.0 setrgbcolor
newpath
573.0 637.0 m
570.0 640.0 l
stroke
0.0 0.0 0.0 setrgbcolor
newpath
569.0 637.0 m
548.0 600.0 l
stroke
0.0 0.0 0.0 setrgbcolor
newpath
643.0 688.0 m
646.0 691.0 l
stroke
0.0 0.0 0.0 setrgbcolor
newpath
644.0 687.0 m
647.0 690.0 l
stroke
0.0 0.0 0.0 setrgbcolor
newpath
644.0 692.0 m
648.0 688.0 l
stroke
0.0 0.0 0.0 setrgbcolor
newpath
645.0 684.0 m
648.0 687.0 l
stroke
0.0 0.0 0.0 setrgbcolor
newpath
647.0 689.0 m
647.0 687.0 l
stroke
0.0 0.0 0.0 setrgbcolor
newpath
648.0 679.0 m
651.0 682.0 l
stroke
0.0 0.0 0.0 setrgbcolor
newpath
649.0 684.0 m
649.0 684.0 l
stroke
0.0 0.0 0.0 setrgbcolor
newpath
688.0 686.0 m
691.0 689.0 l
stroke
0.0 0.0 0.0 setrgbcolor
newpath
688.0 688.0 m
653.0 682.0 l
stroke
0.0 0.0 0.0 setrgbcolor
newpath
587.0 534.0 m
577.0 552.0 l
stroke
0.0 0.0 0.0 setrgbcolor
newpath
571.0 540.0 m
561.0 558.0 l
stroke
0.0 0.0 0.0 setrgbcolor
newpath
575.0 536.0 m
586.0 533.0 l
stroke
0.0 0.0 0.0 setrgbcolor
newpath
569.0 534.0 m
559.0 552.0 l
stroke
0.0 0.0 0.0 setrgbcolor
newpath
571.0 534.0 m
572.0 535.0 l
stroke
0.0 0.0 0.0 setrgbcolor
newpath
557.0 465.0 m
547.0 483.0 l
stroke
0.0 0.0 0.0 setrgbcolor
newpath
559.0 465.0 m
570.0 529.0 l
stroke
0.0 0.0 0.0 setrgbcolor
newpath
537.0 448.0 m
527.0 466.0 l
stroke
0.0 0.0 0.0 setrgbcolor
newpath
541.0 447.0 m
556.0 461.0 l
stroke
0.0 0.0 0.0 setrgbcolor
newpath
532.0 442.0 m
521.0 460.0 l
stroke
0.0 0.0 0.0 setrgbcolor
newpath
535.0 442.0 m
537.0 443.0 l
stroke
0.0 0.0 0.0 setrgbcolor
newpath
514.0 469.0 m
513.0 467.0 l
stroke
0.0 0.0 0.0 setrgbcolor
newpath
515.0 573.0 m
522.0 570.0 l
stroke
0.0 0.0 0.0 setrgbcolor
newpath
510.0 573.0 m
447.0 573.0 l
stroke
0.0 0.0 0.0 setrgbcolor
newpath
520.0 579.0 m
527.0 576.0 l
stroke
0.0 0.0 0.0 setrgbcolor
newpath
516.0 577.0 m
514.0 576.0 l
stroke
0.0 0.0 0.0 setrgbcolor
newpath
518.0 582.0 m
526.0 580.0 l
stroke
0.0 0.0 0.0 setrgbcolor
newpath
517.0 581.0 m
516.0 582.0 l
stroke
0.0 0.0 0.0 setrgbcolor
newpath
516.0 584.0 m
524.0 582.0 l
stroke
0.0 0.0 0.0 setrgbcolor
newpath
516.0 583.0 m
513.0 586.0 l
stroke
0.0 0.0 0.0 setrgbcolor
newpath
536.0 601.0 m
544.0 599.0 l
stroke
0.0 0.0 0.0 setrgbcolor
newpath
531.0 601.0 m
516.0 587.0 l
stroke
0.0 0.0 0.0 setrgbcolor
newpath
507.0 650.0 m
532.0 605.0 l
stroke
0.0 0.0 0.0 setrgbcolor
newpath
519.0 645.0 m
545.0 600.0 l
stroke
0.0 0.0 0.0 setrgbcolor
newpath
515.0 649.0 m
508.0 651.0 l
stroke
0.0 0.0 0.0 setrgbcolor
newpath
544.0 687.0 m
569.0 642.0 l
stroke
0.0 0.0 0.0 setrgbcolor
newpath
541.0 687.0 m
519.0 650.0 l
stroke
0.0 0.0 0.0 setrgbcolor
newpath
543.0 695.0 m
543.0 692.0 l
stroke
0.0 0.0 0.0 setrgbcolor
newpath
543.0 700.0 m
537.0 736.0 l
stroke
0.0 0.0 0.0 setrgbcolor
newpath
572.0 645.0 m
571.0 642.0 l
stroke
0.0 0.0 0.0 setrgbcolor
newpath
571.0 650.0 m
545.0 695.0 l
stroke
0.0 0.0 0.0 setrgbcolor
newpath
574.0 642.0 m
573.0 640.0 l
stroke
0.0 0.0 0.0 setrgbcolor
newpath
573.0 647.0 m
574.0 645.0 l
stroke
0.0 0.0 0.0 setrgbcolor
newpath
607.0 661.0 m
606.0 659.0 l
stroke
0.0 0.0 0.0 setrgbcolor
newpath
605.0 662.0 m
577.0 646.0 l
stroke
0.0 0.0 0.0 setrgbcolor
newpath
645.0 693.0 m
644.0 691.0 l
stroke
0.0 0.0 0.0 setrgbcolor
newpath
643.0 694.0 m
610.0 665.0 l
stroke
0.0 0.0 0.0 setrgbcolor
newpath
647.0 696.0 m
646.0 693.0 l
stroke
0.0 0.0 0.0 setrgbcolor
newpath
646.0 696.0 m
647.0 698.0 l
stroke
0.0 0.0 0.0 setrgbcolor
newpath
647.0 695.0 m
647.0 692.0 l
stroke
0.0 0.0 0.0 setrgbcolor
newpath
648.0 700.0 m
648.0 695.0 l
stroke
0.0 0.0 0.0 setrgbcolor
newpath
660.0 720.0 m
649.0 701.0 l
stroke
0.0 0.0 0.0 setrgbcolor
newpath
661.0 720.0 m
649.0 700.0 l
stroke
0.0 0.0 0.0 setrgbcolor
newpath
660.0 722.0 m
665.0 722.0 l
stroke
0.0 0.0 0.0 setrgbcolor
newpath
659.0 712.0 m
648.0 692.0 l
stroke
0.0 0.0 0.0 setrgbcolor
newpath
661.0 717.0 m
662.0 720.0 l
stroke
0.0 0.0 0.0 setrgbcolor
newpath
661.0 709.0 m
649.0 689.0 l
stroke
0.0 0.0 0.0 setrgbcolor
newpath
661.0 714.0 m
662.0 712.0 l
stroke
0.0 0.0 0.0 setrgbcolor
newpath
664.0 704.0 m
652.0 684.0 l
stroke
0.0 0.0 0.0 setrgbcolor
newpath
664.0 709.0 m
664.0 709.0 l
stroke
0.0 0.0 0.0 setrgbcolor
newpath
639.0 580.0 m
622.0 589.0 l
stroke
0.0 0.0 0.0 setrgbcolor
newpath
644.0 577.0 m
683.0 563.0 l
stroke
0.0 0.0 0.0 setrgbcolor
newpath
627.0 581.0 m
611.0 591.0 l
stroke
0.0 0.0 0.0 setrgbcolor
newpath
632.0 579.0 m
639.0 579.0 l
stroke
0.0 0.0 0.0 setrgbcolor
newpath
594.0 562.0 m
578.0 572.0 l
stroke
0.0 0.0 0.0 setrgbcolor
newpath
599.0 562.0 m
627.0 578.0 l
stroke
0.0 0.0 0.0 setrgbcolor
newpath
594.0 543.0 m
578.0 553.0 l
stroke
0.0 0.0 0.0 setrgbcolor
newpath
597.0 544.0 m
597.0 557.0 l
stroke
0.0 0.0 0.0 setrgbcolor
newpath
608.0 521.0 m
591.0 530.0 l
stroke
0.0 0.0 0.0 setrgbcolor
newpath
609.0 522.0 m
598.0 539.0 l
stroke
0.0 0.0 0.0 setrgbcolor
newpath
613.0 518.0 m
660.0 476.0 l
stroke
0.0 0.0 0.0 setrgbcolor
newpath
563.0 449.0 m
560.0 460.0 l
stroke
0.0 0.0 0.0 setrgbcolor
newpath
566.0 444.0 m
591.0 400.0 l
stroke
0.0 0.0 0.0 setrgbcolor
newpath
543.0 432.0 m
540.0 443.0 l
stroke
0.0 0.0 0.0 setrgbcolor
newpath
547.0 431.0 m
562.0 445.0 l
stroke
0.0 0.0 0.0 setrgbcolor
newpath
538.0 426.0 m
535.0 437.0 l
stroke
0.0 0.0 0.0 setrgbcolor
newpath
541.0 426.0 m
543.0 427.0 l
stroke
0.0 0.0 0.0 setrgbcolor
newpath
540.0 386.0 m
540.0 420.0 l
stroke
0.0 0.0 0.0 setrgbcolor
newpath
534.0 403.0 m
534.0 436.0 l
stroke
0.0 0.0 0.0 setrgbcolor
newpath
534.0 398.0 m
539.0 386.0 l
stroke
0.0 0.0 0.0 setrgbcolor
newpath
520.0 426.0 m
520.0 459.0 l
stroke
0.0 0.0 0.0 setrgbcolor
newpath
521.0 421.0 m
532.0 403.0 l
stroke
0.0 0.0 0.0 setrgbcolor
newpath
515.0 433.0 m
515.0 466.0 l
stroke
0.0 0.0 0.0 setrgbcolor
newpath
516.0 428.0 m
518.0 426.0 l
stroke
0.0 0.0 0.0 setrgbcolor
newpath
513.0 430.0 m
513.0 463.0 l
stroke
0.0 0.0 0.0 setrgbcolor
newpath
514.0 430.0 m
513.0 428.0 l
stroke
0.0 0.0 0.0 setrgbcolor
newpath
489.0 363.0 m
511.0 425.0 l
stroke
0.0 0.0 0.0 setrgbcolor
newpath
489.0 402.0 m
511.0 464.0 l
stroke
0.0 0.0 0.0 setrgbcolor
newpath
488.0 396.0 m
488.0 363.0 l
stroke
0.0 0.0 0.0 setrgbcolor
newpath
430.0 332.0 m
486.0 397.0 l
stroke
0.0 0.0 0.0 setrgbcolor
newpath
427.0 327.0 m
414.0 303.0 l
stroke
0.0 0.0 0.0 setrgbcolor
newpath
455.0 398.0 m
511.0 464.0 l
stroke
0.0 0.0 0.0 setrgbcolor
newpath
452.0 393.0 m
430.0 332.0 l
stroke
0.0 0.0 0.0 setrgbcolor
newpath
451.0 394.0 m
454.0 396.0 l
stroke
0.0 0.0 0.0 setrgbcolor
newpath
507.0 590.0 m
511.0 587.0 l
stroke
0.0 0.0 0.0 setrgbcolor
newpath
502.0 593.0 m
392.0 631.0 l
stroke
0.0 0.0 0.0 setrgbcolor
newpath
527.0 606.0 m
531.0 604.0 l
stroke
0.0 0.0 0.0 setrgbcolor
newpath
522.0 606.0 m
507.0 593.0 l
stroke
0.0 0.0 0.0 setrgbcolor
newpath
498.0 656.0 m
503.0 654.0 l
stroke
0.0 0.0 0.0 setrgbcolor
newpath
497.0 655.0 m
523.0 610.0 l
stroke
0.0 0.0 0.0 setrgbcolor
newpath
363.0 815.0 m
494.0 660.0 l
stroke
0.0 0.0 0.0 setrgbcolor
newpath
359.0 819.0 m
302.0 868.0 l
stroke
0.0 0.0 0.0 setrgbcolor
newpath
372.0 810.0 m
504.0 655.0 l
stroke
0.0 0.0 0.0 setrgbcolor
newpath
368.0 814.0 m
364.0 816.0 l
stroke
0.0 0.0 0.0 setrgbcolor
newpath
385.0 805.0 m
516.0 650.0 l
stroke
0.0 0.0 0.0 setrgbcolor
newpath
381.0 809.0 m
373.0 811.0 l
stroke
0.0 0.0 0.0 setrgbcolor
newpath
409.0 847.0 m
541.0 692.0 l
stroke
0.0 0.0 0.0 setrgbcolor
newpath
406.0 847.0 m
385.0 810.0 l
stroke
0.0 0.0 0.0 setrgbcolor
newpath
406.0 852.0 m
380.0 898.0 l
stroke
0.0 0.0 0.0 setrgbcolor
newpath
664.0 729.0 m
662.0 725.0 l
stroke
0.0 0.0 0.0 setrgbcolor
newpath
665.0 734.0 m
673.0 780.0 l
stroke
0.0 0.0 0.0 setrgbcolor
newpath
665.0 729.0 m
663.0 725.0 l
stroke
0.0 0.0 0.0 setrgbcolor
newpath
663.0 731.0 m
668.0 731.0 l
stroke
0.0 0.0 0.0 setrgbcolor
newpath
674.0 741.0 m
667.0 734.0 l
stroke
0.0 0.0 0.0 setrgbcolor
newpath
677.0 746.0 m
691.0 769.0 l
stroke
0.0 0.0 0.0 setrgbcolor
newpath
671.0 732.0 m
664.0 725.0 l
stroke
0.0 0.0 0.0 setrgbcolor
newpath
673.0 737.0 m
675.0 741.0 l
stroke
0.0 0.0 0.0 setrgbcolor
newpath
669.0 724.0 m
663.0 717.0 l
stroke
0.0 0.0 0.0 setrgbcolor
newpath
672.0 729.0 m
672.0 732.0 l
stroke
0.0 0.0 0.0 setrgbcolor
newpath
671.0 721.0 m
664.0 714.0 l
stroke
0.0 0.0 0.0 setrgbcolor
newpath
672.0 726.0 m
672.0 724.0 l
stroke
0.0 0.0 0.0 setrgbcolor
newpath
674.0 716.0 m
667.0 709.0 l
stroke
0.0 0.0 0.0 setrgbcolor
newpath
674.0 721.0 m
674.0 721.0 l
stroke
0.0 0.0 0.0 setrgbcolor
newpath
727.0 748.0 m
678.0 720.0 l
stroke
0.0 0.0 0.0 setrgbcolor
newpath
732.0 751.0 m
765.0 780.0 l
stroke
0.0 0.0 0.0 setrgbcolor
newpath
717.0 736.0 m
668.0 708.0 l
stroke
0.0 0.0 0.0 setrgbcolor
newpath
721.0 740.0 m
728.0 747.0 l
stroke
0.0 0.0 0.0 setrgbcolor
newpath
702.0 711.0 m
653.0 683.0 l
stroke
0.0 0.0 0.0 setrgbcolor
newpath
706.0 715.0 m
718.0 735.0 l
stroke
0.0 0.0 0.0 setrgbcolor
newpath
742.0 718.0 m
693.0 690.0 l
stroke
0.0 0.0 0.0 setrgbcolor
newpath
742.0 719.0 m
707.0 713.0 l
stroke
0.0 0.0 0.0 setrgbcolor
newpath
747.0 721.0 m
791.0 736.0 l
stroke
0.0 0.0 0.0 setrgbcolor
newpath
717.0 678.0 m
717.0 677.4477 716.5523 677.0 716.0 677.0 c
715.4477 677.0 715.0 677.4477 715.0 678.0 c
715.0 678.5523 715.4477 679.0 716.0 679.0 c
716.5523 679.0 717.0 678.5523 717.0 678.0 c
closepath
fill
0.0 0.0 0.0 setrgbcolor
newpath
717.0 678.0 m
717.0 677.4477 716.5523 677.0 716.0 677.0 c
715.4477 677.0 715.0 677.4477 715.0 678.0 c
715.0 678.5523 715.4477 679.0 716.0 679.0 c
716.5523 679.0 717.0 678.5523 717.0 678.0 c
closepath
stroke
0.0 0.0 0.0 setrgbcolor
newpath
782.0 678.0 m
782.0 677.4477 781.5523 677.0 781.0 677.0 c
780.4477 677.0 780.0 677.4477 780.0 678.0 c
780.0 678.5523 780.4477 679.0 781.0 679.0 c
781.5523 679.0 782.0 678.5523 782.0 678.0 c
closepath
fill
0.0 0.0 0.0 setrgbcolor
newpath
782.0 678.0 m
782.0 677.4477 781.5523 677.0 781.0 677.0 c
780.4477 677.0 780.0 677.4477 780.0 678.0 c
780.0 678.5523 780.4477 679.0 781.0 679.0 c
781.5523 679.0 782.0 678.5523 782.0 678.0 c
closepath
stroke
0.0 0.0 0.0 setrgbcolor
newpath
687.0 561.0 m
687.0 560.4477 686.5523 560.0 686.0 560.0 c
685.4477 560.0 685.0 560.4477 685.0 561.0 c
685.0 561.5523 685.4477 562.0 686.0 562.0 c
686.5523 562.0 687.0 561.5523 687.0 561.0 c
closepath
fill
0.0 0.0 0.0 setrgbcolor
newpath
687.0 561.0 m
687.0 560.4477 686.5523 560.0 686.0 560.0 c
685.4477 560.0 685.0 560.4477 685.0 561.0 c
685.0 561.5523 685.4477 562.0 686.0 562.0 c
686.5523 562.0 687.0 561.5523 687.0 561.0 c
closepath
stroke
0.0 0.0 0.0 setrgbcolor
newpath
664.0 474.0 m
664.0 473.4477 663.5523 473.0 663.0 473.0 c
662.4477 473.0 662.0 473.4477 662.0 474.0 c
662.0 474.5523 662.4477 475.0 663.0 475.0 c
663.5523 475.0 664.0 474.5523 664.0 474.0 c
closepath
fill
0.0 0.0 0.0 setrgbcolor
newpath
664.0 474.0 m
664.0 473.4477 663.5523 473.0 663.0 473.0 c
662.4477 473.0 662.0 473.4477 662.0 474.0 c
662.0 474.5523 662.4477 475.0 663.0 475.0 c
663.5523 475.0 664.0 474.5523 664.0 474.0 c
closepath
stroke
0.0 0.0 0.0 setrgbcolor
newpath
594.0 397.0 m
594.0 396.4477 593.5523 396.0 593.0 396.0 c
592.4477 396.0 592.0 396.4477 592.0 397.0 c
592.0 397.5523 592.4477 398.0 593.0 398.0 c
593.5523 398.0 594.0 397.5523 594.0 397.0 c
closepath
fill
0.0 0.0 0.0 setrgbcolor
newpath
594.0 397.0 m
594.0 396.4477 593.5523 396.0 593.0 396.0 c
592.4477 396.0 592.0 396.4477 592.0 397.0 c
592.0 397.5523 592.4477 398.0 593.0 398.0 c
593.5523 398.0 594.0 397.5523 594.0 397.0 c
closepath
stroke
0.0 0.0 0.0 setrgbcolor
newpath
414.0 300.0 m
414.0 299.4477 413.55228 299.0 413.0 299.0 c
412.44772 299.0 412.0 299.4477 412.0 300.0 c
412.0 300.5523 412.44772 301.0 413.0 301.0 c
413.55228 301.0 414.0 300.5523 414.0 300.0 c
closepath
fill
0.0 0.0 0.0 setrgbcolor
newpath
414.0 300.0 m
414.0 299.4477 413.55228 299.0 413.0 299.0 c
412.44772 299.0 412.0 299.4477 412.0 300.0 c
412.0 300.5523 412.44772 301.0 413.0 301.0 c
413.55228 301.0 414.0 300.5523 414.0 300.0 c
closepath
stroke
0.0 0.0 0.0 setrgbcolor
newpath
453.0 394.0 m
453.0 393.4477 452.55228 393.0 452.0 393.0 c
451.44772 393.0 451.0 393.4477 451.0 394.0 c
451.0 394.5523 451.44772 395.0 452.0 395.0 c
452.55228 395.0 453.0 394.5523 453.0 394.0 c
closepath
fill
0.0 0.0 0.0 setrgbcolor
newpath
453.0 394.0 m
453.0 393.4477 452.55228 393.0 452.0 393.0 c
451.44772 393.0 451.0 393.4477 451.0 394.0 c
451.0 394.5523 451.44772 395.0 452.0 395.0 c
452.55228 395.0 453.0 394.5523 453.0 394.0 c
closepath
stroke
0.0 0.0 0.0 setrgbcolor
newpath
428.0 520.0 m
428.0 519.4477 427.55228 519.0 427.0 519.0 c
426.44772 519.0 426.0 519.4477 426.0 520.0 c
426.0 520.5523 426.44772 521.0 427.0 521.0 c
427.55228 521.0 428.0 520.5523 428.0 520.0 c
closepath
fill
0.0 0.0 0.0 setrgbcolor
newpath
428.0 520.0 m
428.0 519.4477 427.55228 519.0 427.0 519.0 c
426.44772 519.0 426.0 519.4477 426.0 520.0 c
426.0 520.5523 426.44772 521.0 427.0 521.0 c
427.55228 521.0 428.0 520.5523 428.0 520.0 c
closepath
stroke
0.0 0.0 0.0 setrgbcolor
newpath
445.0 573.0 m
445.0 572.4477 444.55228 572.0 444.0 572.0 c
443.44772 572.0 443.0 572.4477 443.0 573.0 c
443.0 573.5523 443.44772 574.0 444.0 574.0 c
444.55228 574.0 445.0 573.5523 445.0 573.0 c
closepath
fill
0.0 0.0 0.0 setrgbcolor
newpath
445.0 573.0 m
445.0 572.4477 444.55228 572.0 444.0 572.0 c
443.44772 572.0 443.0 572.4477 443.0 573.0 c
443.0 573.5523 443.44772 574.0 444.0 574.0 c
444.55228 574.0 445.0 573.5523 445.0 573.0 c
closepath
stroke
0.0 0.0 0.0 setrgbcolor
newpath
391.0 632.0 m
391.0 631.4477 390.55228 631.0 390.0 631.0 c
389.44772 631.0 389.0 631.4477 389.0 632.0 c
389.0 632.5523 389.44772 633.0 390.0 633.0 c
390.55228 633.0 391.0 632.5523 391.0 632.0 c
closepath
fill
0.0 0.0 0.0 setrgbcolor
newpath
391.0 632.0 m
391.0 631.4477 390.55228 631.0 390.0 631.0 c
389.44772 631.0 389.0 631.4477 389.0 632.0 c
389.0 632.5523 389.44772 633.0 390.0 633.0 c
390.55228 633.0 391.0 632.5523 391.0 632.0 c
closepath
stroke
0.0 0.0 0.0 setrgbcolor
newpath
301.0 869.0 m
301.0 868.44775 300.55228 868.0 300.0 868.0 c
299.44772 868.0 299.0 868.44775 299.0 869.0 c
299.0 869.55225 299.44772 870.0 300.0 870.0 c
300.55228 870.0 301.0 869.55225 301.0 869.0 c
closepath
fill
0.0 0.0 0.0 setrgbcolor
newpath
301.0 869.0 m
301.0 868.44775 300.55228 868.0 300.0 868.0 c
299.44772 868.0 299.0 868.44775 299.0 869.0 c
299.0 869.55225 299.44772 870.0 300.0 870.0 c
300.55228 870.0 301.0 869.55225 301.0 869.0 c
closepath
stroke
0.0 0.0 0.0 setrgbcolor
newpath
380.0 900.0 m
380.0 899.44775 379.55228 899.0 379.0 899.0 c
378.44772 899.0 378.0 899.44775 378.0 900.0 c
378.0 900.55225 378.44772 901.0 379.0 901.0 c
379.55228 901.0 380.0 900.55225 380.0 900.0 c
closepath
fill
0.0 0.0 0.0 setrgbcolor
newpath
380.0 900.0 m
380.0 899.44775 379.55228 899.0 379.0 899.0 c
378.44772 899.0 378.0 899.44775 378.0 900.0 c
378.0 900.55225 378.44772 901.0 379.0 901.0 c
379.55228 901.0 380.0 900.55225 380.0 900.0 c
closepath
stroke
0.0 0.0 0.0 setrgbcolor
newpath
538.0 738.0 m
538.0 737.44775 537.5523 737.0 537.0 737.0 c
536.4477 737.0 536.0 737.44775 536.0 738.0 c
536.0 738.55225 536.4477 739.0 537.0 739.0 c
537.5523 739.0 538.0 738.55225 538.0 738.0 c
closepath
fill
0.0 0.0 0.0 setrgbcolor
newpath
538.0 738.0 m
538.0 737.44775 537.5523 737.0 537.0 737.0 c
536.4477 737.0 536.0 737.44775 536.0 738.0 c
536.0 738.55225 536.4477 739.0 537.0 739.0 c
537.5523 739.0 538.0 738.55225 538.0 738.0 c
closepath
stroke
0.0 0.0 0.0 setrgbcolor
newpath
675.0 782.0 m
675.0 781.44775 674.5523 781.0 674.0 781.0 c
673.4477 781.0 673.0 781.44775 673.0 782.0 c
673.0 782.55225 673.4477 783.0 674.0 783.0 c
674.5523 783.0 675.0 782.55225 675.0 782.0 c
closepath
fill
0.0 0.0 0.0 setrgbcolor
newpath
675.0 782.0 m
675.0 781.44775 674.5523 781.0 674.0 781.0 c
673.4477 781.0 673.0 781.44775 673.0 782.0 c
673.0 782.55225 673.4477 783.0 674.0 783.0 c
674.5523 783.0 675.0 782.55225 675.0 782.0 c
closepath
stroke
0.0 0.0 0.0 setrgbcolor
newpath
694.0 771.0 m
694.0 770.44775 693.5523 770.0 693.0 770.0 c
692.4477 770.0 692.0 770.44775 692.0 771.0 c
692.0 771.55225 692.4477 772.0 693.0 772.0 c
693.5523 772.0 694.0 771.55225 694.0 771.0 c
closepath
fill
0.0 0.0 0.0 setrgbcolor
newpath
694.0 771.0 m
694.0 770.44775 693.5523 770.0 693.0 770.0 c
692.4477 770.0 692.0 770.44775 692.0 771.0 c
692.0 771.55225 692.4477 772.0 693.0 772.0 c
693.5523 772.0 694.0 771.55225 694.0 771.0 c
closepath
stroke
0.0 0.0 0.0 setrgbcolor
newpath
769.0 781.0 m
769.0 780.44775 768.5523 780.0 768.0 780.0 c
767.4477 780.0 767.0 780.44775 767.0 781.0 c
767.0 781.55225 767.4477 782.0 768.0 782.0 c
768.5523 782.0 769.0 781.55225 769.0 781.0 c
closepath
fill
0.0 0.0 0.0 setrgbcolor
newpath
769.0 781.0 m
769.0 780.44775 768.5523 780.0 768.0 780.0 c
767.4477 780.0 767.0 780.44775 767.0 781.0 c
767.0 781.55225 767.4477 782.0 768.0 782.0 c
768.5523 782.0 769.0 781.55225 769.0 781.0 c
closepath
stroke
0.0 0.0 0.0 setrgbcolor
newpath
795.0 737.0 m
795.0 736.44775 794.5523 736.0 794.0 736.0 c
793.4477 736.0 793.0 736.44775 793.0 737.0 c
793.0 737.55225 793.4477 738.0 794.0 738.0 c
794.5523 738.0 795.0 737.55225 795.0 737.0 c
closepath
fill
0.0 0.0 0.0 setrgbcolor
newpath
795.0 737.0 m
795.0 736.44775 794.5523 736.0 794.0 736.0 c
793.4477 736.0 793.0 736.44775 793.0 737.0 c
793.0 737.55225 793.4477 738.0 794.0 738.0 c
794.5523 738.0 795.0 737.55225 795.0 737.0 c
closepath
stroke
0.0 0.0 0.0 setrgbcolor
newpath
678.0 671.0 m
678.0 670.4477 677.5523 670.0 677.0 670.0 c
676.4477 670.0 676.0 670.4477 676.0 671.0 c
676.0 671.5523 676.4477 672.0 677.0 672.0 c
677.5523 672.0 678.0 671.5523 678.0 671.0 c
closepath
fill
0.0 0.0 0.0 setrgbcolor
newpath
678.0 671.0 m
678.0 670.4477 677.5523 670.0 677.0 670.0 c
676.4477 670.0 676.0 670.4477 676.0 671.0 c
676.0 671.5523 676.4477 672.0 677.0 672.0 c
677.5523 672.0 678.0 671.5523 678.0 671.0 c
closepath
stroke
0.0 0.0 0.0 setrgbcolor
newpath
667.0 673.0 m
667.0 672.4477 666.5523 672.0 666.0 672.0 c
665.4477 672.0 665.0 672.4477 665.0 673.0 c
665.0 673.5523 665.4477 674.0 666.0 674.0 c
666.5523 674.0 667.0 673.5523 667.0 673.0 c
closepath
fill
0.0 0.0 0.0 setrgbcolor
newpath
667.0 673.0 m
667.0 672.4477 666.5523 672.0 666.0 672.0 c
665.4477 672.0 665.0 672.4477 665.0 673.0 c
665.0 673.5523 665.4477 674.0 666.0 674.0 c
666.5523 674.0 667.0 673.5523 667.0 673.0 c
closepath
stroke
0.0 0.0 0.0 setrgbcolor
newpath
706.0 680.0 m
706.0 679.4477 705.5523 679.0 705.0 679.0 c
704.4477 679.0 704.0 679.4477 704.0 680.0 c
704.0 680.5523 704.4477 681.0 705.0 681.0 c
705.5523 681.0 706.0 680.5523 706.0 680.0 c
closepath
fill
0.0 0.0 0.0 setrgbcolor
newpath
706.0 680.0 m
706.0 679.4477 705.5523 679.0 705.0 679.0 c
704.4477 679.0 704.0 679.4477 704.0 680.0 c
704.0 680.5523 704.4477 681.0 705.0 681.0 c
705.5523 681.0 706.0 680.5523 706.0 680.0 c
closepath
stroke
0.0 0.0 0.0 setrgbcolor
newpath
650.0 679.0 m
650.0 678.4477 649.5523 678.0 649.0 678.0 c
648.4477 678.0 648.0 678.4477 648.0 679.0 c
648.0 679.5523 648.4477 680.0 649.0 680.0 c
649.5523 680.0 650.0 679.5523 650.0 679.0 c
closepath
fill
0.0 0.0 0.0 setrgbcolor
newpath
650.0 679.0 m
650.0 678.4477 649.5523 678.0 649.0 678.0 c
648.4477 678.0 648.0 678.4477 648.0 679.0 c
648.0 679.5523 648.4477 680.0 649.0 680.0 c
649.5523 680.0 650.0 679.5523 650.0 679.0 c
closepath
stroke
0.0 0.0 0.0 setrgbcolor
newpath
690.0 686.0 m
690.0 685.4477 689.5523 685.0 689.0 685.0 c
688.4477 685.0 688.0 685.4477 688.0 686.0 c
688.0 686.5523 688.4477 687.0 689.0 687.0 c
689.5523 687.0 690.0 686.5523 690.0 686.0 c
closepath
fill
0.0 0.0 0.0 setrgbcolor
newpath
690.0 686.0 m
690.0 685.4477 689.5523 685.0 689.0 685.0 c
688.4477 685.0 688.0 685.4477 688.0 686.0 c
688.0 686.5523 688.4477 687.0 689.0 687.0 c
689.5523 687.0 690.0 686.5523 690.0 686.0 c
closepath
stroke
0.0 0.0 0.0 setrgbcolor
newpath
640.0 639.0 m
640.0 638.4477 639.5523 638.0 639.0 638.0 c
638.4477 638.0 638.0 638.4477 638.0 639.0 c
638.0 639.5523 638.4477 640.0 639.0 640.0 c
639.5523 640.0 640.0 639.5523 640.0 639.0 c
closepath
fill
0.0 0.0 0.0 setrgbcolor
newpath
640.0 639.0 m
640.0 638.4477 639.5523 638.0 639.0 638.0 c
638.4477 638.0 638.0 638.4477 638.0 639.0 c
638.0 639.5523 638.4477 640.0 639.0 640.0 c
639.5523 640.0 640.0 639.5523 640.0 639.0 c
closepath
stroke
0.0 0.0 0.0 setrgbcolor
newpath
629.0 641.0 m
629.0 640.4477 628.5523 640.0 628.0 640.0 c
627.4477 640.0 627.0 640.4477 627.0 641.0 c
627.0 641.5523 627.4477 642.0 628.0 642.0 c
628.5523 642.0 629.0 641.5523 629.0 641.0 c
closepath
fill
0.0 0.0 0.0 setrgbcolor
newpath
629.0 641.0 m
629.0 640.4477 628.5523 640.0 628.0 640.0 c
627.4477 640.0 627.0 640.4477 627.0 641.0 c
627.0 641.5523 627.4477 642.0 628.0 642.0 c
628.5523 642.0 629.0 641.5523 629.0 641.0 c
closepath
stroke
0.0 0.0 0.0 setrgbcolor
newpath
612.0 647.0 m
612.0 646.4477 611.5523 646.0 611.0 646.0 c
610.4477 646.0 610.0 646.4477 610.0 647.0 c
610.0 647.5523 610.4477 648.0 611.0 648.0 c
611.5523 648.0 612.0 647.5523 612.0 647.0 c
closepath
fill
0.0 0.0 0.0 setrgbcolor
newpath
612.0 647.0 m
612.0 646.4477 611.5523 646.0 611.0 646.0 c
610.4477 646.0 610.0 646.4477 610.0 647.0 c
610.0 647.5523 610.4477 648.0 611.0 648.0 c
611.5523 648.0 612.0 647.5523 612.0 647.0 c
closepath
stroke
0.0 0.0 0.0 setrgbcolor
newpath
596.0 622.0 m
596.0 621.4477 595.5523 621.0 595.0 621.0 c
594.4477 621.0 594.0 621.4477 594.0 622.0 c
594.0 622.5523 594.4477 623.0 595.0 623.0 c
595.5523 623.0 596.0 622.5523 596.0 622.0 c
closepath
fill
0.0 0.0 0.0 setrgbcolor
newpath
596.0 622.0 m
596.0 621.4477 595.5523 621.0 595.0 621.0 c
594.4477 621.0 594.0 621.4477 594.0 622.0 c
594.0 622.5523 594.4477 623.0 595.0 623.0 c
595.5523 623.0 596.0 622.5523 596.0 622.0 c
closepath
stroke
0.0 0.0 0.0 setrgbcolor
newpath
579.0 628.0 m
579.0 627.4477 578.5523 627.0 578.0 627.0 c
577.4477 627.0 577.0 627.4477 577.0 628.0 c
577.0 628.5523 577.4477 629.0 578.0 629.0 c
578.5523 629.0 579.0 628.5523 579.0 628.0 c
closepath
fill
0.0 0.0 0.0 setrgbcolor
newpath
579.0 628.0 m
579.0 627.4477 578.5523 627.0 578.0 627.0 c
577.4477 627.0 577.0 627.4477 577.0 628.0 c
577.0 628.5523 577.4477 629.0 578.0 629.0 c
578.5523 629.0 579.0 628.5523 579.0 628.0 c
closepath
stroke
0.0 0.0 0.0 setrgbcolor
newpath
616.0 597.0 m
616.0 596.4477 615.5523 596.0 615.0 596.0 c
614.4477 596.0 614.0 596.4477 614.0 597.0 c
614.0 597.5523 614.4477 598.0 615.0 598.0 c
615.5523 598.0 616.0 597.5523 616.0 597.0 c
closepath
fill
0.0 0.0 0.0 setrgbcolor
newpath
616.0 597.0 m
616.0 596.4477 615.5523 596.0 615.0 596.0 c
614.4477 596.0 614.0 596.4477 614.0 597.0 c
614.0 597.5523 614.4477 598.0 615.0 598.0 c
615.5523 598.0 616.0 597.5523 616.0 597.0 c
closepath
stroke
0.0 0.0 0.0 setrgbcolor
newpath
604.0 599.0 m
604.0 598.4477 603.5523 598.0 603.0 598.0 c
602.4477 598.0 602.0 598.4477 602.0 599.0 c
602.0 599.5523 602.4477 600.0 603.0 600.0 c
603.5523 600.0 604.0 599.5523 604.0 599.0 c
closepath
fill
0.0 0.0 0.0 setrgbcolor
newpath
604.0 599.0 m
604.0 598.4477 603.5523 598.0 603.0 598.0 c
602.4477 598.0 602.0 598.4477 602.0 599.0 c
602.0 599.5523 602.4477 600.0 603.0 600.0 c
603.5523 600.0 604.0 599.5523 604.0 599.0 c
closepath
stroke
0.0 0.0 0.0 setrgbcolor
newpath
571.0 580.0 m
571.0 579.4477 570.5523 579.0 570.0 579.0 c
569.4477 579.0 569.0 579.4477 569.0 580.0 c
569.0 580.5523 569.4477 581.0 570.0 581.0 c
570.5523 581.0 571.0 580.5523 571.0 580.0 c
closepath
fill
0.0 0.0 0.0 setrgbcolor
newpath
571.0 580.0 m
571.0 579.4477 570.5523 579.0 570.0 579.0 c
569.4477 579.0 569.0 579.4477 569.0 580.0 c
569.0 580.5523 569.4477 581.0 570.0 581.0 c
570.5523 581.0 571.0 580.5523 571.0 580.0 c
closepath
stroke
0.0 0.0 0.0 setrgbcolor
newpath
555.0 586.0 m
555.0 585.4477 554.5523 585.0 554.0 585.0 c
553.4477 585.0 553.0 585.4477 553.0 586.0 c
553.0 586.5523 553.4477 587.0 554.0 587.0 c
554.5523 587.0 555.0 586.5523 555.0 586.0 c
closepath
fill
0.0 0.0 0.0 setrgbcolor
newpath
555.0 586.0 m
555.0 585.4477 554.5523 585.0 554.0 585.0 c
553.4477 585.0 553.0 585.4477 553.0 586.0 c
553.0 586.5523 553.4477 587.0 554.0 587.0 c
554.5523 587.0 555.0 586.5523 555.0 586.0 c
closepath
stroke
0.0 0.0 0.0 setrgbcolor
newpath
535.0 569.0 m
535.0 568.4477 534.5523 568.0 534.0 568.0 c
533.4477 568.0 533.0 568.4477 533.0 569.0 c
533.0 569.5523 533.4477 570.0 534.0 570.0 c
534.5523 570.0 535.0 569.5523 535.0 569.0 c
closepath
fill
0.0 0.0 0.0 setrgbcolor
newpath
535.0 569.0 m
535.0 568.4477 534.5523 568.0 534.0 568.0 c
533.4477 568.0 533.0 568.4477 533.0 569.0 c
533.0 569.5523 533.4477 570.0 534.0 570.0 c
534.5523 570.0 535.0 569.5523 535.0 569.0 c
closepath
stroke
0.0 0.0 0.0 setrgbcolor
newpath
532.0 574.0 m
532.0 573.4477 531.5523 573.0 531.0 573.0 c
530.4477 573.0 530.0 573.4477 530.0 574.0 c
530.0 574.5523 530.4477 575.0 531.0 575.0 c
531.5523 575.0 532.0 574.5523 532.0 574.0 c
closepath
fill
0.0 0.0 0.0 setrgbcolor
newpath
532.0 574.0 m
532.0 573.4477 531.5523 573.0 531.0 573.0 c
530.4477 573.0 530.0 573.4477 530.0 574.0 c
530.0 574.5523 530.4477 575.0 531.0 575.0 c
531.5523 575.0 532.0 574.5523 532.0 574.0 c
closepath
stroke
0.0 0.0 0.0 setrgbcolor
newpath
552.0 591.0 m
552.0 590.4477 551.5523 590.0 551.0 590.0 c
550.4477 590.0 550.0 590.4477 550.0 591.0 c
550.0 591.5523 550.4477 592.0 551.0 592.0 c
551.5523 592.0 552.0 591.5523 552.0 591.0 c
closepath
fill
0.0 0.0 0.0 setrgbcolor
newpath
552.0 591.0 m
552.0 590.4477 551.5523 590.0 551.0 590.0 c
550.4477 590.0 550.0 590.4477 550.0 591.0 c
550.0 591.5523 550.4477 592.0 551.0 592.0 c
551.5523 592.0 552.0 591.5523 552.0 591.0 c
closepath
stroke
0.0 0.0 0.0 setrgbcolor
newpath
576.0 633.0 m
576.0 632.4477 575.5523 632.0 575.0 632.0 c
574.4477 632.0 574.0 632.4477 574.0 633.0 c
574.0 633.5523 574.4477 634.0 575.0 634.0 c
575.5523 634.0 576.0 633.5523 576.0 633.0 c
closepath
fill
0.0 0.0 0.0 setrgbcolor
newpath
576.0 633.0 m
576.0 632.4477 575.5523 632.0 575.0 632.0 c
574.4477 632.0 574.0 632.4477 574.0 633.0 c
574.0 633.5523 574.4477 634.0 575.0 634.0 c
575.5523 634.0 576.0 633.5523 576.0 633.0 c
closepath
stroke
0.0 0.0 0.0 setrgbcolor
newpath
609.0 652.0 m
609.0 651.4477 608.5523 651.0 608.0 651.0 c
607.4477 651.0 607.0 651.4477 607.0 652.0 c
607.0 652.5523 607.4477 653.0 608.0 653.0 c
608.5523 653.0 609.0 652.5523 609.0 652.0 c
closepath
fill
0.0 0.0 0.0 setrgbcolor
newpath
609.0 652.0 m
609.0 651.4477 608.5523 651.0 608.0 651.0 c
607.4477 651.0 607.0 651.4477 607.0 652.0 c
607.0 652.5523 607.4477 653.0 608.0 653.0 c
608.5523 653.0 609.0 652.5523 609.0 652.0 c
closepath
stroke
0.0 0.0 0.0 setrgbcolor
newpath
647.0 684.0 m
647.0 683.4477 646.5523 683.0 646.0 683.0 c
645.4477 683.0 645.0 683.4477 645.0 684.0 c
645.0 684.5523 645.4477 685.0 646.0 685.0 c
646.5523 685.0 647.0 684.5523 647.0 684.0 c
closepath
fill
0.0 0.0 0.0 setrgbcolor
newpath
647.0 684.0 m
647.0 683.4477 646.5523 683.0 646.0 683.0 c
645.4477 683.0 645.0 683.4477 645.0 684.0 c
645.0 684.5523 645.4477 685.0 646.0 685.0 c
646.5523 685.0 647.0 684.5523 647.0 684.0 c
closepath
stroke
0.0 0.0 0.0 setrgbcolor
newpath
571.0 561.0 m
571.0 560.4477 570.5523 560.0 570.0 560.0 c
569.4477 560.0 569.0 560.4477 569.0 561.0 c
569.0 561.5523 569.4477 562.0 570.0 562.0 c
570.5523 562.0 571.0 561.5523 571.0 561.0 c
closepath
fill
0.0 0.0 0.0 setrgbcolor
newpath
571.0 561.0 m
571.0 560.4477 570.5523 560.0 570.0 560.0 c
569.4477 560.0 569.0 560.4477 569.0 561.0 c
569.0 561.5523 569.4477 562.0 570.0 562.0 c
570.5523 562.0 571.0 561.5523 571.0 561.0 c
closepath
stroke
0.0 0.0 0.0 setrgbcolor
newpath
555.0 567.0 m
555.0 566.4477 554.5523 566.0 554.0 566.0 c
553.4477 566.0 553.0 566.4477 553.0 567.0 c
553.0 567.5523 553.4477 568.0 554.0 568.0 c
554.5523 568.0 555.0 567.5523 555.0 567.0 c
closepath
fill
0.0 0.0 0.0 setrgbcolor
newpath
555.0 567.0 m
555.0 566.4477 554.5523 566.0 554.0 566.0 c
553.4477 566.0 553.0 566.4477 553.0 567.0 c
553.0 567.5523 553.4477 568.0 554.0 568.0 c
554.5523 568.0 555.0 567.5523 555.0 567.0 c
closepath
stroke
0.0 0.0 0.0 setrgbcolor
newpath
535.0 550.0 m
535.0 549.4477 534.5523 549.0 534.0 549.0 c
533.4477 549.0 533.0 549.4477 533.0 550.0 c
533.0 550.5523 533.4477 551.0 534.0 551.0 c
534.5523 551.0 535.0 550.5523 535.0 550.0 c
closepath
fill
0.0 0.0 0.0 setrgbcolor
newpath
535.0 550.0 m
535.0 549.4477 534.5523 549.0 534.0 549.0 c
533.4477 549.0 533.0 549.4477 533.0 550.0 c
533.0 550.5523 533.4477 551.0 534.0 551.0 c
534.5523 551.0 535.0 550.5523 535.0 550.0 c
closepath
stroke
0.0 0.0 0.0 setrgbcolor
newpath
553.0 560.0 m
553.0 559.4477 552.5523 559.0 552.0 559.0 c
551.4477 559.0 551.0 559.4477 551.0 560.0 c
551.0 560.5523 551.4477 561.0 552.0 561.0 c
552.5523 561.0 553.0 560.5523 553.0 560.0 c
closepath
fill
0.0 0.0 0.0 setrgbcolor
newpath
553.0 560.0 m
553.0 559.4477 552.5523 559.0 552.0 559.0 c
551.4477 559.0 551.0 559.4477 551.0 560.0 c
551.0 560.5523 551.4477 561.0 552.0 561.0 c
552.5523 561.0 553.0 560.5523 553.0 560.0 c
closepath
stroke
0.0 0.0 0.0 setrgbcolor
newpath
533.0 544.0 m
533.0 543.4477 532.5523 543.0 532.0 543.0 c
531.4477 543.0 531.0 543.4477 531.0 544.0 c
531.0 544.5523 531.4477 545.0 532.0 545.0 c
532.5523 545.0 533.0 544.5523 533.0 544.0 c
closepath
fill
0.0 0.0 0.0 setrgbcolor
newpath
533.0 544.0 m
533.0 543.4477 532.5523 543.0 532.0 543.0 c
531.4477 543.0 531.0 543.4477 531.0 544.0 c
531.0 544.5523 531.4477 545.0 532.0 545.0 c
532.5523 545.0 533.0 544.5523 533.0 544.0 c
closepath
stroke
0.0 0.0 0.0 setrgbcolor
newpath
533.0 563.0 m
533.0 562.4477 532.5523 562.0 532.0 562.0 c
531.4477 562.0 531.0 562.4477 531.0 563.0 c
531.0 563.5523 531.4477 564.0 532.0 564.0 c
532.5523 564.0 533.0 563.5523 533.0 563.0 c
closepath
fill
0.0 0.0 0.0 setrgbcolor
newpath
533.0 563.0 m
533.0 562.4477 532.5523 562.0 532.0 562.0 c
531.4477 562.0 531.0 562.4477 531.0 563.0 c
531.0 563.5523 531.4477 564.0 532.0 564.0 c
532.5523 564.0 533.0 563.5523 533.0 563.0 c
closepath
stroke
0.0 0.0 0.0 setrgbcolor
newpath
528.0 538.0 m
528.0 537.4477 527.5523 537.0 527.0 537.0 c
526.4477 537.0 526.0 537.4477 526.0 538.0 c
526.0 538.5523 526.4477 539.0 527.0 539.0 c
527.5523 539.0 528.0 538.5523 528.0 538.0 c
closepath
fill
0.0 0.0 0.0 setrgbcolor
newpath
528.0 538.0 m
528.0 537.4477 527.5523 537.0 527.0 537.0 c
526.4477 537.0 526.0 537.4477 526.0 538.0 c
526.0 538.5523 526.4477 539.0 527.0 539.0 c
527.5523 539.0 528.0 538.5523 528.0 538.0 c
closepath
stroke
0.0 0.0 0.0 setrgbcolor
newpath
528.0 557.0 m
528.0 556.4477 527.5523 556.0 527.0 556.0 c
526.4477 556.0 526.0 556.4477 526.0 557.0 c
526.0 557.5523 526.4477 558.0 527.0 558.0 c
527.5523 558.0 528.0 557.5523 528.0 557.0 c
closepath
fill
0.0 0.0 0.0 setrgbcolor
newpath
528.0 557.0 m
528.0 556.4477 527.5523 556.0 527.0 556.0 c
526.4477 556.0 526.0 556.4477 526.0 557.0 c
526.0 557.5523 526.4477 558.0 527.0 558.0 c
527.5523 558.0 528.0 557.5523 528.0 557.0 c
closepath
stroke
0.0 0.0 0.0 setrgbcolor
newpath
530.0 563.0 m
530.0 562.4477 529.5523 562.0 529.0 562.0 c
528.4477 562.0 528.0 562.4477 528.0 563.0 c
528.0 563.5523 528.4477 564.0 529.0 564.0 c
529.5523 564.0 530.0 563.5523 530.0 563.0 c
closepath
fill
0.0 0.0 0.0 setrgbcolor
newpath
530.0 563.0 m
530.0 562.4477 529.5523 562.0 529.0 562.0 c
528.4477 562.0 528.0 562.4477 528.0 563.0 c
528.0 563.5523 528.4477 564.0 529.0 564.0 c
529.5523 564.0 530.0 563.5523 530.0 563.0 c
closepath
stroke
0.0 0.0 0.0 setrgbcolor
newpath
527.0 568.0 m
527.0 567.4477 526.5523 567.0 526.0 567.0 c
525.4477 567.0 525.0 567.4477 525.0 568.0 c
525.0 568.5523 525.4477 569.0 526.0 569.0 c
526.5523 569.0 527.0 568.5523 527.0 568.0 c
closepath
fill
0.0 0.0 0.0 setrgbcolor
newpath
527.0 568.0 m
527.0 567.4477 526.5523 567.0 526.0 567.0 c
525.4477 567.0 525.0 567.4477 525.0 568.0 c
525.0 568.5523 525.4477 569.0 526.0 569.0 c
526.5523 569.0 527.0 568.5523 527.0 568.0 c
closepath
stroke
0.0 0.0 0.0 setrgbcolor
newpath
526.0 569.0 m
526.0 568.4477 525.5523 568.0 525.0 568.0 c
524.4477 568.0 524.0 568.4477 524.0 569.0 c
524.0 569.5523 524.4477 570.0 525.0 570.0 c
525.5523 570.0 526.0 569.5523 526.0 569.0 c
closepath
fill
0.0 0.0 0.0 setrgbcolor
newpath
526.0 569.0 m
526.0 568.4477 525.5523 568.0 525.0 568.0 c
524.4477 568.0 524.0 568.4477 524.0 569.0 c
524.0 569.5523 524.4477 570.0 525.0 570.0 c
525.5523 570.0 526.0 569.5523 526.0 569.0 c
closepath
stroke
0.0 0.0 0.0 setrgbcolor
newpath
531.0 575.0 m
531.0 574.4477 530.5523 574.0 530.0 574.0 c
529.4477 574.0 529.0 574.4477 529.0 575.0 c
529.0 575.5523 529.4477 576.0 530.0 576.0 c
530.5523 576.0 531.0 575.5523 531.0 575.0 c
closepath
fill
0.0 0.0 0.0 setrgbcolor
newpath
531.0 575.0 m
531.0 574.4477 530.5523 574.0 530.0 574.0 c
529.4477 574.0 529.0 574.4477 529.0 575.0 c
529.0 575.5523 529.4477 576.0 530.0 576.0 c
530.5523 576.0 531.0 575.5523 531.0 575.0 c
closepath
stroke
0.0 0.0 0.0 setrgbcolor
newpath
551.0 592.0 m
551.0 591.4477 550.5523 591.0 550.0 591.0 c
549.4477 591.0 549.0 591.4477 549.0 592.0 c
549.0 592.5523 549.4477 593.0 550.0 593.0 c
550.5523 593.0 551.0 592.5523 551.0 592.0 c
closepath
fill
0.0 0.0 0.0 setrgbcolor
newpath
551.0 592.0 m
551.0 591.4477 550.5523 591.0 550.0 591.0 c
549.4477 591.0 549.0 591.4477 549.0 592.0 c
549.0 592.5523 549.4477 593.0 550.0 593.0 c
550.5523 593.0 551.0 592.5523 551.0 592.0 c
closepath
stroke
0.0 0.0 0.0 setrgbcolor
newpath
576.0 634.0 m
576.0 633.4477 575.5523 633.0 575.0 633.0 c
574.4477 633.0 574.0 633.4477 574.0 634.0 c
574.0 634.5523 574.4477 635.0 575.0 635.0 c
575.5523 635.0 576.0 634.5523 576.0 634.0 c
closepath
fill
0.0 0.0 0.0 setrgbcolor
newpath
576.0 634.0 m
576.0 633.4477 575.5523 633.0 575.0 633.0 c
574.4477 633.0 574.0 633.4477 574.0 634.0 c
574.0 634.5523 574.4477 635.0 575.0 635.0 c
575.5523 635.0 576.0 634.5523 576.0 634.0 c
closepath
stroke
0.0 0.0 0.0 setrgbcolor
newpath
609.0 653.0 m
609.0 652.4477 608.5523 652.0 608.0 652.0 c
607.4477 652.0 607.0 652.4477 607.0 653.0 c
607.0 653.5523 607.4477 654.0 608.0 654.0 c
608.5523 654.0 609.0 653.5523 609.0 653.0 c
closepath
fill
0.0 0.0 0.0 setrgbcolor
newpath
609.0 653.0 m
609.0 652.4477 608.5523 652.0 608.0 652.0 c
607.4477 652.0 607.0 652.4477 607.0 653.0 c
607.0 653.5523 607.4477 654.0 608.0 654.0 c
608.5523 654.0 609.0 653.5523 609.0 653.0 c
closepath
stroke
0.0 0.0 0.0 setrgbcolor
newpath
647.0 685.0 m
647.0 684.4477 646.5523 684.0 646.0 684.0 c
645.4477 684.0 645.0 684.4477 645.0 685.0 c
645.0 685.5523 645.4477 686.0 646.0 686.0 c
646.5523 686.0 647.0 685.5523 647.0 685.0 c
closepath
fill
0.0 0.0 0.0 setrgbcolor
newpath
647.0 685.0 m
647.0 684.4477 646.5523 684.0 646.0 684.0 c
645.4477 684.0 645.0 684.4477 645.0 685.0 c
645.0 685.5523 645.4477 686.0 646.0 686.0 c
646.5523 686.0 647.0 685.5523 647.0 685.0 c
closepath
stroke
0.0 0.0 0.0 setrgbcolor
newpath
530.0 578.0 m
530.0 577.4477 529.5523 577.0 529.0 577.0 c
528.4477 577.0 528.0 577.4477 528.0 578.0 c
528.0 578.5523 528.4477 579.0 529.0 579.0 c
529.5523 579.0 530.0 578.5523 530.0 578.0 c
closepath
fill
0.0 0.0 0.0 setrgbcolor
newpath
530.0 578.0 m
530.0 577.4477 529.5523 577.0 529.0 577.0 c
528.4477 577.0 528.0 577.4477 528.0 578.0 c
528.0 578.5523 528.4477 579.0 529.0 579.0 c
529.5523 579.0 530.0 578.5523 530.0 578.0 c
closepath
stroke
0.0 0.0 0.0 setrgbcolor
newpath
550.0 595.0 m
550.0 594.4477 549.5523 594.0 549.0 594.0 c
548.4477 594.0 548.0 594.4477 548.0 595.0 c
548.0 595.5523 548.4477 596.0 549.0 596.0 c
549.5523 596.0 550.0 595.5523 550.0 595.0 c
closepath
fill
0.0 0.0 0.0 setrgbcolor
newpath
550.0 595.0 m
550.0 594.4477 549.5523 594.0 549.0 594.0 c
548.4477 594.0 548.0 594.4477 548.0 595.0 c
548.0 595.5523 548.4477 596.0 549.0 596.0 c
549.5523 596.0 550.0 595.5523 550.0 595.0 c
closepath
stroke
0.0 0.0 0.0 setrgbcolor
newpath
574.0 637.0 m
574.0 636.4477 573.5523 636.0 573.0 636.0 c
572.4477 636.0 572.0 636.4477 572.0 637.0 c
572.0 637.5523 572.4477 638.0 573.0 638.0 c
573.5523 638.0 574.0 637.5523 574.0 637.0 c
closepath
fill
0.0 0.0 0.0 setrgbcolor
newpath
574.0 637.0 m
574.0 636.4477 573.5523 636.0 573.0 636.0 c
572.4477 636.0 572.0 636.4477 572.0 637.0 c
572.0 637.5523 572.4477 638.0 573.0 638.0 c
573.5523 638.0 574.0 637.5523 574.0 637.0 c
closepath
stroke
0.0 0.0 0.0 setrgbcolor
newpath
607.0 656.0 m
607.0 655.4477 606.5523 655.0 606.0 655.0 c
605.4477 655.0 605.0 655.4477 605.0 656.0 c
605.0 656.5523 605.4477 657.0 606.0 657.0 c
606.5523 657.0 607.0 656.5523 607.0 656.0 c
closepath
fill
0.0 0.0 0.0 setrgbcolor
newpath
607.0 656.0 m
607.0 655.4477 606.5523 655.0 606.0 655.0 c
605.4477 655.0 605.0 655.4477 605.0 656.0 c
605.0 656.5523 605.4477 657.0 606.0 657.0 c
606.5523 657.0 607.0 656.5523 607.0 656.0 c
closepath
stroke
0.0 0.0 0.0 setrgbcolor
newpath
645.0 688.0 m
645.0 687.4477 644.5523 687.0 644.0 687.0 c
643.4477 687.0 643.0 687.4477 643.0 688.0 c
643.0 688.55225 643.4477 689.0 644.0 689.0 c
644.5523 689.0 645.0 688.55225 645.0 688.0 c
closepath
fill
0.0 0.0 0.0 setrgbcolor
newpath
645.0 688.0 m
645.0 687.4477 644.5523 687.0 644.0 687.0 c
643.4477 687.0 643.0 687.4477 643.0 688.0 c
643.0 688.55225 643.4477 689.0 644.0 689.0 c
644.5523 689.0 645.0 688.55225 645.0 688.0 c
closepath
stroke
0.0 0.0 0.0 setrgbcolor
newpath
646.0 687.0 m
646.0 686.4477 645.5523 686.0 645.0 686.0 c
644.4477 686.0 644.0 686.4477 644.0 687.0 c
644.0 687.5523 644.4477 688.0 645.0 688.0 c
645.5523 688.0 646.0 687.5523 646.0 687.0 c
closepath
fill
0.0 0.0 0.0 setrgbcolor
newpath
646.0 687.0 m
646.0 686.4477 645.5523 686.0 645.0 686.0 c
644.4477 686.0 644.0 686.4477 644.0 687.0 c
644.0 687.5523 644.4477 688.0 645.0 688.0 c
645.5523 688.0 646.0 687.5523 646.0 687.0 c
closepath
stroke
0.0 0.0 0.0 setrgbcolor
newpath
541.0 492.0 m
541.0 491.4477 540.5523 491.0 540.0 491.0 c
539.4477 491.0 539.0 491.4477 539.0 492.0 c
539.0 492.5523 539.4477 493.0 540.0 493.0 c
540.5523 493.0 541.0 492.5523 541.0 492.0 c
closepath
fill
0.0 0.0 0.0 setrgbcolor
newpath
541.0 492.0 m
541.0 491.4477 540.5523 491.0 540.0 491.0 c
539.4477 491.0 539.0 491.4477 539.0 492.0 c
539.0 492.5523 539.4477 493.0 540.0 493.0 c
540.5523 493.0 541.0 492.5523 541.0 492.0 c
closepath
stroke
0.0 0.0 0.0 setrgbcolor
newpath
521.0 475.0 m
521.0 474.4477 520.5523 474.0 520.0 474.0 c
519.4477 474.0 519.0 474.4477 519.0 475.0 c
519.0 475.5523 519.4477 476.0 520.0 476.0 c
520.5523 476.0 521.0 475.5523 521.0 475.0 c
closepath
fill
0.0 0.0 0.0 setrgbcolor
newpath
521.0 475.0 m
521.0 474.4477 520.5523 474.0 520.0 474.0 c
519.4477 474.0 519.0 474.4477 519.0 475.0 c
519.0 475.5523 519.4477 476.0 520.0 476.0 c
520.5523 476.0 521.0 475.5523 521.0 475.0 c
closepath
stroke
0.0 0.0 0.0 setrgbcolor
newpath
516.0 469.0 m
516.0 468.4477 515.5523 468.0 515.0 468.0 c
514.4477 468.0 514.0 468.4477 514.0 469.0 c
514.0 469.5523 514.4477 470.0 515.0 470.0 c
515.5523 470.0 516.0 469.5523 516.0 469.0 c
closepath
fill
0.0 0.0 0.0 setrgbcolor
newpath
516.0 469.0 m
516.0 468.4477 515.5523 468.0 515.0 468.0 c
514.4477 468.0 514.0 468.4477 514.0 469.0 c
514.0 469.5523 514.4477 470.0 515.0 470.0 c
515.5523 470.0 516.0 469.5523 516.0 469.0 c
closepath
stroke
0.0 0.0 0.0 setrgbcolor
newpath
621.0 590.0 m
621.0 589.4477 620.5523 589.0 620.0 589.0 c
619.4477 589.0 619.0 589.4477 619.0 590.0 c
619.0 590.5523 619.4477 591.0 620.0 591.0 c
620.5523 591.0 621.0 590.5523 621.0 590.0 c
closepath
fill
0.0 0.0 0.0 setrgbcolor
newpath
621.0 590.0 m
621.0 589.4477 620.5523 589.0 620.0 589.0 c
619.4477 589.0 619.0 589.4477 619.0 590.0 c
619.0 590.5523 619.4477 591.0 620.0 591.0 c
620.5523 591.0 621.0 590.5523 621.0 590.0 c
closepath
stroke
0.0 0.0 0.0 setrgbcolor
newpath
610.0 592.0 m
610.0 591.4477 609.5523 591.0 609.0 591.0 c
608.4477 591.0 608.0 591.4477 608.0 592.0 c
608.0 592.5523 608.4477 593.0 609.0 593.0 c
609.5523 593.0 610.0 592.5523 610.0 592.0 c
closepath
fill
0.0 0.0 0.0 setrgbcolor
newpath
610.0 592.0 m
610.0 591.4477 609.5523 591.0 609.0 591.0 c
608.4477 591.0 608.0 591.4477 608.0 592.0 c
608.0 592.5523 608.4477 593.0 609.0 593.0 c
609.5523 593.0 610.0 592.5523 610.0 592.0 c
closepath
stroke
0.0 0.0 0.0 setrgbcolor
newpath
577.0 573.0 m
577.0 572.4477 576.5523 572.0 576.0 572.0 c
575.4477 572.0 575.0 572.4477 575.0 573.0 c
575.0 573.5523 575.4477 574.0 576.0 574.0 c
576.5523 574.0 577.0 573.5523 577.0 573.0 c
closepath
fill
0.0 0.0 0.0 setrgbcolor
newpath
577.0 573.0 m
577.0 572.4477 576.5523 572.0 576.0 572.0 c
575.4477 572.0 575.0 572.4477 575.0 573.0 c
575.0 573.5523 575.4477 574.0 576.0 574.0 c
576.5523 574.0 577.0 573.5523 577.0 573.0 c
closepath
stroke
0.0 0.0 0.0 setrgbcolor
newpath
577.0 554.0 m
577.0 553.4477 576.5523 553.0 576.0 553.0 c
575.4477 553.0 575.0 553.4477 575.0 554.0 c
575.0 554.5523 575.4477 555.0 576.0 555.0 c
576.5523 555.0 577.0 554.5523 577.0 554.0 c
closepath
fill
0.0 0.0 0.0 setrgbcolor
newpath
577.0 554.0 m
577.0 553.4477 576.5523 553.0 576.0 553.0 c
575.4477 553.0 575.0 553.4477 575.0 554.0 c
575.0 554.5523 575.4477 555.0 576.0 555.0 c
576.5523 555.0 577.0 554.5523 577.0 554.0 c
closepath
stroke
0.0 0.0 0.0 setrgbcolor
newpath
561.0 560.0 m
561.0 559.4477 560.5523 559.0 560.0 559.0 c
559.4477 559.0 559.0 559.4477 559.0 560.0 c
559.0 560.5523 559.4477 561.0 560.0 561.0 c
560.5523 561.0 561.0 560.5523 561.0 560.0 c
closepath
fill
0.0 0.0 0.0 setrgbcolor
newpath
561.0 560.0 m
561.0 559.4477 560.5523 559.0 560.0 559.0 c
559.4477 559.0 559.0 559.4477 559.0 560.0 c
559.0 560.5523 559.4477 561.0 560.0 561.0 c
560.5523 561.0 561.0 560.5523 561.0 560.0 c
closepath
stroke
0.0 0.0 0.0 setrgbcolor
newpath
559.0 554.0 m
559.0 553.4477 558.5523 553.0 558.0 553.0 c
557.4477 553.0 557.0 553.4477 557.0 554.0 c
557.0 554.5523 557.4477 555.0 558.0 555.0 c
558.5523 555.0 559.0 554.5523 559.0 554.0 c
closepath
fill
0.0 0.0 0.0 setrgbcolor
newpath
559.0 554.0 m
559.0 553.4477 558.5523 553.0 558.0 553.0 c
557.4477 553.0 557.0 553.4477 557.0 554.0 c
557.0 554.5523 557.4477 555.0 558.0 555.0 c
558.5523 555.0 559.0 554.5523 559.0 554.0 c
closepath
stroke
0.0 0.0 0.0 setrgbcolor
newpath
547.0 485.0 m
547.0 484.4477 546.5523 484.0 546.0 484.0 c
545.4477 484.0 545.0 484.4477 545.0 485.0 c
545.0 485.5523 545.4477 486.0 546.0 486.0 c
546.5523 486.0 547.0 485.5523 547.0 485.0 c
closepath
fill
0.0 0.0 0.0 setrgbcolor
newpath
547.0 485.0 m
547.0 484.4477 546.5523 484.0 546.0 484.0 c
545.4477 484.0 545.0 484.4477 545.0 485.0 c
545.0 485.5523 545.4477 486.0 546.0 486.0 c
546.5523 486.0 547.0 485.5523 547.0 485.0 c
closepath
stroke
0.0 0.0 0.0 setrgbcolor
newpath
527.0 468.0 m
527.0 467.4477 526.5523 467.0 526.0 467.0 c
525.4477 467.0 525.0 467.4477 525.0 468.0 c
525.0 468.5523 525.4477 469.0 526.0 469.0 c
526.5523 469.0 527.0 468.5523 527.0 468.0 c
closepath
fill
0.0 0.0 0.0 setrgbcolor
newpath
527.0 468.0 m
527.0 467.4477 526.5523 467.0 526.0 467.0 c
525.4477 467.0 525.0 467.4477 525.0 468.0 c
525.0 468.5523 525.4477 469.0 526.0 469.0 c
526.5523 469.0 527.0 468.5523 527.0 468.0 c
closepath
stroke
0.0 0.0 0.0 setrgbcolor
newpath
521.0 462.0 m
521.0 461.4477 520.5523 461.0 520.0 461.0 c
519.4477 461.0 519.0 461.4477 519.0 462.0 c
519.0 462.5523 519.4477 463.0 520.0 463.0 c
520.5523 463.0 521.0 462.5523 521.0 462.0 c
closepath
fill
0.0 0.0 0.0 setrgbcolor
newpath
521.0 462.0 m
521.0 461.4477 520.5523 461.0 520.0 461.0 c
519.4477 461.0 519.0 461.4477 519.0 462.0 c
519.0 462.5523 519.4477 463.0 520.0 463.0 c
520.5523 463.0 521.0 462.5523 521.0 462.0 c
closepath
stroke
0.0 0.0 0.0 setrgbcolor
newpath
528.0 580.0 m
528.0 579.4477 527.5523 579.0 527.0 579.0 c
526.4477 579.0 526.0 579.4477 526.0 580.0 c
526.0 580.5523 526.4477 581.0 527.0 581.0 c
527.5523 581.0 528.0 580.5523 528.0 580.0 c
closepath
fill
0.0 0.0 0.0 setrgbcolor
newpath
528.0 580.0 m
528.0 579.4477 527.5523 579.0 527.0 579.0 c
526.4477 579.0 526.0 579.4477 526.0 580.0 c
526.0 580.5523 526.4477 581.0 527.0 581.0 c
527.5523 581.0 528.0 580.5523 528.0 580.0 c
closepath
stroke
0.0 0.0 0.0 setrgbcolor
newpath
548.0 597.0 m
548.0 596.4477 547.5523 596.0 547.0 596.0 c
546.4477 596.0 546.0 596.4477 546.0 597.0 c
546.0 597.5523 546.4477 598.0 547.0 598.0 c
547.5523 598.0 548.0 597.5523 548.0 597.0 c
closepath
fill
0.0 0.0 0.0 setrgbcolor
newpath
548.0 597.0 m
548.0 596.4477 547.5523 596.0 547.0 596.0 c
546.4477 596.0 546.0 596.4477 546.0 597.0 c
546.0 597.5523 546.4477 598.0 547.0 598.0 c
547.5523 598.0 548.0 597.5523 548.0 597.0 c
closepath
stroke
0.0 0.0 0.0 setrgbcolor
newpath
572.0 639.0 m
572.0 638.4477 571.5523 638.0 571.0 638.0 c
570.4477 638.0 570.0 638.4477 570.0 639.0 c
570.0 639.5523 570.4477 640.0 571.0 640.0 c
571.5523 640.0 572.0 639.5523 572.0 639.0 c
closepath
fill
0.0 0.0 0.0 setrgbcolor
newpath
572.0 639.0 m
572.0 638.4477 571.5523 638.0 571.0 638.0 c
570.4477 638.0 570.0 638.4477 570.0 639.0 c
570.0 639.5523 570.4477 640.0 571.0 640.0 c
571.5523 640.0 572.0 639.5523 572.0 639.0 c
closepath
stroke
0.0 0.0 0.0 setrgbcolor
newpath
647.0 690.0 m
647.0 689.44775 646.5523 689.0 646.0 689.0 c
645.4477 689.0 645.0 689.44775 645.0 690.0 c
645.0 690.55225 645.4477 691.0 646.0 691.0 c
646.5523 691.0 647.0 690.55225 647.0 690.0 c
closepath
fill
0.0 0.0 0.0 setrgbcolor
newpath
647.0 690.0 m
647.0 689.44775 646.5523 689.0 646.0 689.0 c
645.4477 689.0 645.0 689.44775 645.0 690.0 c
645.0 690.55225 645.4477 691.0 646.0 691.0 c
646.5523 691.0 647.0 690.55225 647.0 690.0 c
closepath
stroke
0.0 0.0 0.0 setrgbcolor
newpath
648.0 689.0 m
648.0 688.44775 647.5523 688.0 647.0 688.0 c
646.4477 688.0 646.0 688.44775 646.0 689.0 c
646.0 689.55225 646.4477 690.0 647.0 690.0 c
647.5523 690.0 648.0 689.55225 648.0 689.0 c
closepath
fill
0.0 0.0 0.0 setrgbcolor
newpath
648.0 689.0 m
648.0 688.44775 647.5523 688.0 647.0 688.0 c
646.4477 688.0 646.0 688.44775 646.0 689.0 c
646.0 689.55225 646.4477 690.0 647.0 690.0 c
647.5523 690.0 648.0 689.55225 648.0 689.0 c
closepath
stroke
0.0 0.0 0.0 setrgbcolor
newpath
649.0 686.0 m
649.0 685.4477 648.5523 685.0 648.0 685.0 c
647.4477 685.0 647.0 685.4477 647.0 686.0 c
647.0 686.5523 647.4477 687.0 648.0 687.0 c
648.5523 687.0 649.0 686.5523 649.0 686.0 c
closepath
fill
0.0 0.0 0.0 setrgbcolor
newpath
649.0 686.0 m
649.0 685.4477 648.5523 685.0 648.0 685.0 c
647.4477 685.0 647.0 685.4477 647.0 686.0 c
647.0 686.5523 647.4477 687.0 648.0 687.0 c
648.5523 687.0 649.0 686.5523 649.0 686.0 c
closepath
stroke
0.0 0.0 0.0 setrgbcolor
newpath
652.0 681.0 m
652.0 680.4477 651.5523 680.0 651.0 680.0 c
650.4477 680.0 650.0 680.4477 650.0 681.0 c
650.0 681.5523 650.4477 682.0 651.0 682.0 c
651.5523 682.0 652.0 681.5523 652.0 681.0 c
closepath
fill
0.0 0.0 0.0 setrgbcolor
newpath
652.0 681.0 m
652.0 680.4477 651.5523 680.0 651.0 680.0 c
650.4477 680.0 650.0 680.4477 650.0 681.0 c
650.0 681.5523 650.4477 682.0 651.0 682.0 c
651.5523 682.0 652.0 681.5523 652.0 681.0 c
closepath
stroke
0.0 0.0 0.0 setrgbcolor
newpath
692.0 688.0 m
692.0 687.4477 691.5523 687.0 691.0 687.0 c
690.4477 687.0 690.0 687.4477 690.0 688.0 c
690.0 688.55225 690.4477 689.0 691.0 689.0 c
691.5523 689.0 692.0 688.55225 692.0 688.0 c
closepath
fill
0.0 0.0 0.0 setrgbcolor
newpath
692.0 688.0 m
692.0 687.4477 691.5523 687.0 691.0 687.0 c
690.4477 687.0 690.0 687.4477 690.0 688.0 c
690.0 688.55225 690.4477 689.0 691.0 689.0 c
691.5523 689.0 692.0 688.55225 692.0 688.0 c
closepath
stroke
0.0 0.0 0.0 setrgbcolor
newpath
590.0 531.0 m
590.0 530.4477 589.5523 530.0 589.0 530.0 c
588.4477 530.0 588.0 530.4477 588.0 531.0 c
588.0 531.5523 588.4477 532.0 589.0 532.0 c
589.5523 532.0 590.0 531.5523 590.0 531.0 c
closepath
fill
0.0 0.0 0.0 setrgbcolor
newpath
590.0 531.0 m
590.0 530.4477 589.5523 530.0 589.0 530.0 c
588.4477 530.0 588.0 530.4477 588.0 531.0 c
588.0 531.5523 588.4477 532.0 589.0 532.0 c
589.5523 532.0 590.0 531.5523 590.0 531.0 c
closepath
stroke
0.0 0.0 0.0 setrgbcolor
newpath
574.0 537.0 m
574.0 536.4477 573.5523 536.0 573.0 536.0 c
572.4477 536.0 572.0 536.4477 572.0 537.0 c
572.0 537.5523 572.4477 538.0 573.0 538.0 c
573.5523 538.0 574.0 537.5523 574.0 537.0 c
closepath
fill
0.0 0.0 0.0 setrgbcolor
newpath
574.0 537.0 m
574.0 536.4477 573.5523 536.0 573.0 536.0 c
572.4477 536.0 572.0 536.4477 572.0 537.0 c
572.0 537.5523 572.4477 538.0 573.0 538.0 c
573.5523 538.0 574.0 537.5523 574.0 537.0 c
closepath
stroke
0.0 0.0 0.0 setrgbcolor
newpath
572.0 531.0 m
572.0 530.4477 571.5523 530.0 571.0 530.0 c
570.4477 530.0 570.0 530.4477 570.0 531.0 c
570.0 531.5523 570.4477 532.0 571.0 532.0 c
571.5523 532.0 572.0 531.5523 572.0 531.0 c
closepath
fill
0.0 0.0 0.0 setrgbcolor
newpath
572.0 531.0 m
572.0 530.4477 571.5523 530.0 571.0 530.0 c
570.4477 530.0 570.0 530.4477 570.0 531.0 c
570.0 531.5523 570.4477 532.0 571.0 532.0 c
571.5523 532.0 572.0 531.5523 572.0 531.0 c
closepath
stroke
0.0 0.0 0.0 setrgbcolor
newpath
560.0 462.0 m
560.0 461.4477 559.5523 461.0 559.0 461.0 c
558.4477 461.0 558.0 461.4477 558.0 462.0 c
558.0 462.5523 558.4477 463.0 559.0 463.0 c
559.5523 463.0 560.0 462.5523 560.0 462.0 c
closepath
fill
0.0 0.0 0.0 setrgbcolor
newpath
560.0 462.0 m
560.0 461.4477 559.5523 461.0 559.0 461.0 c
558.4477 461.0 558.0 461.4477 558.0 462.0 c
558.0 462.5523 558.4477 463.0 559.0 463.0 c
559.5523 463.0 560.0 462.5523 560.0 462.0 c
closepath
stroke
0.0 0.0 0.0 setrgbcolor
newpath
540.0 445.0 m
540.0 444.4477 539.5523 444.0 539.0 444.0 c
538.4477 444.0 538.0 444.4477 538.0 445.0 c
538.0 445.5523 538.4477 446.0 539.0 446.0 c
539.5523 446.0 540.0 445.5523 540.0 445.0 c
closepath
fill
0.0 0.0 0.0 setrgbcolor
newpath
540.0 445.0 m
540.0 444.4477 539.5523 444.0 539.0 444.0 c
538.4477 444.0 538.0 444.4477 538.0 445.0 c
538.0 445.5523 538.4477 446.0 539.0 446.0 c
539.5523 446.0 540.0 445.5523 540.0 445.0 c
closepath
stroke
0.0 0.0 0.0 setrgbcolor
newpath
535.0 439.0 m
535.0 438.4477 534.5523 438.0 534.0 438.0 c
533.4477 438.0 533.0 438.4477 533.0 439.0 c
533.0 439.5523 533.4477 440.0 534.0 440.0 c
534.5523 440.0 535.0 439.5523 535.0 439.0 c
closepath
fill
0.0 0.0 0.0 setrgbcolor
newpath
535.0 439.0 m
535.0 438.4477 534.5523 438.0 534.0 438.0 c
533.4477 438.0 533.0 438.4477 533.0 439.0 c
533.0 439.5523 533.4477 440.0 534.0 440.0 c
534.5523 440.0 535.0 439.5523 535.0 439.0 c
closepath
stroke
0.0 0.0 0.0 setrgbcolor
newpath
514.0 466.0 m
514.0 465.4477 513.5523 465.0 513.0 465.0 c
512.4477 465.0 512.0 465.4477 512.0 466.0 c
512.0 466.5523 512.4477 467.0 513.0 467.0 c
513.5523 467.0 514.0 466.5523 514.0 466.0 c
closepath
fill
0.0 0.0 0.0 setrgbcolor
newpath
514.0 466.0 m
514.0 465.4477 513.5523 465.0 513.0 465.0 c
512.4477 465.0 512.0 465.4477 512.0 466.0 c
512.0 466.5523 512.4477 467.0 513.0 467.0 c
513.5523 467.0 514.0 466.5523 514.0 466.0 c
closepath
stroke
0.0 0.0 0.0 setrgbcolor
newpath
514.0 573.0 m
514.0 572.4477 513.5523 572.0 513.0 572.0 c
512.4477 572.0 512.0 572.4477 512.0 573.0 c
512.0 573.5523 512.4477 574.0 513.0 574.0 c
513.5523 574.0 514.0 573.5523 514.0 573.0 c
closepath
fill
0.0 0.0 0.0 setrgbcolor
newpath
514.0 573.0 m
514.0 572.4477 513.5523 572.0 513.0 572.0 c
512.4477 572.0 512.0 572.4477 512.0 573.0 c
512.0 573.5523 512.4477 574.0 513.0 574.0 c
513.5523 574.0 514.0 573.5523 514.0 573.0 c
closepath
stroke
0.0 0.0 0.0 setrgbcolor
newpath
519.0 579.0 m
519.0 578.4477 518.5523 578.0 518.0 578.0 c
517.4477 578.0 517.0 578.4477 517.0 579.0 c
517.0 579.5523 517.4477 580.0 518.0 580.0 c
518.5523 580.0 519.0 579.5523 519.0 579.0 c
closepath
fill
0.0 0.0 0.0 setrgbcolor
newpath
519.0 579.0 m
519.0 578.4477 518.5523 578.0 518.0 578.0 c
517.4477 578.0 517.0 578.4477 517.0 579.0 c
517.0 579.5523 517.4477 580.0 518.0 580.0 c
518.5523 580.0 519.0 579.5523 519.0 579.0 c
closepath
stroke
0.0 0.0 0.0 setrgbcolor
newpath
517.0 583.0 m
517.0 582.4477 516.5523 582.0 516.0 582.0 c
515.4477 582.0 515.0 582.4477 515.0 583.0 c
515.0 583.5523 515.4477 584.0 516.0 584.0 c
516.5523 584.0 517.0 583.5523 517.0 583.0 c
closepath
fill
0.0 0.0 0.0 setrgbcolor
newpath
517.0 583.0 m
517.0 582.4477 516.5523 582.0 516.0 582.0 c
515.4477 582.0 515.0 582.4477 515.0 583.0 c
515.0 583.5523 515.4477 584.0 516.0 584.0 c
516.5523 584.0 517.0 583.5523 517.0 583.0 c
closepath
stroke
0.0 0.0 0.0 setrgbcolor
newpath
515.0 585.0 m
515.0 584.4477 514.5523 584.0 514.0 584.0 c
513.4477 584.0 513.0 584.4477 513.0 585.0 c
513.0 585.5523 513.4477 586.0 514.0 586.0 c
514.5523 586.0 515.0 585.5523 515.0 585.0 c
closepath
fill
0.0 0.0 0.0 setrgbcolor
newpath
515.0 585.0 m
515.0 584.4477 514.5523 584.0 514.0 584.0 c
513.4477 584.0 513.0 584.4477 513.0 585.0 c
513.0 585.5523 513.4477 586.0 514.0 586.0 c
514.5523 586.0 515.0 585.5523 515.0 585.0 c
closepath
stroke
0.0 0.0 0.0 setrgbcolor
newpath
535.0 602.0 m
535.0 601.4477 534.5523 601.0 534.0 601.0 c
533.4477 601.0 533.0 601.4477 533.0 602.0 c
533.0 602.5523 533.4477 603.0 534.0 603.0 c
534.5523 603.0 535.0 602.5523 535.0 602.0 c
closepath
fill
0.0 0.0 0.0 setrgbcolor
newpath
535.0 602.0 m
535.0 601.4477 534.5523 601.0 534.0 601.0 c
533.4477 601.0 533.0 601.4477 533.0 602.0 c
533.0 602.5523 533.4477 603.0 534.0 603.0 c
534.5523 603.0 535.0 602.5523 535.0 602.0 c
closepath
stroke
0.0 0.0 0.0 setrgbcolor
newpath
507.0 652.0 m
507.0 651.4477 506.55228 651.0 506.0 651.0 c
505.44772 651.0 505.0 651.4477 505.0 652.0 c
505.0 652.5523 505.44772 653.0 506.0 653.0 c
506.55228 653.0 507.0 652.5523 507.0 652.0 c
closepath
fill
0.0 0.0 0.0 setrgbcolor
newpath
507.0 652.0 m
507.0 651.4477 506.55228 651.0 506.0 651.0 c
505.44772 651.0 505.0 651.4477 505.0 652.0 c
505.0 652.5523 505.44772 653.0 506.0 653.0 c
506.55228 653.0 507.0 652.5523 507.0 652.0 c
closepath
stroke
0.0 0.0 0.0 setrgbcolor
newpath
519.0 647.0 m
519.0 646.4477 518.5523 646.0 518.0 646.0 c
517.4477 646.0 517.0 646.4477 517.0 647.0 c
517.0 647.5523 517.4477 648.0 518.0 648.0 c
518.5523 648.0 519.0 647.5523 519.0 647.0 c
closepath
fill
0.0 0.0 0.0 setrgbcolor
newpath
519.0 647.0 m
519.0 646.4477 518.5523 646.0 518.0 646.0 c
517.4477 646.0 517.0 646.4477 517.0 647.0 c
517.0 647.5523 517.4477 648.0 518.0 648.0 c
518.5523 648.0 519.0 647.5523 519.0 647.0 c
closepath
stroke
0.0 0.0 0.0 setrgbcolor
newpath
544.0 689.0 m
544.0 688.44775 543.5523 688.0 543.0 688.0 c
542.4477 688.0 542.0 688.44775 542.0 689.0 c
542.0 689.55225 542.4477 690.0 543.0 690.0 c
543.5523 690.0 544.0 689.55225 544.0 689.0 c
closepath
fill
0.0 0.0 0.0 setrgbcolor
newpath
544.0 689.0 m
544.0 688.44775 543.5523 688.0 543.0 688.0 c
542.4477 688.0 542.0 688.44775 542.0 689.0 c
542.0 689.55225 542.4477 690.0 543.0 690.0 c
543.5523 690.0 544.0 689.55225 544.0 689.0 c
closepath
stroke
0.0 0.0 0.0 setrgbcolor
newpath
545.0 697.0 m
545.0 696.44775 544.5523 696.0 544.0 696.0 c
543.4477 696.0 543.0 696.44775 543.0 697.0 c
543.0 697.55225 543.4477 698.0 544.0 698.0 c
544.5523 698.0 545.0 697.55225 545.0 697.0 c
closepath
fill
0.0 0.0 0.0 setrgbcolor
newpath
545.0 697.0 m
545.0 696.44775 544.5523 696.0 544.0 696.0 c
543.4477 696.0 543.0 696.44775 543.0 697.0 c
543.0 697.55225 543.4477 698.0 544.0 698.0 c
544.5523 698.0 545.0 697.55225 545.0 697.0 c
closepath
stroke
0.0 0.0 0.0 setrgbcolor
newpath
574.0 647.0 m
574.0 646.4477 573.5523 646.0 573.0 646.0 c
572.4477 646.0 572.0 646.4477 572.0 647.0 c
572.0 647.5523 572.4477 648.0 573.0 648.0 c
573.5523 648.0 574.0 647.5523 574.0 647.0 c
closepath
fill
0.0 0.0 0.0 setrgbcolor
newpath
574.0 647.0 m
574.0 646.4477 573.5523 646.0 573.0 646.0 c
572.4477 646.0 572.0 646.4477 572.0 647.0 c
572.0 647.5523 572.4477 648.0 573.0 648.0 c
573.5523 648.0 574.0 647.5523 574.0 647.0 c
closepath
stroke
0.0 0.0 0.0 setrgbcolor
newpath
576.0 644.0 m
576.0 643.4477 575.5523 643.0 575.0 643.0 c
574.4477 643.0 574.0 643.4477 574.0 644.0 c
574.0 644.5523 574.4477 645.0 575.0 645.0 c
575.5523 645.0 576.0 644.5523 576.0 644.0 c
closepath
fill
0.0 0.0 0.0 setrgbcolor
newpath
576.0 644.0 m
576.0 643.4477 575.5523 643.0 575.0 643.0 c
574.4477 643.0 574.0 643.4477 574.0 644.0 c
574.0 644.5523 574.4477 645.0 575.0 645.0 c
575.5523 645.0 576.0 644.5523 576.0 644.0 c
closepath
stroke
0.0 0.0 0.0 setrgbcolor
newpath
609.0 663.0 m
609.0 662.4477 608.5523 662.0 608.0 662.0 c
607.4477 662.0 607.0 662.4477 607.0 663.0 c
607.0 663.5523 607.4477 664.0 608.0 664.0 c
608.5523 664.0 609.0 663.5523 609.0 663.0 c
closepath
fill
0.0 0.0 0.0 setrgbcolor
newpath
609.0 663.0 m
609.0 662.4477 608.5523 662.0 608.0 662.0 c
607.4477 662.0 607.0 662.4477 607.0 663.0 c
607.0 663.5523 607.4477 664.0 608.0 664.0 c
608.5523 664.0 609.0 663.5523 609.0 663.0 c
closepath
stroke
0.0 0.0 0.0 setrgbcolor
newpath
647.0 695.0 m
647.0 694.44775 646.5523 694.0 646.0 694.0 c
645.4477 694.0 645.0 694.44775 645.0 695.0 c
645.0 695.55225 645.4477 696.0 646.0 696.0 c
646.5523 696.0 647.0 695.55225 647.0 695.0 c
closepath
fill
0.0 0.0 0.0 setrgbcolor
newpath
647.0 695.0 m
647.0 694.44775 646.5523 694.0 646.0 694.0 c
645.4477 694.0 645.0 694.44775 645.0 695.0 c
645.0 695.55225 645.4477 696.0 646.0 696.0 c
646.5523 696.0 647.0 695.55225 647.0 695.0 c
closepath
stroke
0.0 0.0 0.0 setrgbcolor
newpath
649.0 698.0 m
649.0 697.44775 648.5523 697.0 648.0 697.0 c
647.4477 697.0 647.0 697.44775 647.0 698.0 c
647.0 698.55225 647.4477 699.0 648.0 699.0 c
648.5523 699.0 649.0 698.55225 649.0 698.0 c
closepath
fill
0.0 0.0 0.0 setrgbcolor
newpath
649.0 698.0 m
649.0 697.44775 648.5523 697.0 648.0 697.0 c
647.4477 697.0 647.0 697.44775 647.0 698.0 c
647.0 698.55225 647.4477 699.0 648.0 699.0 c
648.5523 699.0 649.0 698.55225 649.0 698.0 c
closepath
stroke
0.0 0.0 0.0 setrgbcolor
newpath
649.0 697.0 m
649.0 696.44775 648.5523 696.0 648.0 696.0 c
647.4477 696.0 647.0 696.44775 647.0 697.0 c
647.0 697.55225 647.4477 698.0 648.0 698.0 c
648.5523 698.0 649.0 697.55225 649.0 697.0 c
closepath
fill
0.0 0.0 0.0 setrgbcolor
newpath
649.0 697.0 m
649.0 696.44775 648.5523 696.0 648.0 696.0 c
647.4477 696.0 647.0 696.44775 647.0 697.0 c
647.0 697.55225 647.4477 698.0 648.0 698.0 c
648.5523 698.0 649.0 697.55225 649.0 697.0 c
closepath
stroke
0.0 0.0 0.0 setrgbcolor
newpath
663.0 722.0 m
663.0 721.44775 662.5523 721.0 662.0 721.0 c
661.4477 721.0 661.0 721.44775 661.0 722.0 c
661.0 722.55225 661.4477 723.0 662.0 723.0 c
662.5523 723.0 663.0 722.55225 663.0 722.0 c
closepath
fill
0.0 0.0 0.0 setrgbcolor
newpath
663.0 722.0 m
663.0 721.44775 662.5523 721.0 662.0 721.0 c
661.4477 721.0 661.0 721.44775 661.0 722.0 c
661.0 722.55225 661.4477 723.0 662.0 723.0 c
662.5523 723.0 663.0 722.55225 663.0 722.0 c
closepath
stroke
0.0 0.0 0.0 setrgbcolor
newpath
664.0 722.0 m
664.0 721.44775 663.5523 721.0 663.0 721.0 c
662.4477 721.0 662.0 721.44775 662.0 722.0 c
662.0 722.55225 662.4477 723.0 663.0 723.0 c
663.5523 723.0 664.0 722.55225 664.0 722.0 c
closepath
fill
0.0 0.0 0.0 setrgbcolor
newpath
664.0 722.0 m
664.0 721.44775 663.5523 721.0 663.0 721.0 c
662.4477 721.0 662.0 721.44775 662.0 722.0 c
662.0 722.55225 662.4477 723.0 663.0 723.0 c
663.5523 723.0 664.0 722.55225 664.0 722.0 c
closepath
stroke
0.0 0.0 0.0 setrgbcolor
newpath
662.0 714.0 m
662.0 713.44775 661.5523 713.0 661.0 713.0 c
660.4477 713.0 660.0 713.44775 660.0 714.0 c
660.0 714.55225 660.4477 715.0 661.0 715.0 c
661.5523 715.0 662.0 714.55225 662.0 714.0 c
closepath
fill
0.0 0.0 0.0 setrgbcolor
newpath
662.0 714.0 m
662.0 713.44775 661.5523 713.0 661.0 713.0 c
660.4477 713.0 660.0 713.44775 660.0 714.0 c
660.0 714.55225 660.4477 715.0 661.0 715.0 c
661.5523 715.0 662.0 714.55225 662.0 714.0 c
closepath
stroke
0.0 0.0 0.0 setrgbcolor
newpath
664.0 711.0 m
664.0 710.44775 663.5523 710.0 663.0 710.0 c
662.4477 710.0 662.0 710.44775 662.0 711.0 c
662.0 711.55225 662.4477 712.0 663.0 712.0 c
663.5523 712.0 664.0 711.55225 664.0 711.0 c
closepath
fill
0.0 0.0 0.0 setrgbcolor
newpath
664.0 711.0 m
664.0 710.44775 663.5523 710.0 663.0 710.0 c
662.4477 710.0 662.0 710.44775 662.0 711.0 c
662.0 711.55225 662.4477 712.0 663.0 712.0 c
663.5523 712.0 664.0 711.55225 664.0 711.0 c
closepath
stroke
0.0 0.0 0.0 setrgbcolor
newpath
667.0 706.0 m
667.0 705.44775 666.5523 705.0 666.0 705.0 c
665.4477 705.0 665.0 705.44775 665.0 706.0 c
665.0 706.55225 665.4477 707.0 666.0 707.0 c
666.5523 707.0 667.0 706.55225 667.0 706.0 c
closepath
fill
0.0 0.0 0.0 setrgbcolor
newpath
667.0 706.0 m
667.0 705.44775 666.5523 705.0 666.0 705.0 c
665.4477 705.0 665.0 705.44775 665.0 706.0 c
665.0 706.55225 665.4477 707.0 666.0 707.0 c
666.5523 707.0 667.0 706.55225 667.0 706.0 c
closepath
stroke
0.0 0.0 0.0 setrgbcolor
newpath
643.0 578.0 m
643.0 577.4477 642.5523 577.0 642.0 577.0 c
641.4477 577.0 641.0 577.4477 641.0 578.0 c
641.0 578.5523 641.4477 579.0 642.0 579.0 c
642.5523 579.0 643.0 578.5523 643.0 578.0 c
closepath
fill
0.0 0.0 0.0 setrgbcolor
newpath
643.0 578.0 m
643.0 577.4477 642.5523 577.0 642.0 577.0 c
641.4477 577.0 641.0 577.4477 641.0 578.0 c
641.0 578.5523 641.4477 579.0 642.0 579.0 c
642.5523 579.0 643.0 578.5523 643.0 578.0 c
closepath
stroke
0.0 0.0 0.0 setrgbcolor
newpath
631.0 579.0 m
631.0 578.4477 630.5523 578.0 630.0 578.0 c
629.4477 578.0 629.0 578.4477 629.0 579.0 c
629.0 579.5523 629.4477 580.0 630.0 580.0 c
630.5523 580.0 631.0 579.5523 631.0 579.0 c
closepath
fill
0.0 0.0 0.0 setrgbcolor
newpath
631.0 579.0 m
631.0 578.4477 630.5523 578.0 630.0 578.0 c
629.4477 578.0 629.0 578.4477 629.0 579.0 c
629.0 579.5523 629.4477 580.0 630.0 580.0 c
630.5523 580.0 631.0 579.5523 631.0 579.0 c
closepath
stroke
0.0 0.0 0.0 setrgbcolor
newpath
598.0 560.0 m
598.0 559.4477 597.5523 559.0 597.0 559.0 c
596.4477 559.0 596.0 559.4477 596.0 560.0 c
596.0 560.5523 596.4477 561.0 597.0 561.0 c
597.5523 561.0 598.0 560.5523 598.0 560.0 c
closepath
fill
0.0 0.0 0.0 setrgbcolor
newpath
598.0 560.0 m
598.0 559.4477 597.5523 559.0 597.0 559.0 c
596.4477 559.0 596.0 559.4477 596.0 560.0 c
596.0 560.5523 596.4477 561.0 597.0 561.0 c
597.5523 561.0 598.0 560.5523 598.0 560.0 c
closepath
stroke
0.0 0.0 0.0 setrgbcolor
newpath
598.0 541.0 m
598.0 540.4477 597.5523 540.0 597.0 540.0 c
596.4477 540.0 596.0 540.4477 596.0 541.0 c
596.0 541.5523 596.4477 542.0 597.0 542.0 c
597.5523 542.0 598.0 541.5523 598.0 541.0 c
closepath
fill
0.0 0.0 0.0 setrgbcolor
newpath
598.0 541.0 m
598.0 540.4477 597.5523 540.0 597.0 540.0 c
596.4477 540.0 596.0 540.4477 596.0 541.0 c
596.0 541.5523 596.4477 542.0 597.0 542.0 c
597.5523 542.0 598.0 541.5523 598.0 541.0 c
closepath
stroke
0.0 0.0 0.0 setrgbcolor
newpath
612.0 519.0 m
612.0 518.4477 611.5523 518.0 611.0 518.0 c
610.4477 518.0 610.0 518.4477 610.0 519.0 c
610.0 519.5523 610.4477 520.0 611.0 520.0 c
611.5523 520.0 612.0 519.5523 612.0 519.0 c
closepath
fill
0.0 0.0 0.0 setrgbcolor
newpath
612.0 519.0 m
612.0 518.4477 611.5523 518.0 611.0 518.0 c
610.4477 518.0 610.0 518.4477 610.0 519.0 c
610.0 519.5523 610.4477 520.0 611.0 520.0 c
611.5523 520.0 612.0 519.5523 612.0 519.0 c
closepath
stroke
0.0 0.0 0.0 setrgbcolor
newpath
566.0 446.0 m
566.0 445.4477 565.5523 445.0 565.0 445.0 c
564.4477 445.0 564.0 445.4477 564.0 446.0 c
564.0 446.5523 564.4477 447.0 565.0 447.0 c
565.5523 447.0 566.0 446.5523 566.0 446.0 c
closepath
fill
0.0 0.0 0.0 setrgbcolor
newpath
566.0 446.0 m
566.0 445.4477 565.5523 445.0 565.0 445.0 c
564.4477 445.0 564.0 445.4477 564.0 446.0 c
564.0 446.5523 564.4477 447.0 565.0 447.0 c
565.5523 447.0 566.0 446.5523 566.0 446.0 c
closepath
stroke
0.0 0.0 0.0 setrgbcolor
newpath
546.0 429.0 m
546.0 428.4477 545.5523 428.0 545.0 428.0 c
544.4477 428.0 544.0 428.4477 544.0 429.0 c
544.0 429.5523 544.4477 430.0 545.0 430.0 c
545.5523 430.0 546.0 429.5523 546.0 429.0 c
closepath
fill
0.0 0.0 0.0 setrgbcolor
newpath
546.0 429.0 m
546.0 428.4477 545.5523 428.0 545.0 428.0 c
544.4477 428.0 544.0 428.4477 544.0 429.0 c
544.0 429.5523 544.4477 430.0 545.0 430.0 c
545.5523 430.0 546.0 429.5523 546.0 429.0 c
closepath
stroke
0.0 0.0 0.0 setrgbcolor
newpath
541.0 423.0 m
541.0 422.4477 540.5523 422.0 540.0 422.0 c
539.4477 422.0 539.0 422.4477 539.0 423.0 c
539.0 423.5523 539.4477 424.0 540.0 424.0 c
540.5523 424.0 541.0 423.5523 541.0 423.0 c
closepath
fill
0.0 0.0 0.0 setrgbcolor
newpath
541.0 423.0 m
541.0 422.4477 540.5523 422.0 540.0 422.0 c
539.4477 422.0 539.0 422.4477 539.0 423.0 c
539.0 423.5523 539.4477 424.0 540.0 424.0 c
540.5523 424.0 541.0 423.5523 541.0 423.0 c
closepath
stroke
0.0 0.0 0.0 setrgbcolor
newpath
541.0 383.0 m
541.0 382.4477 540.5523 382.0 540.0 382.0 c
539.4477 382.0 539.0 382.4477 539.0 383.0 c
539.0 383.5523 539.4477 384.0 540.0 384.0 c
540.5523 384.0 541.0 383.5523 541.0 383.0 c
closepath
fill
0.0 0.0 0.0 setrgbcolor
newpath
541.0 383.0 m
541.0 382.4477 540.5523 382.0 540.0 382.0 c
539.4477 382.0 539.0 382.4477 539.0 383.0 c
539.0 383.5523 539.4477 384.0 540.0 384.0 c
540.5523 384.0 541.0 383.5523 541.0 383.0 c
closepath
stroke
0.0 0.0 0.0 setrgbcolor
newpath
535.0 400.0 m
535.0 399.4477 534.5523 399.0 534.0 399.0 c
533.4477 399.0 533.0 399.4477 533.0 400.0 c
533.0 400.5523 533.4477 401.0 534.0 401.0 c
534.5523 401.0 535.0 400.5523 535.0 400.0 c
closepath
fill
0.0 0.0 0.0 setrgbcolor
newpath
535.0 400.0 m
535.0 399.4477 534.5523 399.0 534.0 399.0 c
533.4477 399.0 533.0 399.4477 533.0 400.0 c
533.0 400.5523 533.4477 401.0 534.0 401.0 c
534.5523 401.0 535.0 400.5523 535.0 400.0 c
closepath
stroke
0.0 0.0 0.0 setrgbcolor
newpath
521.0 423.0 m
521.0 422.4477 520.5523 422.0 520.0 422.0 c
519.4477 422.0 519.0 422.4477 519.0 423.0 c
519.0 423.5523 519.4477 424.0 520.0 424.0 c
520.5523 424.0 521.0 423.5523 521.0 423.0 c
closepath
fill
0.0 0.0 0.0 setrgbcolor
newpath
521.0 423.0 m
521.0 422.4477 520.5523 422.0 520.0 422.0 c
519.4477 422.0 519.0 422.4477 519.0 423.0 c
519.0 423.5523 519.4477 424.0 520.0 424.0 c
520.5523 424.0 521.0 423.5523 521.0 423.0 c
closepath
stroke
0.0 0.0 0.0 setrgbcolor
newpath
516.0 430.0 m
516.0 429.4477 515.5523 429.0 515.0 429.0 c
514.4477 429.0 514.0 429.4477 514.0 430.0 c
514.0 430.5523 514.4477 431.0 515.0 431.0 c
515.5523 431.0 516.0 430.5523 516.0 430.0 c
closepath
fill
0.0 0.0 0.0 setrgbcolor
newpath
516.0 430.0 m
516.0 429.4477 515.5523 429.0 515.0 429.0 c
514.4477 429.0 514.0 429.4477 514.0 430.0 c
514.0 430.5523 514.4477 431.0 515.0 431.0 c
515.5523 431.0 516.0 430.5523 516.0 430.0 c
closepath
stroke
0.0 0.0 0.0 setrgbcolor
newpath
514.0 427.0 m
514.0 426.4477 513.5523 426.0 513.0 426.0 c
512.4477 426.0 512.0 426.4477 512.0 427.0 c
512.0 427.5523 512.4477 428.0 513.0 428.0 c
513.5523 428.0 514.0 427.5523 514.0 427.0 c
closepath
fill
0.0 0.0 0.0 setrgbcolor
newpath
514.0 427.0 m
514.0 426.4477 513.5523 426.0 513.0 426.0 c
512.4477 426.0 512.0 426.4477 512.0 427.0 c
512.0 427.5523 512.4477 428.0 513.0 428.0 c
513.5523 428.0 514.0 427.5523 514.0 427.0 c
closepath
stroke
0.0 0.0 0.0 setrgbcolor
newpath
489.0 360.0 m
489.0 359.4477 488.55228 359.0 488.0 359.0 c
487.44772 359.0 487.0 359.4477 487.0 360.0 c
487.0 360.5523 487.44772 361.0 488.0 361.0 c
488.55228 361.0 489.0 360.5523 489.0 360.0 c
closepath
fill
0.0 0.0 0.0 setrgbcolor
newpath
489.0 360.0 m
489.0 359.4477 488.55228 359.0 488.0 359.0 c
487.44772 359.0 487.0 359.4477 487.0 360.0 c
487.0 360.5523 487.44772 361.0 488.0 361.0 c
488.55228 361.0 489.0 360.5523 489.0 360.0 c
closepath
stroke
0.0 0.0 0.0 setrgbcolor
newpath
489.0 399.0 m
489.0 398.4477 488.55228 398.0 488.0 398.0 c
487.44772 398.0 487.0 398.4477 487.0 399.0 c
487.0 399.5523 487.44772 400.0 488.0 400.0 c
488.55228 400.0 489.0 399.5523 489.0 399.0 c
closepath
fill
0.0 0.0 0.0 setrgbcolor
newpath
489.0 399.0 m
489.0 398.4477 488.55228 398.0 488.0 398.0 c
487.44772 398.0 487.0 398.4477 487.0 399.0 c
487.0 399.5523 487.44772 400.0 488.0 400.0 c
488.55228 400.0 489.0 399.5523 489.0 399.0 c
closepath
stroke
0.0 0.0 0.0 setrgbcolor
newpath
430.0 329.0 m
430.0 328.4477 429.55228 328.0 429.0 328.0 c
428.44772 328.0 428.0 328.4477 428.0 329.0 c
428.0 329.5523 428.44772 330.0 429.0 330.0 c
429.55228 330.0 430.0 329.5523 430.0 329.0 c
closepath
fill
0.0 0.0 0.0 setrgbcolor
newpath
430.0 329.0 m
430.0 328.4477 429.55228 328.0 429.0 328.0 c
428.44772 328.0 428.0 328.4477 428.0 329.0 c
428.0 329.5523 428.44772 330.0 429.0 330.0 c
429.55228 330.0 430.0 329.5523 430.0 329.0 c
closepath
stroke
0.0 0.0 0.0 setrgbcolor
newpath
455.0 395.0 m
455.0 394.4477 454.55228 394.0 454.0 394.0 c
453.44772 394.0 453.0 394.4477 453.0 395.0 c
453.0 395.5523 453.44772 396.0 454.0 396.0 c
454.55228 396.0 455.0 395.5523 455.0 395.0 c
closepath
fill
0.0 0.0 0.0 setrgbcolor
newpath
455.0 395.0 m
455.0 394.4477 454.55228 394.0 454.0 394.0 c
453.44772 394.0 453.0 394.4477 453.0 395.0 c
453.0 395.5523 453.44772 396.0 454.0 396.0 c
454.55228 396.0 455.0 395.5523 455.0 395.0 c
closepath
stroke
0.0 0.0 0.0 setrgbcolor
newpath
506.0 591.0 m
506.0 590.4477 505.55228 590.0 505.0 590.0 c
504.44772 590.0 504.0 590.4477 504.0 591.0 c
504.0 591.5523 504.44772 592.0 505.0 592.0 c
505.55228 592.0 506.0 591.5523 506.0 591.0 c
closepath
fill
0.0 0.0 0.0 setrgbcolor
newpath
506.0 591.0 m
506.0 590.4477 505.55228 590.0 505.0 590.0 c
504.44772 590.0 504.0 590.4477 504.0 591.0 c
504.0 591.5523 504.44772 592.0 505.0 592.0 c
505.55228 592.0 506.0 591.5523 506.0 591.0 c
closepath
stroke
0.0 0.0 0.0 setrgbcolor
newpath
526.0 607.0 m
526.0 606.4477 525.5523 606.0 525.0 606.0 c
524.4477 606.0 524.0 606.4477 524.0 607.0 c
524.0 607.5523 524.4477 608.0 525.0 608.0 c
525.5523 608.0 526.0 607.5523 526.0 607.0 c
closepath
fill
0.0 0.0 0.0 setrgbcolor
newpath
526.0 607.0 m
526.0 606.4477 525.5523 606.0 525.0 606.0 c
524.4477 606.0 524.0 606.4477 524.0 607.0 c
524.0 607.5523 524.4477 608.0 525.0 608.0 c
525.5523 608.0 526.0 607.5523 526.0 607.0 c
closepath
stroke
0.0 0.0 0.0 setrgbcolor
newpath
497.0 657.0 m
497.0 656.4477 496.55228 656.0 496.0 656.0 c
495.44772 656.0 495.0 656.4477 495.0 657.0 c
495.0 657.5523 495.44772 658.0 496.0 658.0 c
496.55228 658.0 497.0 657.5523 497.0 657.0 c
closepath
fill
0.0 0.0 0.0 setrgbcolor
newpath
497.0 657.0 m
497.0 656.4477 496.55228 656.0 496.0 656.0 c
495.44772 656.0 495.0 656.4477 495.0 657.0 c
495.0 657.5523 495.44772 658.0 496.0 658.0 c
496.55228 658.0 497.0 657.5523 497.0 657.0 c
closepath
stroke
0.0 0.0 0.0 setrgbcolor
newpath
363.0 817.0 m
363.0 816.44775 362.55228 816.0 362.0 816.0 c
361.44772 816.0 361.0 816.44775 361.0 817.0 c
361.0 817.55225 361.44772 818.0 362.0 818.0 c
362.55228 818.0 363.0 817.55225 363.0 817.0 c
closepath
fill
0.0 0.0 0.0 setrgbcolor
newpath
363.0 817.0 m
363.0 816.44775 362.55228 816.0 362.0 816.0 c
361.44772 816.0 361.0 816.44775 361.0 817.0 c
361.0 817.55225 361.44772 818.0 362.0 818.0 c
362.55228 818.0 363.0 817.55225 363.0 817.0 c
closepath
stroke
0.0 0.0 0.0 setrgbcolor
newpath
372.0 812.0 m
372.0 811.44775 371.55228 811.0 371.0 811.0 c
370.44772 811.0 370.0 811.44775 370.0 812.0 c
370.0 812.55225 370.44772 813.0 371.0 813.0 c
371.55228 813.0 372.0 812.55225 372.0 812.0 c
closepath
fill
0.0 0.0 0.0 setrgbcolor
newpath
372.0 812.0 m
372.0 811.44775 371.55228 811.0 371.0 811.0 c
370.44772 811.0 370.0 811.44775 370.0 812.0 c
370.0 812.55225 370.44772 813.0 371.0 813.0 c
371.55228 813.0 372.0 812.55225 372.0 812.0 c
closepath
stroke
0.0 0.0 0.0 setrgbcolor
newpath
385.0 807.0 m
385.0 806.44775 384.55228 806.0 384.0 806.0 c
383.44772 806.0 383.0 806.44775 383.0 807.0 c
383.0 807.55225 383.44772 808.0 384.0 808.0 c
384.55228 808.0 385.0 807.55225 385.0 807.0 c
closepath
fill
0.0 0.0 0.0 setrgbcolor
newpath
385.0 807.0 m
385.0 806.44775 384.55228 806.0 384.0 806.0 c
383.44772 806.0 383.0 806.44775 383.0 807.0 c
383.0 807.55225 383.44772 808.0 384.0 808.0 c
384.55228 808.0 385.0 807.55225 385.0 807.0 c
closepath
stroke
0.0 0.0 0.0 setrgbcolor
newpath
409.0 849.0 m
409.0 848.44775 408.55228 848.0 408.0 848.0 c
407.44772 848.0 407.0 848.44775 407.0 849.0 c
407.0 849.55225 407.44772 850.0 408.0 850.0 c
408.55228 850.0 409.0 849.55225 409.0 849.0 c
closepath
fill
0.0 0.0 0.0 setrgbcolor
newpath
409.0 849.0 m
409.0 848.44775 408.55228 848.0 408.0 848.0 c
407.44772 848.0 407.0 848.44775 407.0 849.0 c
407.0 849.55225 407.44772 850.0 408.0 850.0 c
408.55228 850.0 409.0 849.55225 409.0 849.0 c
closepath
stroke
0.0 0.0 0.0 setrgbcolor
newpath
666.0 731.0 m
666.0 730.44775 665.5523 730.0 665.0 730.0 c
664.4477 730.0 664.0 730.44775 664.0 731.0 c
664.0 731.55225 664.4477 732.0 665.0 732.0 c
665.5523 732.0 666.0 731.55225 666.0 731.0 c
closepath
fill
0.0 0.0 0.0 setrgbcolor
newpath
666.0 731.0 m
666.0 730.44775 665.5523 730.0 665.0 730.0 c
664.4477 730.0 664.0 730.44775 664.0 731.0 c
664.0 731.55225 664.4477 732.0 665.0 732.0 c
665.5523 732.0 666.0 731.55225 666.0 731.0 c
closepath
stroke
0.0 0.0 0.0 setrgbcolor
newpath
667.0 731.0 m
667.0 730.44775 666.5523 730.0 666.0 730.0 c
665.4477 730.0 665.0 730.44775 665.0 731.0 c
665.0 731.55225 665.4477 732.0 666.0 732.0 c
666.5523 732.0 667.0 731.55225 667.0 731.0 c
closepath
fill
0.0 0.0 0.0 setrgbcolor
newpath
667.0 731.0 m
667.0 730.44775 666.5523 730.0 666.0 730.0 c
665.4477 730.0 665.0 730.44775 665.0 731.0 c
665.0 731.55225 665.4477 732.0 666.0 732.0 c
666.5523 732.0 667.0 731.55225 667.0 731.0 c
closepath
stroke
0.0 0.0 0.0 setrgbcolor
newpath
677.0 743.0 m
677.0 742.44775 676.5523 742.0 676.0 742.0 c
675.4477 742.0 675.0 742.44775 675.0 743.0 c
675.0 743.55225 675.4477 744.0 676.0 744.0 c
676.5523 744.0 677.0 743.55225 677.0 743.0 c
closepath
fill
0.0 0.0 0.0 setrgbcolor
newpath
677.0 743.0 m
677.0 742.44775 676.5523 742.0 676.0 742.0 c
675.4477 742.0 675.0 742.44775 675.0 743.0 c
675.0 743.55225 675.4477 744.0 676.0 744.0 c
676.5523 744.0 677.0 743.55225 677.0 743.0 c
closepath
stroke
0.0 0.0 0.0 setrgbcolor
newpath
674.0 734.0 m
674.0 733.44775 673.5523 733.0 673.0 733.0 c
672.4477 733.0 672.0 733.44775 672.0 734.0 c
672.0 734.55225 672.4477 735.0 673.0 735.0 c
673.5523 735.0 674.0 734.55225 674.0 734.0 c
closepath
fill
0.0 0.0 0.0 setrgbcolor
newpath
674.0 734.0 m
674.0 733.44775 673.5523 733.0 673.0 733.0 c
672.4477 733.0 672.0 733.44775 672.0 734.0 c
672.0 734.55225 672.4477 735.0 673.0 735.0 c
673.5523 735.0 674.0 734.55225 674.0 734.0 c
closepath
stroke
0.0 0.0 0.0 setrgbcolor
newpath
673.0 726.0 m
673.0 725.44775 672.5523 725.0 672.0 725.0 c
671.4477 725.0 671.0 725.44775 671.0 726.0 c
671.0 726.55225 671.4477 727.0 672.0 727.0 c
672.5523 727.0 673.0 726.55225 673.0 726.0 c
closepath
fill
0.0 0.0 0.0 setrgbcolor
newpath
673.0 726.0 m
673.0 725.44775 672.5523 725.0 672.0 725.0 c
671.4477 725.0 671.0 725.44775 671.0 726.0 c
671.0 726.55225 671.4477 727.0 672.0 727.0 c
672.5523 727.0 673.0 726.55225 673.0 726.0 c
closepath
stroke
0.0 0.0 0.0 setrgbcolor
newpath
674.0 723.0 m
674.0 722.44775 673.5523 722.0 673.0 722.0 c
672.4477 722.0 672.0 722.44775 672.0 723.0 c
672.0 723.55225 672.4477 724.0 673.0 724.0 c
673.5523 724.0 674.0 723.55225 674.0 723.0 c
closepath
fill
0.0 0.0 0.0 setrgbcolor
newpath
674.0 723.0 m
674.0 722.44775 673.5523 722.0 673.0 722.0 c
672.4477 722.0 672.0 722.44775 672.0 723.0 c
672.0 723.55225 672.4477 724.0 673.0 724.0 c
673.5523 724.0 674.0 723.55225 674.0 723.0 c
closepath
stroke
0.0 0.0 0.0 setrgbcolor
newpath
677.0 718.0 m
677.0 717.44775 676.5523 717.0 676.0 717.0 c
675.4477 717.0 675.0 717.44775 675.0 718.0 c
675.0 718.55225 675.4477 719.0 676.0 719.0 c
676.5523 719.0 677.0 718.55225 677.0 718.0 c
closepath
fill
0.0 0.0 0.0 setrgbcolor
newpath
677.0 718.0 m
677.0 717.44775 676.5523 717.0 676.0 717.0 c
675.4477 717.0 675.0 717.44775 675.0 718.0 c
675.0 718.55225 675.4477 719.0 676.0 719.0 c
676.5523 719.0 677.0 718.55225 677.0 718.0 c
closepath
stroke
0.0 0.0 0.0 setrgbcolor
newpath
731.0 749.0 m
731.0 748.44775 730.5523 748.0 730.0 748.0 c
729.4477 748.0 729.0 748.44775 729.0 749.0 c
729.0 749.55225 729.4477 750.0 730.0 750.0 c
730.5523 750.0 731.0 749.55225 731.0 749.0 c
closepath
fill
0.0 0.0 0.0 setrgbcolor
newpath
731.0 749.0 m
731.0 748.44775 730.5523 748.0 730.0 748.0 c
729.4477 748.0 729.0 748.44775 729.0 749.0 c
729.0 749.55225 729.4477 750.0 730.0 750.0 c
730.5523 750.0 731.0 749.55225 731.0 749.0 c
closepath
stroke
0.0 0.0 0.0 setrgbcolor
newpath
721.0 737.0 m
721.0 736.44775 720.5523 736.0 720.0 736.0 c
719.4477 736.0 719.0 736.44775 719.0 737.0 c
719.0 737.55225 719.4477 738.0 720.0 738.0 c
720.5523 738.0 721.0 737.55225 721.0 737.0 c
closepath
fill
0.0 0.0 0.0 setrgbcolor
newpath
721.0 737.0 m
721.0 736.44775 720.5523 736.0 720.0 736.0 c
719.4477 736.0 719.0 736.44775 719.0 737.0 c
719.0 737.55225 719.4477 738.0 720.0 738.0 c
720.5523 738.0 721.0 737.55225 721.0 737.0 c
closepath
stroke
0.0 0.0 0.0 setrgbcolor
newpath
706.0 712.0 m
706.0 711.44775 705.5523 711.0 705.0 711.0 c
704.4477 711.0 704.0 711.44775 704.0 712.0 c
704.0 712.55225 704.4477 713.0 705.0 713.0 c
705.5523 713.0 706.0 712.55225 706.0 712.0 c
closepath
fill
0.0 0.0 0.0 setrgbcolor
newpath
706.0 712.0 m
706.0 711.44775 705.5523 711.0 705.0 711.0 c
704.4477 711.0 704.0 711.44775 704.0 712.0 c
704.0 712.55225 704.4477 713.0 705.0 713.0 c
705.5523 713.0 706.0 712.55225 706.0 712.0 c
closepath
stroke
0.0 0.0 0.0 setrgbcolor
newpath
746.0 719.0 m
746.0 718.44775 745.5523 718.0 745.0 718.0 c
744.4477 718.0 744.0 718.44775 744.0 719.0 c
744.0 719.55225 744.4477 720.0 745.0 720.0 c
745.5523 720.0 746.0 719.55225 746.0 719.0 c
closepath
fill
0.0 0.0 0.0 setrgbcolor
newpath
746.0 719.0 m
746.0 718.44775 745.5523 718.0 745.0 718.0 c
744.4477 718.0 744.0 718.44775 744.0 719.0 c
744.0 719.55225 744.4477 720.0 745.0 720.0 c
745.5523 720.0 746.0 719.55225 746.0 719.0 c
closepath
stroke
/Helvetica findfont
11 scalefont
setfont
0.0 0.0 0.0 setrgbcolor
gsave
[1.0 0.0 0.0 1.0 0.0 1200.0] concat
793.0 -528.0 m
(Akuriyo) show
grestore
/Helvetica findfont
11 scalefont
setfont
0.0 0.0 0.0 setrgbcolor
gsave
[1.0 0.0 0.0 1.0 0.0 1200.0] concat
697.0 -649.0 m
(Werikyana) show
grestore
/Helvetica findfont
11 scalefont
setfont
0.0 0.0 0.0 setrgbcolor
gsave
[1.0 0.0 0.0 1.0 0.0 1200.0] concat
672.0 -740.0 m
(Bakairi) show
grestore
/Helvetica findfont
11 scalefont
setfont
0.0 0.0 0.0 setrgbcolor
gsave
[1.0 0.0 0.0 1.0 0.0 1200.0] concat
584.0 -825.0 m
(Kapon) show
grestore
/Helvetica findfont
11 scalefont
setfont
0.0 0.0 0.0 setrgbcolor
gsave
[1.0 0.0 0.0 1.0 0.0 1200.0] concat
392.0 -923.0 m
(Yukpa) show
grestore
/Helvetica findfont
11 scalefont
setfont
0.0 0.0 0.0 setrgbcolor
gsave
[1.0 0.0 0.0 1.0 0.0 1200.0] concat
407.0 -817.0 m
(Pemon) show
grestore
/Helvetica findfont
11 scalefont
setfont
0.0 0.0 0.0 setrgbcolor
gsave
[1.0 0.0 0.0 1.0 0.0 1200.0] concat
360.0 -690.0 m
(Hixkaryana) show
grestore
/Helvetica findfont
11 scalefont
setfont
0.0 0.0 0.0 setrgbcolor
gsave
[1.0 0.0 0.0 1.0 0.0 1200.0] concat
398.0 -633.0 m
(Waiwai) show
grestore
/Helvetica findfont
11 scalefont
setfont
0.0 0.0 0.0 setrgbcolor
gsave
[1.0 0.0 0.0 1.0 0.0 1200.0] concat
308.0 -570.0 m
(Waimiri-Atroari) show
grestore
/Helvetica findfont
11 scalefont
setfont
0.0 0.0 0.0 setrgbcolor
gsave
[1.0 0.0 0.0 1.0 0.0 1200.0] concat
258.0 -329.0 m
(Ikpeng) show
grestore
/Helvetica findfont
11 scalefont
setfont
0.0 0.0 0.0 setrgbcolor
gsave
[1.0 0.0 0.0 1.0 0.0 1200.0] concat
360.0 -285.0 m
(Arara) show
grestore
/Helvetica findfont
11 scalefont
setfont
0.0 0.0 0.0 setrgbcolor
gsave
[1.0 0.0 0.0 1.0 0.0 1200.0] concat
521.0 -445.0 m
(Apalai) show
grestore
/Helvetica findfont
11 scalefont
setfont
0.0 0.0 0.0 setrgbcolor
gsave
[1.0 0.0 0.0 1.0 0.0 1200.0] concat
663.0 -401.0 m
(Tiriyo) show
grestore
/Helvetica findfont
11 scalefont
setfont
0.0 0.0 0.0 setrgbcolor
gsave
[1.0 0.0 0.0 1.0 0.0 1200.0] concat
679.0 -414.0 m
(Wayana) show
grestore
/Helvetica findfont
11 scalefont
setfont
0.0 0.0 0.0 setrgbcolor
gsave
[1.0 0.0 0.0 1.0 0.0 1200.0] concat
777.0 -417.0 m
(Yekwana) show
grestore
/Helvetica findfont
11 scalefont
setfont
0.0 0.0 0.0 setrgbcolor
gsave
[1.0 0.0 0.0 1.0 0.0 1200.0] concat
805.0 -465.0 m
(Karina) show
grestore
/Helvetica findfont
11 scalefont
setfont
0.0 0.0 0.0 setrgbcolor
gsave
[1.0 0.0 0.0 1.0 0.0 1200.0] concat
521.0 -841.0 m
(Macushi) show
grestore
/Helvetica findfont
11 scalefont
setfont
0.0 0.0 0.0 setrgbcolor
gsave
[1.0 0.0 0.0 1.0 0.0 1200.0] concat
468.0 -864.0 m
(Panare) show
grestore
showpage
%%EOF