%!PS-Adobe-3.0 EPSF-3.0
%%BoundingBox: 0 0 1200 1007
%%Creator: jloda
%%EndComments
/c {curveto} bind def
/m {moveto} bind def
/l {lineto} bind def
1.0 1.0 1.0 setrgbcolor
newpath
0.0 1007.0 m
1200.0 1007.0 l
1200.0 0.0 l
0.0 0.0 l
0.0 1007.0 l
closepath
fill
0.0 0.0 0.0 setrgbcolor
0.0 0.0 0.0 setrgbcolor
/Helvetica findfont
11 scalefont
setfont
2 setlinecap
1 setlinejoin
10.0 setmiterlimit
1.0 setlinewidth
0.0 0.0 0.0 setrgbcolor
newpath
618.0 623.0 m
897.0 623.0 l
stroke
0.0 0.0 0.0 setrgbcolor
newpath
593.0 621.0 m
612.0 623.0 l
stroke
0.0 0.0 0.0 setrgbcolor
newpath
573.0 626.0 m
588.0 621.0 l
stroke
0.0 0.0 0.0 setrgbcolor
newpath
597.0 629.0 m
612.0 624.0 l
stroke
0.0 0.0 0.0 setrgbcolor
newpath
592.0 629.0 m
573.0 627.0 l
stroke
0.0 0.0 0.0 setrgbcolor
newpath
541.0 638.0 m
568.0 628.0 l
stroke
0.0 0.0 0.0 setrgbcolor
newpath
565.0 642.0 m
592.0 631.0 l
stroke
0.0 0.0 0.0 setrgbcolor
newpath
560.0 643.0 m
541.0 640.0 l
stroke
0.0 0.0 0.0 setrgbcolor
newpath
539.0 639.0 m
536.0 641.0 l
stroke
0.0 0.0 0.0 setrgbcolor
newpath
518.0 656.0 m
534.0 642.0 l
stroke
0.0 0.0 0.0 setrgbcolor
newpath
520.0 656.0 m
536.0 641.0 l
stroke
0.0 0.0 0.0 setrgbcolor
newpath
515.0 657.0 m
519.0 657.0 l
stroke
0.0 0.0 0.0 setrgbcolor
newpath
544.0 659.0 m
560.0 645.0 l
stroke
0.0 0.0 0.0 setrgbcolor
newpath
539.0 660.0 m
520.0 658.0 l
stroke
0.0 0.0 0.0 setrgbcolor
newpath
517.0 682.0 m
516.0 660.0 l
stroke
0.0 0.0 0.0 setrgbcolor
newpath
519.0 682.0 m
518.0 660.0 l
stroke
0.0 0.0 0.0 setrgbcolor
newpath
517.0 684.0 m
521.0 684.0 l
stroke
0.0 0.0 0.0 setrgbcolor
newpath
543.0 685.0 m
542.0 663.0 l
stroke
0.0 0.0 0.0 setrgbcolor
newpath
541.0 687.0 m
522.0 685.0 l
stroke
0.0 0.0 0.0 setrgbcolor
newpath
504.0 656.0 m
513.0 657.0 l
stroke
0.0 0.0 0.0 setrgbcolor
newpath
505.0 683.0 m
515.0 684.0 l
stroke
0.0 0.0 0.0 setrgbcolor
newpath
502.0 680.0 m
502.0 658.0 l
stroke
0.0 0.0 0.0 setrgbcolor
newpath
503.0 684.0 m
503.0 685.0 l
stroke
0.0 0.0 0.0 setrgbcolor
newpath
517.0 687.0 m
517.0 687.0 l
stroke
0.0 0.0 0.0 setrgbcolor
newpath
514.0 689.0 m
505.0 688.0 l
stroke
0.0 0.0 0.0 setrgbcolor
newpath
503.0 689.0 m
503.0 690.0 l
stroke
0.0 0.0 0.0 setrgbcolor
newpath
517.0 692.0 m
517.0 692.0 l
stroke
0.0 0.0 0.0 setrgbcolor
newpath
515.0 694.0 m
505.0 693.0 l
stroke
0.0 0.0 0.0 setrgbcolor
newpath
490.0 652.0 m
499.0 654.0 l
stroke
0.0 0.0 0.0 setrgbcolor
newpath
492.0 678.0 m
500.0 681.0 l
stroke
0.0 0.0 0.0 setrgbcolor
newpath
489.0 674.0 m
488.0 653.0 l
stroke
0.0 0.0 0.0 setrgbcolor
newpath
491.0 683.0 m
500.0 686.0 l
stroke
0.0 0.0 0.0 setrgbcolor
newpath
489.0 679.0 m
489.0 679.0 l
stroke
0.0 0.0 0.0 setrgbcolor
newpath
455.0 646.0 m
485.0 650.0 l
stroke
0.0 0.0 0.0 setrgbcolor
newpath
457.0 673.0 m
487.0 676.0 l
stroke
0.0 0.0 0.0 setrgbcolor
newpath
454.0 670.0 m
453.0 648.0 l
stroke
0.0 0.0 0.0 setrgbcolor
newpath
456.0 677.0 m
486.0 681.0 l
stroke
0.0 0.0 0.0 setrgbcolor
newpath
454.0 674.0 m
454.0 675.0 l
stroke
0.0 0.0 0.0 setrgbcolor
newpath
470.0 683.0 m
500.0 687.0 l
stroke
0.0 0.0 0.0 setrgbcolor
newpath
465.0 681.0 m
456.0 678.0 l
stroke
0.0 0.0 0.0 setrgbcolor
newpath
470.0 688.0 m
500.0 692.0 l
stroke
0.0 0.0 0.0 setrgbcolor
newpath
468.0 684.0 m
468.0 685.0 l
stroke
0.0 0.0 0.0 setrgbcolor
newpath
503.0 693.0 m
503.0 695.0 l
stroke
0.0 0.0 0.0 setrgbcolor
newpath
518.0 694.0 m
518.0 697.0 l
stroke
0.0 0.0 0.0 setrgbcolor
newpath
515.0 697.0 m
506.0 696.0 l
stroke
0.0 0.0 0.0 setrgbcolor
newpath
467.0 637.0 m
485.0 649.0 l
stroke
0.0 0.0 0.0 setrgbcolor
newpath
431.0 632.0 m
450.0 644.0 l
stroke
0.0 0.0 0.0 setrgbcolor
newpath
431.0 631.0 m
462.0 635.0 l
stroke
0.0 0.0 0.0 setrgbcolor
newpath
520.0 705.0 m
519.0 700.0 l
stroke
0.0 0.0 0.0 setrgbcolor
newpath
458.0 630.0 m
462.0 634.0 l
stroke
0.0 0.0 0.0 setrgbcolor
newpath
423.0 626.0 m
426.0 629.0 l
stroke
0.0 0.0 0.0 setrgbcolor
newpath
423.0 625.0 m
453.0 628.0 l
stroke
0.0 0.0 0.0 setrgbcolor
newpath
413.0 621.0 m
418.0 623.0 l
stroke
0.0 0.0 0.0 setrgbcolor
newpath
421.0 628.0 m
426.0 629.0 l
stroke
0.0 0.0 0.0 setrgbcolor
newpath
416.0 625.0 m
413.0 621.0 l
stroke
0.0 0.0 0.0 setrgbcolor
newpath
316.0 562.0 m
408.0 618.0 l
stroke
0.0 0.0 0.0 setrgbcolor
newpath
314.0 560.0 m
314.0 560.0 l
stroke
0.0 0.0 0.0 setrgbcolor
newpath
411.0 619.0 m
411.0 619.0 l
stroke
0.0 0.0 0.0 setrgbcolor
newpath
408.0 618.0 m
316.0 562.0 l
stroke
0.0 0.0 0.0 setrgbcolor
newpath
419.0 626.0 m
419.0 626.0 l
stroke
0.0 0.0 0.0 setrgbcolor
newpath
416.0 625.0 m
413.0 621.0 l
stroke
0.0 0.0 0.0 setrgbcolor
newpath
416.0 627.0 m
302.0 642.0 l
stroke
0.0 0.0 0.0 setrgbcolor
newpath
719.0 542.0 m
593.0 619.0 l
stroke
0.0 0.0 0.0 setrgbcolor
newpath
699.0 548.0 m
573.0 625.0 l
stroke
0.0 0.0 0.0 setrgbcolor
newpath
704.0 546.0 m
719.0 541.0 l
stroke
0.0 0.0 0.0 setrgbcolor
newpath
537.0 642.0 m
537.0 637.0 l
stroke
0.0 0.0 0.0 setrgbcolor
newpath
516.0 657.0 m
516.0 657.0 l
stroke
0.0 0.0 0.0 setrgbcolor
newpath
518.0 656.0 m
534.0 641.0 l
stroke
0.0 0.0 0.0 setrgbcolor
newpath
731.0 532.0 m
724.0 539.0 l
stroke
0.0 0.0 0.0 setrgbcolor
newpath
736.0 529.0 m
854.0 458.0 l
stroke
0.0 0.0 0.0 setrgbcolor
newpath
711.0 538.0 m
704.0 545.0 l
stroke
0.0 0.0 0.0 setrgbcolor
newpath
716.0 536.0 m
731.0 531.0 l
stroke
0.0 0.0 0.0 setrgbcolor
newpath
537.0 629.0 m
537.0 637.0 l
stroke
0.0 0.0 0.0 setrgbcolor
newpath
538.0 624.0 m
605.0 303.0 l
stroke
0.0 0.0 0.0 setrgbcolor
newpath
516.0 646.0 m
516.0 655.0 l
stroke
0.0 0.0 0.0 setrgbcolor
newpath
519.0 642.0 m
535.0 628.0 l
stroke
0.0 0.0 0.0 setrgbcolor
newpath
616.0 623.0 m
616.0 622.44775 615.5523 622.0 615.0 622.0 c
614.4477 622.0 614.0 622.44775 614.0 623.0 c
614.0 623.55225 614.4477 624.0 615.0 624.0 c
615.5523 624.0 616.0 623.55225 616.0 623.0 c
closepath
fill
0.0 0.0 0.0 setrgbcolor
newpath
616.0 623.0 m
616.0 622.44775 615.5523 622.0 615.0 622.0 c
614.4477 622.0 614.0 622.44775 614.0 623.0 c
614.0 623.55225 614.4477 624.0 615.0 624.0 c
615.5523 624.0 616.0 623.55225 616.0 623.0 c
closepath
stroke
0.0 0.0 0.0 setrgbcolor
newpath
901.0 623.0 m
901.0 622.44775 900.5523 622.0 900.0 622.0 c
899.4477 622.0 899.0 622.44775 899.0 623.0 c
899.0 623.55225 899.4477 624.0 900.0 624.0 c
900.5523 624.0 901.0 623.55225 901.0 623.0 c
closepath
fill
0.0 0.0 0.0 setrgbcolor
newpath
901.0 623.0 m
901.0 622.44775 900.5523 622.0 900.0 622.0 c
899.4477 622.0 899.0 622.44775 899.0 623.0 c
899.0 623.55225 899.4477 624.0 900.0 624.0 c
900.5523 624.0 901.0 623.55225 901.0 623.0 c
closepath
stroke
0.0 0.0 0.0 setrgbcolor
newpath
858.0 456.0 m
858.0 455.4477 857.5523 455.0 857.0 455.0 c
856.4477 455.0 856.0 455.4477 856.0 456.0 c
856.0 456.5523 856.4477 457.0 857.0 457.0 c
857.5523 457.0 858.0 456.5523 858.0 456.0 c
closepath
fill
0.0 0.0 0.0 setrgbcolor
newpath
858.0 456.0 m
858.0 455.4477 857.5523 455.0 857.0 455.0 c
856.4477 455.0 856.0 455.4477 856.0 456.0 c
856.0 456.5523 856.4477 457.0 857.0 457.0 c
857.5523 457.0 858.0 456.5523 858.0 456.0 c
closepath
stroke
0.0 0.0 0.0 setrgbcolor
newpath
607.0 300.0 m
607.0 299.4477 606.5523 299.0 606.0 299.0 c
605.4477 299.0 605.0 299.4477 605.0 300.0 c
605.0 300.5523 605.4477 301.0 606.0 301.0 c
606.5523 301.0 607.0 300.5523 607.0 300.0 c
closepath
fill
0.0 0.0 0.0 setrgbcolor
newpath
607.0 300.0 m
607.0 299.4477 606.5523 299.0 606.0 299.0 c
605.4477 299.0 605.0 299.4477 605.0 300.0 c
605.0 300.5523 605.4477 301.0 606.0 301.0 c
606.5523 301.0 607.0 300.5523 607.0 300.0 c
closepath
stroke
0.0 0.0 0.0 setrgbcolor
newpath
301.0 642.0 m
301.0 641.44775 300.55228 641.0 300.0 641.0 c
299.44772 641.0 299.0 641.44775 299.0 642.0 c
299.0 642.55225 299.44772 643.0 300.0 643.0 c
300.55228 643.0 301.0 642.55225 301.0 642.0 c
closepath
fill
0.0 0.0 0.0 setrgbcolor
newpath
301.0 642.0 m
301.0 641.44775 300.55228 641.0 300.0 641.0 c
299.44772 641.0 299.0 641.44775 299.0 642.0 c
299.0 642.55225 299.44772 643.0 300.0 643.0 c
300.55228 643.0 301.0 642.55225 301.0 642.0 c
closepath
stroke
0.0 0.0 0.0 setrgbcolor
newpath
592.0 620.0 m
592.0 619.44775 591.5523 619.0 591.0 619.0 c
590.4477 619.0 590.0 619.44775 590.0 620.0 c
590.0 620.55225 590.4477 621.0 591.0 621.0 c
591.5523 621.0 592.0 620.55225 592.0 620.0 c
closepath
fill
0.0 0.0 0.0 setrgbcolor
newpath
592.0 620.0 m
592.0 619.44775 591.5523 619.0 591.0 619.0 c
590.4477 619.0 590.0 619.44775 590.0 620.0 c
590.0 620.55225 590.4477 621.0 591.0 621.0 c
591.5523 621.0 592.0 620.55225 592.0 620.0 c
closepath
stroke
0.0 0.0 0.0 setrgbcolor
newpath
572.0 626.0 m
572.0 625.44775 571.5523 625.0 571.0 625.0 c
570.4477 625.0 570.0 625.44775 570.0 626.0 c
570.0 626.55225 570.4477 627.0 571.0 627.0 c
571.5523 627.0 572.0 626.55225 572.0 626.0 c
closepath
fill
0.0 0.0 0.0 setrgbcolor
newpath
572.0 626.0 m
572.0 625.44775 571.5523 625.0 571.0 625.0 c
570.4477 625.0 570.0 625.44775 570.0 626.0 c
570.0 626.55225 570.4477 627.0 571.0 627.0 c
571.5523 627.0 572.0 626.55225 572.0 626.0 c
closepath
stroke
0.0 0.0 0.0 setrgbcolor
newpath
596.0 629.0 m
596.0 628.44775 595.5523 628.0 595.0 628.0 c
594.4477 628.0 594.0 628.44775 594.0 629.0 c
594.0 629.55225 594.4477 630.0 595.0 630.0 c
595.5523 630.0 596.0 629.55225 596.0 629.0 c
closepath
fill
0.0 0.0 0.0 setrgbcolor
newpath
596.0 629.0 m
596.0 628.44775 595.5523 628.0 595.0 628.0 c
594.4477 628.0 594.0 628.44775 594.0 629.0 c
594.0 629.55225 594.4477 630.0 595.0 630.0 c
595.5523 630.0 596.0 629.55225 596.0 629.0 c
closepath
stroke
0.0 0.0 0.0 setrgbcolor
newpath
540.0 639.0 m
540.0 638.44775 539.5523 638.0 539.0 638.0 c
538.4477 638.0 538.0 638.44775 538.0 639.0 c
538.0 639.55225 538.4477 640.0 539.0 640.0 c
539.5523 640.0 540.0 639.55225 540.0 639.0 c
closepath
fill
0.0 0.0 0.0 setrgbcolor
newpath
540.0 639.0 m
540.0 638.44775 539.5523 638.0 539.0 638.0 c
538.4477 638.0 538.0 638.44775 538.0 639.0 c
538.0 639.55225 538.4477 640.0 539.0 640.0 c
539.5523 640.0 540.0 639.55225 540.0 639.0 c
closepath
stroke
0.0 0.0 0.0 setrgbcolor
newpath
564.0 643.0 m
564.0 642.44775 563.5523 642.0 563.0 642.0 c
562.4477 642.0 562.0 642.44775 562.0 643.0 c
562.0 643.55225 562.4477 644.0 563.0 644.0 c
563.5523 644.0 564.0 643.55225 564.0 643.0 c
closepath
fill
0.0 0.0 0.0 setrgbcolor
newpath
564.0 643.0 m
564.0 642.44775 563.5523 642.0 563.0 642.0 c
562.4477 642.0 562.0 642.44775 562.0 643.0 c
562.0 643.55225 562.4477 644.0 563.0 644.0 c
563.5523 644.0 564.0 643.55225 564.0 643.0 c
closepath
stroke
0.0 0.0 0.0 setrgbcolor
newpath
538.0 640.0 m
538.0 639.44775 537.5523 639.0 537.0 639.0 c
536.4477 639.0 536.0 639.44775 536.0 640.0 c
536.0 640.55225 536.4477 641.0 537.0 641.0 c
537.5523 641.0 538.0 640.55225 538.0 640.0 c
closepath
fill
0.0 0.0 0.0 setrgbcolor
newpath
538.0 640.0 m
538.0 639.44775 537.5523 639.0 537.0 639.0 c
536.4477 639.0 536.0 639.44775 536.0 640.0 c
536.0 640.55225 536.4477 641.0 537.0 641.0 c
537.5523 641.0 538.0 640.55225 538.0 640.0 c
closepath
stroke
0.0 0.0 0.0 setrgbcolor
newpath
517.0 657.0 m
517.0 656.44775 516.5523 656.0 516.0 656.0 c
515.4477 656.0 515.0 656.44775 515.0 657.0 c
515.0 657.55225 515.4477 658.0 516.0 658.0 c
516.5523 658.0 517.0 657.55225 517.0 657.0 c
closepath
fill
0.0 0.0 0.0 setrgbcolor
newpath
517.0 657.0 m
517.0 656.44775 516.5523 656.0 516.0 656.0 c
515.4477 656.0 515.0 656.44775 515.0 657.0 c
515.0 657.55225 515.4477 658.0 516.0 658.0 c
516.5523 658.0 517.0 657.55225 517.0 657.0 c
closepath
stroke
0.0 0.0 0.0 setrgbcolor
newpath
519.0 657.0 m
519.0 656.44775 518.5523 656.0 518.0 656.0 c
517.4477 656.0 517.0 656.44775 517.0 657.0 c
517.0 657.55225 517.4477 658.0 518.0 658.0 c
518.5523 658.0 519.0 657.55225 519.0 657.0 c
closepath
fill
0.0 0.0 0.0 setrgbcolor
newpath
519.0 657.0 m
519.0 656.44775 518.5523 656.0 518.0 656.0 c
517.4477 656.0 517.0 656.44775 517.0 657.0 c
517.0 657.55225 517.4477 658.0 518.0 658.0 c
518.5523 658.0 519.0 657.55225 519.0 657.0 c
closepath
stroke
0.0 0.0 0.0 setrgbcolor
newpath
543.0 660.0 m
543.0 659.44775 542.5523 659.0 542.0 659.0 c
541.4477 659.0 541.0 659.44775 541.0 660.0 c
541.0 660.55225 541.4477 661.0 542.0 661.0 c
542.5523 661.0 543.0 660.55225 543.0 660.0 c
closepath
fill
0.0 0.0 0.0 setrgbcolor
newpath
543.0 660.0 m
543.0 659.44775 542.5523 659.0 542.0 659.0 c
541.4477 659.0 541.0 659.44775 541.0 660.0 c
541.0 660.55225 541.4477 661.0 542.0 661.0 c
542.5523 661.0 543.0 660.55225 543.0 660.0 c
closepath
stroke
0.0 0.0 0.0 setrgbcolor
newpath
519.0 684.0 m
519.0 683.44775 518.5523 683.0 518.0 683.0 c
517.4477 683.0 517.0 683.44775 517.0 684.0 c
517.0 684.55225 517.4477 685.0 518.0 685.0 c
518.5523 685.0 519.0 684.55225 519.0 684.0 c
closepath
fill
0.0 0.0 0.0 setrgbcolor
newpath
519.0 684.0 m
519.0 683.44775 518.5523 683.0 518.0 683.0 c
517.4477 683.0 517.0 683.44775 517.0 684.0 c
517.0 684.55225 517.4477 685.0 518.0 685.0 c
518.5523 685.0 519.0 684.55225 519.0 684.0 c
closepath
stroke
0.0 0.0 0.0 setrgbcolor
newpath
521.0 684.0 m
521.0 683.44775 520.5523 683.0 520.0 683.0 c
519.4477 683.0 519.0 683.44775 519.0 684.0 c
519.0 684.55225 519.4477 685.0 520.0 685.0 c
520.5523 685.0 521.0 684.55225 521.0 684.0 c
closepath
fill
0.0 0.0 0.0 setrgbcolor
newpath
521.0 684.0 m
521.0 683.44775 520.5523 683.0 520.0 683.0 c
519.4477 683.0 519.0 683.44775 519.0 684.0 c
519.0 684.55225 519.4477 685.0 520.0 685.0 c
520.5523 685.0 521.0 684.55225 521.0 684.0 c
closepath
stroke
0.0 0.0 0.0 setrgbcolor
newpath
545.0 687.0 m
545.0 686.44775 544.5523 686.0 544.0 686.0 c
543.4477 686.0 543.0 686.44775 543.0 687.0 c
543.0 687.55225 543.4477 688.0 544.0 688.0 c
544.5523 688.0 545.0 687.55225 545.0 687.0 c
closepath
fill
0.0 0.0 0.0 setrgbcolor
newpath
545.0 687.0 m
545.0 686.44775 544.5523 686.0 544.0 686.0 c
543.4477 686.0 543.0 686.44775 543.0 687.0 c
543.0 687.55225 543.4477 688.0 544.0 688.0 c
544.5523 688.0 545.0 687.55225 545.0 687.0 c
closepath
stroke
0.0 0.0 0.0 setrgbcolor
newpath
503.0 655.0 m
503.0 654.44775 502.55228 654.0 502.0 654.0 c
501.44772 654.0 501.0 654.44775 501.0 655.0 c
501.0 655.55225 501.44772 656.0 502.0 656.0 c
502.55228 656.0 503.0 655.55225 503.0 655.0 c
closepath
fill
0.0 0.0 0.0 setrgbcolor
newpath
503.0 655.0 m
503.0 654.44775 502.55228 654.0 502.0 654.0 c
501.44772 654.0 501.0 654.44775 501.0 655.0 c
501.0 655.55225 501.44772 656.0 502.0 656.0 c
502.55228 656.0 503.0 655.55225 503.0 655.0 c
closepath
stroke
0.0 0.0 0.0 setrgbcolor
newpath
504.0 682.0 m
504.0 681.44775 503.55228 681.0 503.0 681.0 c
502.44772 681.0 502.0 681.44775 502.0 682.0 c
502.0 682.55225 502.44772 683.0 503.0 683.0 c
503.55228 683.0 504.0 682.55225 504.0 682.0 c
closepath
fill
0.0 0.0 0.0 setrgbcolor
newpath
504.0 682.0 m
504.0 681.44775 503.55228 681.0 503.0 681.0 c
502.44772 681.0 502.0 681.44775 502.0 682.0 c
502.0 682.55225 502.44772 683.0 503.0 683.0 c
503.55228 683.0 504.0 682.55225 504.0 682.0 c
closepath
stroke
0.0 0.0 0.0 setrgbcolor
newpath
504.0 687.0 m
504.0 686.44775 503.55228 686.0 503.0 686.0 c
502.44772 686.0 502.0 686.44775 502.0 687.0 c
502.0 687.55225 502.44772 688.0 503.0 688.0 c
503.55228 688.0 504.0 687.55225 504.0 687.0 c
closepath
fill
0.0 0.0 0.0 setrgbcolor
newpath
504.0 687.0 m
504.0 686.44775 503.55228 686.0 503.0 686.0 c
502.44772 686.0 502.0 686.44775 502.0 687.0 c
502.0 687.55225 502.44772 688.0 503.0 688.0 c
503.55228 688.0 504.0 687.55225 504.0 687.0 c
closepath
stroke
0.0 0.0 0.0 setrgbcolor
newpath
518.0 689.0 m
518.0 688.44775 517.5523 688.0 517.0 688.0 c
516.4477 688.0 516.0 688.44775 516.0 689.0 c
516.0 689.55225 516.4477 690.0 517.0 690.0 c
517.5523 690.0 518.0 689.55225 518.0 689.0 c
closepath
fill
0.0 0.0 0.0 setrgbcolor
newpath
518.0 689.0 m
518.0 688.44775 517.5523 688.0 517.0 688.0 c
516.4477 688.0 516.0 688.44775 516.0 689.0 c
516.0 689.55225 516.4477 690.0 517.0 690.0 c
517.5523 690.0 518.0 689.55225 518.0 689.0 c
closepath
stroke
0.0 0.0 0.0 setrgbcolor
newpath
504.0 692.0 m
504.0 691.44775 503.55228 691.0 503.0 691.0 c
502.44772 691.0 502.0 691.44775 502.0 692.0 c
502.0 692.55225 502.44772 693.0 503.0 693.0 c
503.55228 693.0 504.0 692.55225 504.0 692.0 c
closepath
fill
0.0 0.0 0.0 setrgbcolor
newpath
504.0 692.0 m
504.0 691.44775 503.55228 691.0 503.0 691.0 c
502.44772 691.0 502.0 691.44775 502.0 692.0 c
502.0 692.55225 502.44772 693.0 503.0 693.0 c
503.55228 693.0 504.0 692.55225 504.0 692.0 c
closepath
stroke
0.0 0.0 0.0 setrgbcolor
newpath
519.0 694.0 m
519.0 693.44775 518.5523 693.0 518.0 693.0 c
517.4477 693.0 517.0 693.44775 517.0 694.0 c
517.0 694.55225 517.4477 695.0 518.0 695.0 c
518.5523 695.0 519.0 694.55225 519.0 694.0 c
closepath
fill
0.0 0.0 0.0 setrgbcolor
newpath
519.0 694.0 m
519.0 693.44775 518.5523 693.0 518.0 693.0 c
517.4477 693.0 517.0 693.44775 517.0 694.0 c
517.0 694.55225 517.4477 695.0 518.0 695.0 c
518.5523 695.0 519.0 694.55225 519.0 694.0 c
closepath
stroke
0.0 0.0 0.0 setrgbcolor
newpath
489.0 650.0 m
489.0 649.44775 488.55228 649.0 488.0 649.0 c
487.44772 649.0 487.0 649.44775 487.0 650.0 c
487.0 650.55225 487.44772 651.0 488.0 651.0 c
488.55228 651.0 489.0 650.55225 489.0 650.0 c
closepath
fill
0.0 0.0 0.0 setrgbcolor
newpath
489.0 650.0 m
489.0 649.44775 488.55228 649.0 488.0 649.0 c
487.44772 649.0 487.0 649.44775 487.0 650.0 c
487.0 650.55225 487.44772 651.0 488.0 651.0 c
488.55228 651.0 489.0 650.55225 489.0 650.0 c
closepath
stroke
0.0 0.0 0.0 setrgbcolor
newpath
491.0 676.0 m
491.0 675.44775 490.55228 675.0 490.0 675.0 c
489.44772 675.0 489.0 675.44775 489.0 676.0 c
489.0 676.55225 489.44772 677.0 490.0 677.0 c
490.55228 677.0 491.0 676.55225 491.0 676.0 c
closepath
fill
0.0 0.0 0.0 setrgbcolor
newpath
491.0 676.0 m
491.0 675.44775 490.55228 675.0 490.0 675.0 c
489.44772 675.0 489.0 675.44775 489.0 676.0 c
489.0 676.55225 489.44772 677.0 490.0 677.0 c
490.55228 677.0 491.0 676.55225 491.0 676.0 c
closepath
stroke
0.0 0.0 0.0 setrgbcolor
newpath
490.0 681.0 m
490.0 680.44775 489.55228 680.0 489.0 680.0 c
488.44772 680.0 488.0 680.44775 488.0 681.0 c
488.0 681.55225 488.44772 682.0 489.0 682.0 c
489.55228 682.0 490.0 681.55225 490.0 681.0 c
closepath
fill
0.0 0.0 0.0 setrgbcolor
newpath
490.0 681.0 m
490.0 680.44775 489.55228 680.0 489.0 680.0 c
488.44772 680.0 488.0 680.44775 488.0 681.0 c
488.0 681.55225 488.44772 682.0 489.0 682.0 c
489.55228 682.0 490.0 681.55225 490.0 681.0 c
closepath
stroke
0.0 0.0 0.0 setrgbcolor
newpath
454.0 645.0 m
454.0 644.44775 453.55228 644.0 453.0 644.0 c
452.44772 644.0 452.0 644.44775 452.0 645.0 c
452.0 645.55225 452.44772 646.0 453.0 646.0 c
453.55228 646.0 454.0 645.55225 454.0 645.0 c
closepath
fill
0.0 0.0 0.0 setrgbcolor
newpath
454.0 645.0 m
454.0 644.44775 453.55228 644.0 453.0 644.0 c
452.44772 644.0 452.0 644.44775 452.0 645.0 c
452.0 645.55225 452.44772 646.0 453.0 646.0 c
453.55228 646.0 454.0 645.55225 454.0 645.0 c
closepath
stroke
0.0 0.0 0.0 setrgbcolor
newpath
456.0 672.0 m
456.0 671.44775 455.55228 671.0 455.0 671.0 c
454.44772 671.0 454.0 671.44775 454.0 672.0 c
454.0 672.55225 454.44772 673.0 455.0 673.0 c
455.55228 673.0 456.0 672.55225 456.0 672.0 c
closepath
fill
0.0 0.0 0.0 setrgbcolor
newpath
456.0 672.0 m
456.0 671.44775 455.55228 671.0 455.0 671.0 c
454.44772 671.0 454.0 671.44775 454.0 672.0 c
454.0 672.55225 454.44772 673.0 455.0 673.0 c
455.55228 673.0 456.0 672.55225 456.0 672.0 c
closepath
stroke
0.0 0.0 0.0 setrgbcolor
newpath
455.0 676.0 m
455.0 675.44775 454.55228 675.0 454.0 675.0 c
453.44772 675.0 453.0 675.44775 453.0 676.0 c
453.0 676.55225 453.44772 677.0 454.0 677.0 c
454.55228 677.0 455.0 676.55225 455.0 676.0 c
closepath
fill
0.0 0.0 0.0 setrgbcolor
newpath
455.0 676.0 m
455.0 675.44775 454.55228 675.0 454.0 675.0 c
453.44772 675.0 453.0 675.44775 453.0 676.0 c
453.0 676.55225 453.44772 677.0 454.0 677.0 c
454.55228 677.0 455.0 676.55225 455.0 676.0 c
closepath
stroke
0.0 0.0 0.0 setrgbcolor
newpath
469.0 682.0 m
469.0 681.44775 468.55228 681.0 468.0 681.0 c
467.44772 681.0 467.0 681.44775 467.0 682.0 c
467.0 682.55225 467.44772 683.0 468.0 683.0 c
468.55228 683.0 469.0 682.55225 469.0 682.0 c
closepath
fill
0.0 0.0 0.0 setrgbcolor
newpath
469.0 682.0 m
469.0 681.44775 468.55228 681.0 468.0 681.0 c
467.44772 681.0 467.0 681.44775 467.0 682.0 c
467.0 682.55225 467.44772 683.0 468.0 683.0 c
468.55228 683.0 469.0 682.55225 469.0 682.0 c
closepath
stroke
0.0 0.0 0.0 setrgbcolor
newpath
469.0 687.0 m
469.0 686.44775 468.55228 686.0 468.0 686.0 c
467.44772 686.0 467.0 686.44775 467.0 687.0 c
467.0 687.55225 467.44772 688.0 468.0 688.0 c
468.55228 688.0 469.0 687.55225 469.0 687.0 c
closepath
fill
0.0 0.0 0.0 setrgbcolor
newpath
469.0 687.0 m
469.0 686.44775 468.55228 686.0 468.0 686.0 c
467.44772 686.0 467.0 686.44775 467.0 687.0 c
467.0 687.55225 467.44772 688.0 468.0 688.0 c
468.55228 688.0 469.0 687.55225 469.0 687.0 c
closepath
stroke
0.0 0.0 0.0 setrgbcolor
newpath
505.0 695.0 m
505.0 694.44775 504.55228 694.0 504.0 694.0 c
503.44772 694.0 503.0 694.44775 503.0 695.0 c
503.0 695.55225 503.44772 696.0 504.0 696.0 c
504.55228 696.0 505.0 695.55225 505.0 695.0 c
closepath
fill
0.0 0.0 0.0 setrgbcolor
newpath
505.0 695.0 m
505.0 694.44775 504.55228 694.0 504.0 694.0 c
503.44772 694.0 503.0 694.44775 503.0 695.0 c
503.0 695.55225 503.44772 696.0 504.0 696.0 c
504.55228 696.0 505.0 695.55225 505.0 695.0 c
closepath
stroke
0.0 0.0 0.0 setrgbcolor
newpath
519.0 697.0 m
519.0 696.44775 518.5523 696.0 518.0 696.0 c
517.4477 696.0 517.0 696.44775 517.0 697.0 c
517.0 697.55225 517.4477 698.0 518.0 698.0 c
518.5523 698.0 519.0 697.55225 519.0 697.0 c
closepath
fill
0.0 0.0 0.0 setrgbcolor
newpath
519.0 697.0 m
519.0 696.44775 518.5523 696.0 518.0 696.0 c
517.4477 696.0 517.0 696.44775 517.0 697.0 c
517.0 697.55225 517.4477 698.0 518.0 698.0 c
518.5523 698.0 519.0 697.55225 519.0 697.0 c
closepath
stroke
0.0 0.0 0.0 setrgbcolor
newpath
466.0 635.0 m
466.0 634.44775 465.55228 634.0 465.0 634.0 c
464.44772 634.0 464.0 634.44775 464.0 635.0 c
464.0 635.55225 464.44772 636.0 465.0 636.0 c
465.55228 636.0 466.0 635.55225 466.0 635.0 c
closepath
fill
0.0 0.0 0.0 setrgbcolor
newpath
466.0 635.0 m
466.0 634.44775 465.55228 634.0 465.0 634.0 c
464.44772 634.0 464.0 634.44775 464.0 635.0 c
464.0 635.55225 464.44772 636.0 465.0 636.0 c
465.55228 636.0 466.0 635.55225 466.0 635.0 c
closepath
stroke
0.0 0.0 0.0 setrgbcolor
newpath
430.0 630.0 m
430.0 629.44775 429.55228 629.0 429.0 629.0 c
428.44772 629.0 428.0 629.44775 428.0 630.0 c
428.0 630.55225 428.44772 631.0 429.0 631.0 c
429.55228 631.0 430.0 630.55225 430.0 630.0 c
closepath
fill
0.0 0.0 0.0 setrgbcolor
newpath
430.0 630.0 m
430.0 629.44775 429.55228 629.0 429.0 629.0 c
428.44772 629.0 428.0 629.44775 428.0 630.0 c
428.0 630.55225 428.44772 631.0 429.0 631.0 c
429.55228 631.0 430.0 630.55225 430.0 630.0 c
closepath
stroke
0.0 0.0 0.0 setrgbcolor
newpath
523.0 707.0 m
523.0 706.44775 522.5523 706.0 522.0 706.0 c
521.4477 706.0 521.0 706.44775 521.0 707.0 c
521.0 707.55225 521.4477 708.0 522.0 708.0 c
522.5523 708.0 523.0 707.55225 523.0 707.0 c
closepath
fill
0.0 0.0 0.0 setrgbcolor
newpath
523.0 707.0 m
523.0 706.44775 522.5523 706.0 522.0 706.0 c
521.4477 706.0 521.0 706.44775 521.0 707.0 c
521.0 707.55225 521.4477 708.0 522.0 708.0 c
522.5523 708.0 523.0 707.55225 523.0 707.0 c
closepath
stroke
0.0 0.0 0.0 setrgbcolor
newpath
457.0 628.0 m
457.0 627.44775 456.55228 627.0 456.0 627.0 c
455.44772 627.0 455.0 627.44775 455.0 628.0 c
455.0 628.55225 455.44772 629.0 456.0 629.0 c
456.55228 629.0 457.0 628.55225 457.0 628.0 c
closepath
fill
0.0 0.0 0.0 setrgbcolor
newpath
457.0 628.0 m
457.0 627.44775 456.55228 627.0 456.0 627.0 c
455.44772 627.0 455.0 627.44775 455.0 628.0 c
455.0 628.55225 455.44772 629.0 456.0 629.0 c
456.55228 629.0 457.0 628.55225 457.0 628.0 c
closepath
stroke
0.0 0.0 0.0 setrgbcolor
newpath
422.0 624.0 m
422.0 623.44775 421.55228 623.0 421.0 623.0 c
420.44772 623.0 420.0 623.44775 420.0 624.0 c
420.0 624.55225 420.44772 625.0 421.0 625.0 c
421.55228 625.0 422.0 624.55225 422.0 624.0 c
closepath
fill
0.0 0.0 0.0 setrgbcolor
newpath
422.0 624.0 m
422.0 623.44775 421.55228 623.0 421.0 623.0 c
420.44772 623.0 420.0 623.44775 420.0 624.0 c
420.0 624.55225 420.44772 625.0 421.0 625.0 c
421.55228 625.0 422.0 624.55225 422.0 624.0 c
closepath
stroke
0.0 0.0 0.0 setrgbcolor
newpath
412.0 619.0 m
412.0 618.44775 411.55228 618.0 411.0 618.0 c
410.44772 618.0 410.0 618.44775 410.0 619.0 c
410.0 619.55225 410.44772 620.0 411.0 620.0 c
411.55228 620.0 412.0 619.55225 412.0 619.0 c
closepath
fill
0.0 0.0 0.0 setrgbcolor
newpath
412.0 619.0 m
412.0 618.44775 411.55228 618.0 411.0 618.0 c
410.44772 618.0 410.0 618.44775 410.0 619.0 c
410.0 619.55225 410.44772 620.0 411.0 620.0 c
411.55228 620.0 412.0 619.55225 412.0 619.0 c
closepath
stroke
0.0 0.0 0.0 setrgbcolor
newpath
420.0 626.0 m
420.0 625.44775 419.55228 625.0 419.0 625.0 c
418.44772 625.0 418.0 625.44775 418.0 626.0 c
418.0 626.55225 418.44772 627.0 419.0 627.0 c
419.55228 627.0 420.0 626.55225 420.0 626.0 c
closepath
fill
0.0 0.0 0.0 setrgbcolor
newpath
420.0 626.0 m
420.0 625.44775 419.55228 625.0 419.0 625.0 c
418.44772 625.0 418.0 625.44775 418.0 626.0 c
418.0 626.55225 418.44772 627.0 419.0 627.0 c
419.55228 627.0 420.0 626.55225 420.0 626.0 c
closepath
stroke
0.0 0.0 0.0 setrgbcolor
newpath
315.0 560.0 m
315.0 559.44775 314.55228 559.0 314.0 559.0 c
313.44772 559.0 313.0 559.44775 313.0 560.0 c
313.0 560.55225 313.44772 561.0 314.0 561.0 c
314.55228 561.0 315.0 560.55225 315.0 560.0 c
closepath
fill
0.0 0.0 0.0 setrgbcolor
newpath
315.0 560.0 m
315.0 559.44775 314.55228 559.0 314.0 559.0 c
313.44772 559.0 313.0 559.44775 313.0 560.0 c
313.0 560.55225 313.44772 561.0 314.0 561.0 c
314.55228 561.0 315.0 560.55225 315.0 560.0 c
closepath
stroke
0.0 0.0 0.0 setrgbcolor
newpath
315.0 560.0 m
315.0 559.44775 314.55228 559.0 314.0 559.0 c
313.44772 559.0 313.0 559.44775 313.0 560.0 c
313.0 560.55225 313.44772 561.0 314.0 561.0 c
314.55228 561.0 315.0 560.55225 315.0 560.0 c
closepath
fill
0.0 0.0 0.0 setrgbcolor
newpath
315.0 560.0 m
315.0 559.44775 314.55228 559.0 314.0 559.0 c
313.44772 559.0 313.0 559.44775 313.0 560.0 c
313.0 560.55225 313.44772 561.0 314.0 561.0 c
314.55228 561.0 315.0 560.55225 315.0 560.0 c
closepath
stroke
0.0 0.0 0.0 setrgbcolor
newpath
412.0 619.0 m
412.0 618.44775 411.55228 618.0 411.0 618.0 c
410.44772 618.0 410.0 618.44775 410.0 619.0 c
410.0 619.55225 410.44772 620.0 411.0 620.0 c
411.55228 620.0 412.0 619.55225 412.0 619.0 c
closepath
fill
0.0 0.0 0.0 setrgbcolor
newpath
412.0 619.0 m
412.0 618.44775 411.55228 618.0 411.0 618.0 c
410.44772 618.0 410.0 618.44775 410.0 619.0 c
410.0 619.55225 410.44772 620.0 411.0 620.0 c
411.55228 620.0 412.0 619.55225 412.0 619.0 c
closepath
stroke
0.0 0.0 0.0 setrgbcolor
newpath
420.0 626.0 m
420.0 625.44775 419.55228 625.0 419.0 625.0 c
418.44772 625.0 418.0 625.44775 418.0 626.0 c
418.0 626.55225 418.44772 627.0 419.0 627.0 c
419.55228 627.0 420.0 626.55225 420.0 626.0 c
closepath
fill
0.0 0.0 0.0 setrgbcolor
newpath
420.0 626.0 m
420.0 625.44775 419.55228 625.0 419.0 625.0 c
418.44772 625.0 418.0 625.44775 418.0 626.0 c
418.0 626.55225 418.44772 627.0 419.0 627.0 c
419.55228 627.0 420.0 626.55225 420.0 626.0 c
closepath
stroke
0.0 0.0 0.0 setrgbcolor
newpath
723.0 540.0 m
723.0 539.44775 722.5523 539.0 722.0 539.0 c
721.4477 539.0 721.0 539.44775 721.0 540.0 c
721.0 540.55225 721.4477 541.0 722.0 541.0 c
722.5523 541.0 723.0 540.55225 723.0 540.0 c
closepath
fill
0.0 0.0 0.0 setrgbcolor
newpath
723.0 540.0 m
723.0 539.44775 722.5523 539.0 722.0 539.0 c
721.4477 539.0 721.0 539.44775 721.0 540.0 c
721.0 540.55225 721.4477 541.0 722.0 541.0 c
722.5523 541.0 723.0 540.55225 723.0 540.0 c
closepath
stroke
0.0 0.0 0.0 setrgbcolor
newpath
703.0 546.0 m
703.0 545.44775 702.5523 545.0 702.0 545.0 c
701.4477 545.0 701.0 545.44775 701.0 546.0 c
701.0 546.55225 701.4477 547.0 702.0 547.0 c
702.5523 547.0 703.0 546.55225 703.0 546.0 c
closepath
fill
0.0 0.0 0.0 setrgbcolor
newpath
703.0 546.0 m
703.0 545.44775 702.5523 545.0 702.0 545.0 c
701.4477 545.0 701.0 545.44775 701.0 546.0 c
701.0 546.55225 701.4477 547.0 702.0 547.0 c
702.5523 547.0 703.0 546.55225 703.0 546.0 c
closepath
stroke
0.0 0.0 0.0 setrgbcolor
newpath
538.0 639.0 m
538.0 638.44775 537.5523 638.0 537.0 638.0 c
536.4477 638.0 536.0 638.44775 536.0 639.0 c
536.0 639.55225 536.4477 640.0 537.0 640.0 c
537.5523 640.0 538.0 639.55225 538.0 639.0 c
closepath
fill
0.0 0.0 0.0 setrgbcolor
newpath
538.0 639.0 m
538.0 638.44775 537.5523 638.0 537.0 638.0 c
536.4477 638.0 536.0 638.44775 536.0 639.0 c
536.0 639.55225 536.4477 640.0 537.0 640.0 c
537.5523 640.0 538.0 639.55225 538.0 639.0 c
closepath
stroke
0.0 0.0 0.0 setrgbcolor
newpath
517.0 657.0 m
517.0 656.44775 516.5523 656.0 516.0 656.0 c
515.4477 656.0 515.0 656.44775 515.0 657.0 c
515.0 657.55225 515.4477 658.0 516.0 658.0 c
516.5523 658.0 517.0 657.55225 517.0 657.0 c
closepath
fill
0.0 0.0 0.0 setrgbcolor
newpath
517.0 657.0 m
517.0 656.44775 516.5523 656.0 516.0 656.0 c
515.4477 656.0 515.0 656.44775 515.0 657.0 c
515.0 657.55225 515.4477 658.0 516.0 658.0 c
516.5523 658.0 517.0 657.55225 517.0 657.0 c
closepath
stroke
0.0 0.0 0.0 setrgbcolor
newpath
735.0 530.0 m
735.0 529.44775 734.5523 529.0 734.0 529.0 c
733.4477 529.0 733.0 529.44775 733.0 530.0 c
733.0 530.55225 733.4477 531.0 734.0 531.0 c
734.5523 531.0 735.0 530.55225 735.0 530.0 c
closepath
fill
0.0 0.0 0.0 setrgbcolor
newpath
735.0 530.0 m
735.0 529.44775 734.5523 529.0 734.0 529.0 c
733.4477 529.0 733.0 529.44775 733.0 530.0 c
733.0 530.55225 733.4477 531.0 734.0 531.0 c
734.5523 531.0 735.0 530.55225 735.0 530.0 c
closepath
stroke
0.0 0.0 0.0 setrgbcolor
newpath
715.0 536.0 m
715.0 535.44775 714.5523 535.0 714.0 535.0 c
713.4477 535.0 713.0 535.44775 713.0 536.0 c
713.0 536.55225 713.4477 537.0 714.0 537.0 c
714.5523 537.0 715.0 536.55225 715.0 536.0 c
closepath
fill
0.0 0.0 0.0 setrgbcolor
newpath
715.0 536.0 m
715.0 535.44775 714.5523 535.0 714.0 535.0 c
713.4477 535.0 713.0 535.44775 713.0 536.0 c
713.0 536.55225 713.4477 537.0 714.0 537.0 c
714.5523 537.0 715.0 536.55225 715.0 536.0 c
closepath
stroke
0.0 0.0 0.0 setrgbcolor
newpath
539.0 626.0 m
539.0 625.44775 538.5523 625.0 538.0 625.0 c
537.4477 625.0 537.0 625.44775 537.0 626.0 c
537.0 626.55225 537.4477 627.0 538.0 627.0 c
538.5523 627.0 539.0 626.55225 539.0 626.0 c
closepath
fill
0.0 0.0 0.0 setrgbcolor
newpath
539.0 626.0 m
539.0 625.44775 538.5523 625.0 538.0 625.0 c
537.4477 625.0 537.0 625.44775 537.0 626.0 c
537.0 626.55225 537.4477 627.0 538.0 627.0 c
538.5523 627.0 539.0 626.55225 539.0 626.0 c
closepath
stroke
0.0 0.0 0.0 setrgbcolor
newpath
518.0 643.0 m
518.0 642.44775 517.5523 642.0 517.0 642.0 c
516.4477 642.0 516.0 642.44775 516.0 643.0 c
516.0 643.55225 516.4477 644.0 517.0 644.0 c
517.5523 644.0 518.0 643.55225 518.0 643.0 c
closepath
fill
0.0 0.0 0.0 setrgbcolor
newpath
518.0 643.0 m
518.0 642.44775 517.5523 642.0 517.0 642.0 c
516.4477 642.0 516.0 642.44775 516.0 643.0 c
516.0 643.55225 516.4477 644.0 517.0 644.0 c
517.5523 644.0 518.0 643.55225 518.0 643.0 c
closepath
stroke
/Helvetica findfont
11 scalefont
setfont
0.0 0.0 0.0 setrgbcolor
gsave
[1.0 0.0 0.0 1.0 0.0 1007.0] concat
912.0 -390.0 m
(Akuriyo) show
grestore
/Helvetica findfont
11 scalefont
setfont
0.0 0.0 0.0 setrgbcolor
gsave
[1.0 0.0 0.0 1.0 0.0 1007.0] concat
867.0 -563.0 m
(Arara) show
grestore
/Helvetica findfont
11 scalefont
setfont
0.0 0.0 0.0 setrgbcolor
gsave
[1.0 0.0 0.0 1.0 0.0 1007.0] concat
582.0 -731.0 m
(Werikyana) show
grestore
/Helvetica findfont
11 scalefont
setfont
0.0 0.0 0.0 setrgbcolor
gsave
[1.0 0.0 0.0 1.0 0.0 1007.0] concat
236.0 -369.0 m
(Tamanaku) show
grestore
/Helvetica findfont
11 scalefont
setfont
0.0 0.0 0.0 setrgbcolor
gsave
[1.0 0.0 0.0 1.0 0.0 1007.0] concat
539.0 -306.0 m
(Tiriyo) show
grestore
/Helvetica findfont
11 scalefont
setfont
0.0 0.0 0.0 setrgbcolor
gsave
[1.0 0.0 0.0 1.0 0.0 1007.0] concat
393.0 -339.0 m
(Yawarana) show
grestore
/Helvetica findfont
11 scalefont
setfont
0.0 0.0 0.0 setrgbcolor
gsave
[1.0 0.0 0.0 1.0 0.0 1007.0] concat
411.0 -326.0 m
(Yekwana) show
grestore
/Helvetica findfont
11 scalefont
setfont
0.0 0.0 0.0 setrgbcolor
gsave
[1.0 0.0 0.0 1.0 0.0 1007.0] concat
453.0 -312.0 m
(Mapoyo) show
grestore
/Helvetica findfont
11 scalefont
setfont
0.0 0.0 0.0 setrgbcolor
gsave
[1.0 0.0 0.0 1.0 0.0 1007.0] concat
358.0 -284.0 m
(Upper_Xingu_Carib, Karina, Apalai, Carijona, Wayana, Waimiri-Atroari) show
grestore
/Helvetica findfont
11 scalefont
setfont
0.0 0.0 0.0 setrgbcolor
gsave
[1.0 0.0 0.0 1.0 0.0 1007.0] concat
468.0 -386.0 m
(Yukpa) show
grestore
/Helvetica findfont
11 scalefont
setfont
0.0 0.0 0.0 setrgbcolor
gsave
[1.0 0.0 0.0 1.0 0.0 1007.0] concat
263.0 -444.0 m
(Macushi) show
grestore
/Helvetica findfont
11 scalefont
setfont
0.0 0.0 0.0 setrgbcolor
gsave
[1.0 0.0 0.0 1.0 0.0 1007.0] concat
192.0 -459.0 m
(Pemon, Kapon, Panare) show
grestore
/Helvetica findfont
11 scalefont
setfont
0.0 0.0 0.0 setrgbcolor
gsave
[1.0 0.0 0.0 1.0 0.0 1007.0] concat
733.0 -479.0 m
(Ikpeng) show
grestore
/Helvetica findfont
11 scalefont
setfont
0.0 0.0 0.0 setrgbcolor
gsave
[1.0 0.0 0.0 1.0 0.0 1007.0] concat
548.0 -377.0 m
(Waiwai) show
grestore
/Helvetica findfont
11 scalefont
setfont
0.0 0.0 0.0 setrgbcolor
gsave
[1.0 0.0 0.0 1.0 0.0 1007.0] concat
670.0 -482.0 m
(Bakairi) show
grestore
/Helvetica findfont
11 scalefont
setfont
0.0 0.0 0.0 setrgbcolor
gsave
[1.0 0.0 0.0 1.0 0.0 1007.0] concat
449.0 -368.0 m
(Hixkaryana) show
grestore
showpage
%%EOF