"lon","lat","language_id"
-54.7457,1.49792,"apa"
-55.7599,2.53616,"tri"
-58.80153,-0.16265,"hix"
-65.8483,6.95035,"pan"
-60.2209,4.31861,"mac"
-60.4259,-0.61832,"wmr"
-64.3877,4.70705,"mak"
-59.1417,1.50881,"wai"
-54.4429,2.77537,"way"
-56.8323,5.83772,"kar"
-53.49553,-11.37822,"ikp"
-53.2261,-12.3035,"uxc"
-53.0657,-3.71263,"ara"
-60.862,6.16277,"ing"
-61.4033,4.97031,"pem"
-60.862,6.16277,"kap"
-53.2261,-12.3035,"kui"
-73.0557,9.67534,"yuk"
-72.0664,1.21894,"car"
-54.7034,-14.2628,"bak"
-65.883,2.765,"tam"
-55.9101,2.17138,"kax"
-55.6294,3.19607,"aku"
-72.7101,10.5523,"jap"
-63.018,10.209,"cum"
-62.8,-13,"palm"
-42.5,-10,"pime"
-52,-4,"arak"
-62.52,1.45,"pxan"
-60.48,3.12,"para"
-58,-2,"bona"
-61.21079,3.133111,"wayu"
-49.77173,-6.5,"apia"
-73.62266,6.6993472,"opon"
-55.55878,-1.690001,"paux"
-61.58054,3.433437,"sapa"
-62.51541,10.102185,"tive"
-61.43483,10.171563,"yao"
-52.8,-11.6333,"yaru"
-76,9,"koya"
-72.0664,1.21894,"hian"
-56.51,1.75,"salu"
-57.92,3.01,"siku"
-61.69889,3.4489861,"puru"
-61,-5,"juma"
-65.49599,8.8387087,"pale"
-56.69205,1.2913186,"paru"
-54.35032,2.7984202,"uruk"
-53.40764,3.2176412,"waya"
-66.02333,9.9467688,"piri"
-72.08,1,"guak"
-73.0557,9.67534,"mcta"
-73.0557,9.67534,"maco"
-73.0557,9.67534,"chak"
-63.1,9.21256,"chai"
-63.1,9.21,"avar"
-62.71231,5.6014065,"kam"
-63.02,10.21,"cgt"
-60.4259,-0.61832,"cric"
-66.276,5.32692,"map"
-67.2581,5.96952,"yab"
-60.4259,-0.61832,"jawa"
-66.082,5.248,"pemo"
